\relax 
\catcode`"\active
\catcode`<\active
\catcode`>\active
\@nameuse{es@quoting}
\select@language{spanish}
\@writefile{toc}{\select@language{spanish}}
\@writefile{lof}{\select@language{spanish}}
\@writefile{lot}{\select@language{spanish}}
\@writefile{toc}{\contentsline {section}{\numberline {1}Instrucciones de Uso}{2}}
\@writefile{toc}{\contentsline {section}{\numberline {2}Seleccion de Atributos y entrenamiento}{2}}
