@relation SMILEfeatures

@attribute name string
@attribute pcm_loudness_sma_maxPos numeric
@attribute pcm_loudness_sma_minPos numeric
@attribute pcm_loudness_sma_amean numeric
@attribute pcm_loudness_sma_linregc1 numeric
@attribute pcm_loudness_sma_linregc2 numeric
@attribute pcm_loudness_sma_linregerrA numeric
@attribute pcm_loudness_sma_linregerrQ numeric
@attribute pcm_loudness_sma_stddev numeric
@attribute pcm_loudness_sma_skewness numeric
@attribute pcm_loudness_sma_kurtosis numeric
@attribute pcm_loudness_sma_quartile1 numeric
@attribute pcm_loudness_sma_quartile2 numeric
@attribute pcm_loudness_sma_quartile3 numeric
@attribute pcm_loudness_sma_iqr1-2 numeric
@attribute pcm_loudness_sma_iqr2-3 numeric
@attribute pcm_loudness_sma_iqr1-3 numeric
@attribute pcm_loudness_sma_percentile1.0 numeric
@attribute pcm_loudness_sma_percentile99.0 numeric
@attribute pcm_loudness_sma_pctlrange0-1 numeric
@attribute pcm_loudness_sma_upleveltime75 numeric
@attribute pcm_loudness_sma_upleveltime90 numeric
@attribute mfcc_sma[0]_maxPos numeric
@attribute mfcc_sma[0]_minPos numeric
@attribute mfcc_sma[0]_amean numeric
@attribute mfcc_sma[0]_linregc1 numeric
@attribute mfcc_sma[0]_linregc2 numeric
@attribute mfcc_sma[0]_linregerrA numeric
@attribute mfcc_sma[0]_linregerrQ numeric
@attribute mfcc_sma[0]_stddev numeric
@attribute mfcc_sma[0]_skewness numeric
@attribute mfcc_sma[0]_kurtosis numeric
@attribute mfcc_sma[0]_quartile1 numeric
@attribute mfcc_sma[0]_quartile2 numeric
@attribute mfcc_sma[0]_quartile3 numeric
@attribute mfcc_sma[0]_iqr1-2 numeric
@attribute mfcc_sma[0]_iqr2-3 numeric
@attribute mfcc_sma[0]_iqr1-3 numeric
@attribute mfcc_sma[0]_percentile1.0 numeric
@attribute mfcc_sma[0]_percentile99.0 numeric
@attribute mfcc_sma[0]_pctlrange0-1 numeric
@attribute mfcc_sma[0]_upleveltime75 numeric
@attribute mfcc_sma[0]_upleveltime90 numeric
@attribute mfcc_sma[1]_maxPos numeric
@attribute mfcc_sma[1]_minPos numeric
@attribute mfcc_sma[1]_amean numeric
@attribute mfcc_sma[1]_linregc1 numeric
@attribute mfcc_sma[1]_linregc2 numeric
@attribute mfcc_sma[1]_linregerrA numeric
@attribute mfcc_sma[1]_linregerrQ numeric
@attribute mfcc_sma[1]_stddev numeric
@attribute mfcc_sma[1]_skewness numeric
@attribute mfcc_sma[1]_kurtosis numeric
@attribute mfcc_sma[1]_quartile1 numeric
@attribute mfcc_sma[1]_quartile2 numeric
@attribute mfcc_sma[1]_quartile3 numeric
@attribute mfcc_sma[1]_iqr1-2 numeric
@attribute mfcc_sma[1]_iqr2-3 numeric
@attribute mfcc_sma[1]_iqr1-3 numeric
@attribute mfcc_sma[1]_percentile1.0 numeric
@attribute mfcc_sma[1]_percentile99.0 numeric
@attribute mfcc_sma[1]_pctlrange0-1 numeric
@attribute mfcc_sma[1]_upleveltime75 numeric
@attribute mfcc_sma[1]_upleveltime90 numeric
@attribute mfcc_sma[2]_maxPos numeric
@attribute mfcc_sma[2]_minPos numeric
@attribute mfcc_sma[2]_amean numeric
@attribute mfcc_sma[2]_linregc1 numeric
@attribute mfcc_sma[2]_linregc2 numeric
@attribute mfcc_sma[2]_linregerrA numeric
@attribute mfcc_sma[2]_linregerrQ numeric
@attribute mfcc_sma[2]_stddev numeric
@attribute mfcc_sma[2]_skewness numeric
@attribute mfcc_sma[2]_kurtosis numeric
@attribute mfcc_sma[2]_quartile1 numeric
@attribute mfcc_sma[2]_quartile2 numeric
@attribute mfcc_sma[2]_quartile3 numeric
@attribute mfcc_sma[2]_iqr1-2 numeric
@attribute mfcc_sma[2]_iqr2-3 numeric
@attribute mfcc_sma[2]_iqr1-3 numeric
@attribute mfcc_sma[2]_percentile1.0 numeric
@attribute mfcc_sma[2]_percentile99.0 numeric
@attribute mfcc_sma[2]_pctlrange0-1 numeric
@attribute mfcc_sma[2]_upleveltime75 numeric
@attribute mfcc_sma[2]_upleveltime90 numeric
@attribute mfcc_sma[3]_maxPos numeric
@attribute mfcc_sma[3]_minPos numeric
@attribute mfcc_sma[3]_amean numeric
@attribute mfcc_sma[3]_linregc1 numeric
@attribute mfcc_sma[3]_linregc2 numeric
@attribute mfcc_sma[3]_linregerrA numeric
@attribute mfcc_sma[3]_linregerrQ numeric
@attribute mfcc_sma[3]_stddev numeric
@attribute mfcc_sma[3]_skewness numeric
@attribute mfcc_sma[3]_kurtosis numeric
@attribute mfcc_sma[3]_quartile1 numeric
@attribute mfcc_sma[3]_quartile2 numeric
@attribute mfcc_sma[3]_quartile3 numeric
@attribute mfcc_sma[3]_iqr1-2 numeric
@attribute mfcc_sma[3]_iqr2-3 numeric
@attribute mfcc_sma[3]_iqr1-3 numeric
@attribute mfcc_sma[3]_percentile1.0 numeric
@attribute mfcc_sma[3]_percentile99.0 numeric
@attribute mfcc_sma[3]_pctlrange0-1 numeric
@attribute mfcc_sma[3]_upleveltime75 numeric
@attribute mfcc_sma[3]_upleveltime90 numeric
@attribute mfcc_sma[4]_maxPos numeric
@attribute mfcc_sma[4]_minPos numeric
@attribute mfcc_sma[4]_amean numeric
@attribute mfcc_sma[4]_linregc1 numeric
@attribute mfcc_sma[4]_linregc2 numeric
@attribute mfcc_sma[4]_linregerrA numeric
@attribute mfcc_sma[4]_linregerrQ numeric
@attribute mfcc_sma[4]_stddev numeric
@attribute mfcc_sma[4]_skewness numeric
@attribute mfcc_sma[4]_kurtosis numeric
@attribute mfcc_sma[4]_quartile1 numeric
@attribute mfcc_sma[4]_quartile2 numeric
@attribute mfcc_sma[4]_quartile3 numeric
@attribute mfcc_sma[4]_iqr1-2 numeric
@attribute mfcc_sma[4]_iqr2-3 numeric
@attribute mfcc_sma[4]_iqr1-3 numeric
@attribute mfcc_sma[4]_percentile1.0 numeric
@attribute mfcc_sma[4]_percentile99.0 numeric
@attribute mfcc_sma[4]_pctlrange0-1 numeric
@attribute mfcc_sma[4]_upleveltime75 numeric
@attribute mfcc_sma[4]_upleveltime90 numeric
@attribute mfcc_sma[5]_maxPos numeric
@attribute mfcc_sma[5]_minPos numeric
@attribute mfcc_sma[5]_amean numeric
@attribute mfcc_sma[5]_linregc1 numeric
@attribute mfcc_sma[5]_linregc2 numeric
@attribute mfcc_sma[5]_linregerrA numeric
@attribute mfcc_sma[5]_linregerrQ numeric
@attribute mfcc_sma[5]_stddev numeric
@attribute mfcc_sma[5]_skewness numeric
@attribute mfcc_sma[5]_kurtosis numeric
@attribute mfcc_sma[5]_quartile1 numeric
@attribute mfcc_sma[5]_quartile2 numeric
@attribute mfcc_sma[5]_quartile3 numeric
@attribute mfcc_sma[5]_iqr1-2 numeric
@attribute mfcc_sma[5]_iqr2-3 numeric
@attribute mfcc_sma[5]_iqr1-3 numeric
@attribute mfcc_sma[5]_percentile1.0 numeric
@attribute mfcc_sma[5]_percentile99.0 numeric
@attribute mfcc_sma[5]_pctlrange0-1 numeric
@attribute mfcc_sma[5]_upleveltime75 numeric
@attribute mfcc_sma[5]_upleveltime90 numeric
@attribute mfcc_sma[6]_maxPos numeric
@attribute mfcc_sma[6]_minPos numeric
@attribute mfcc_sma[6]_amean numeric
@attribute mfcc_sma[6]_linregc1 numeric
@attribute mfcc_sma[6]_linregc2 numeric
@attribute mfcc_sma[6]_linregerrA numeric
@attribute mfcc_sma[6]_linregerrQ numeric
@attribute mfcc_sma[6]_stddev numeric
@attribute mfcc_sma[6]_skewness numeric
@attribute mfcc_sma[6]_kurtosis numeric
@attribute mfcc_sma[6]_quartile1 numeric
@attribute mfcc_sma[6]_quartile2 numeric
@attribute mfcc_sma[6]_quartile3 numeric
@attribute mfcc_sma[6]_iqr1-2 numeric
@attribute mfcc_sma[6]_iqr2-3 numeric
@attribute mfcc_sma[6]_iqr1-3 numeric
@attribute mfcc_sma[6]_percentile1.0 numeric
@attribute mfcc_sma[6]_percentile99.0 numeric
@attribute mfcc_sma[6]_pctlrange0-1 numeric
@attribute mfcc_sma[6]_upleveltime75 numeric
@attribute mfcc_sma[6]_upleveltime90 numeric
@attribute mfcc_sma[7]_maxPos numeric
@attribute mfcc_sma[7]_minPos numeric
@attribute mfcc_sma[7]_amean numeric
@attribute mfcc_sma[7]_linregc1 numeric
@attribute mfcc_sma[7]_linregc2 numeric
@attribute mfcc_sma[7]_linregerrA numeric
@attribute mfcc_sma[7]_linregerrQ numeric
@attribute mfcc_sma[7]_stddev numeric
@attribute mfcc_sma[7]_skewness numeric
@attribute mfcc_sma[7]_kurtosis numeric
@attribute mfcc_sma[7]_quartile1 numeric
@attribute mfcc_sma[7]_quartile2 numeric
@attribute mfcc_sma[7]_quartile3 numeric
@attribute mfcc_sma[7]_iqr1-2 numeric
@attribute mfcc_sma[7]_iqr2-3 numeric
@attribute mfcc_sma[7]_iqr1-3 numeric
@attribute mfcc_sma[7]_percentile1.0 numeric
@attribute mfcc_sma[7]_percentile99.0 numeric
@attribute mfcc_sma[7]_pctlrange0-1 numeric
@attribute mfcc_sma[7]_upleveltime75 numeric
@attribute mfcc_sma[7]_upleveltime90 numeric
@attribute mfcc_sma[8]_maxPos numeric
@attribute mfcc_sma[8]_minPos numeric
@attribute mfcc_sma[8]_amean numeric
@attribute mfcc_sma[8]_linregc1 numeric
@attribute mfcc_sma[8]_linregc2 numeric
@attribute mfcc_sma[8]_linregerrA numeric
@attribute mfcc_sma[8]_linregerrQ numeric
@attribute mfcc_sma[8]_stddev numeric
@attribute mfcc_sma[8]_skewness numeric
@attribute mfcc_sma[8]_kurtosis numeric
@attribute mfcc_sma[8]_quartile1 numeric
@attribute mfcc_sma[8]_quartile2 numeric
@attribute mfcc_sma[8]_quartile3 numeric
@attribute mfcc_sma[8]_iqr1-2 numeric
@attribute mfcc_sma[8]_iqr2-3 numeric
@attribute mfcc_sma[8]_iqr1-3 numeric
@attribute mfcc_sma[8]_percentile1.0 numeric
@attribute mfcc_sma[8]_percentile99.0 numeric
@attribute mfcc_sma[8]_pctlrange0-1 numeric
@attribute mfcc_sma[8]_upleveltime75 numeric
@attribute mfcc_sma[8]_upleveltime90 numeric
@attribute mfcc_sma[9]_maxPos numeric
@attribute mfcc_sma[9]_minPos numeric
@attribute mfcc_sma[9]_amean numeric
@attribute mfcc_sma[9]_linregc1 numeric
@attribute mfcc_sma[9]_linregc2 numeric
@attribute mfcc_sma[9]_linregerrA numeric
@attribute mfcc_sma[9]_linregerrQ numeric
@attribute mfcc_sma[9]_stddev numeric
@attribute mfcc_sma[9]_skewness numeric
@attribute mfcc_sma[9]_kurtosis numeric
@attribute mfcc_sma[9]_quartile1 numeric
@attribute mfcc_sma[9]_quartile2 numeric
@attribute mfcc_sma[9]_quartile3 numeric
@attribute mfcc_sma[9]_iqr1-2 numeric
@attribute mfcc_sma[9]_iqr2-3 numeric
@attribute mfcc_sma[9]_iqr1-3 numeric
@attribute mfcc_sma[9]_percentile1.0 numeric
@attribute mfcc_sma[9]_percentile99.0 numeric
@attribute mfcc_sma[9]_pctlrange0-1 numeric
@attribute mfcc_sma[9]_upleveltime75 numeric
@attribute mfcc_sma[9]_upleveltime90 numeric
@attribute mfcc_sma[10]_maxPos numeric
@attribute mfcc_sma[10]_minPos numeric
@attribute mfcc_sma[10]_amean numeric
@attribute mfcc_sma[10]_linregc1 numeric
@attribute mfcc_sma[10]_linregc2 numeric
@attribute mfcc_sma[10]_linregerrA numeric
@attribute mfcc_sma[10]_linregerrQ numeric
@attribute mfcc_sma[10]_stddev numeric
@attribute mfcc_sma[10]_skewness numeric
@attribute mfcc_sma[10]_kurtosis numeric
@attribute mfcc_sma[10]_quartile1 numeric
@attribute mfcc_sma[10]_quartile2 numeric
@attribute mfcc_sma[10]_quartile3 numeric
@attribute mfcc_sma[10]_iqr1-2 numeric
@attribute mfcc_sma[10]_iqr2-3 numeric
@attribute mfcc_sma[10]_iqr1-3 numeric
@attribute mfcc_sma[10]_percentile1.0 numeric
@attribute mfcc_sma[10]_percentile99.0 numeric
@attribute mfcc_sma[10]_pctlrange0-1 numeric
@attribute mfcc_sma[10]_upleveltime75 numeric
@attribute mfcc_sma[10]_upleveltime90 numeric
@attribute mfcc_sma[11]_maxPos numeric
@attribute mfcc_sma[11]_minPos numeric
@attribute mfcc_sma[11]_amean numeric
@attribute mfcc_sma[11]_linregc1 numeric
@attribute mfcc_sma[11]_linregc2 numeric
@attribute mfcc_sma[11]_linregerrA numeric
@attribute mfcc_sma[11]_linregerrQ numeric
@attribute mfcc_sma[11]_stddev numeric
@attribute mfcc_sma[11]_skewness numeric
@attribute mfcc_sma[11]_kurtosis numeric
@attribute mfcc_sma[11]_quartile1 numeric
@attribute mfcc_sma[11]_quartile2 numeric
@attribute mfcc_sma[11]_quartile3 numeric
@attribute mfcc_sma[11]_iqr1-2 numeric
@attribute mfcc_sma[11]_iqr2-3 numeric
@attribute mfcc_sma[11]_iqr1-3 numeric
@attribute mfcc_sma[11]_percentile1.0 numeric
@attribute mfcc_sma[11]_percentile99.0 numeric
@attribute mfcc_sma[11]_pctlrange0-1 numeric
@attribute mfcc_sma[11]_upleveltime75 numeric
@attribute mfcc_sma[11]_upleveltime90 numeric
@attribute mfcc_sma[12]_maxPos numeric
@attribute mfcc_sma[12]_minPos numeric
@attribute mfcc_sma[12]_amean numeric
@attribute mfcc_sma[12]_linregc1 numeric
@attribute mfcc_sma[12]_linregc2 numeric
@attribute mfcc_sma[12]_linregerrA numeric
@attribute mfcc_sma[12]_linregerrQ numeric
@attribute mfcc_sma[12]_stddev numeric
@attribute mfcc_sma[12]_skewness numeric
@attribute mfcc_sma[12]_kurtosis numeric
@attribute mfcc_sma[12]_quartile1 numeric
@attribute mfcc_sma[12]_quartile2 numeric
@attribute mfcc_sma[12]_quartile3 numeric
@attribute mfcc_sma[12]_iqr1-2 numeric
@attribute mfcc_sma[12]_iqr2-3 numeric
@attribute mfcc_sma[12]_iqr1-3 numeric
@attribute mfcc_sma[12]_percentile1.0 numeric
@attribute mfcc_sma[12]_percentile99.0 numeric
@attribute mfcc_sma[12]_pctlrange0-1 numeric
@attribute mfcc_sma[12]_upleveltime75 numeric
@attribute mfcc_sma[12]_upleveltime90 numeric
@attribute mfcc_sma[13]_maxPos numeric
@attribute mfcc_sma[13]_minPos numeric
@attribute mfcc_sma[13]_amean numeric
@attribute mfcc_sma[13]_linregc1 numeric
@attribute mfcc_sma[13]_linregc2 numeric
@attribute mfcc_sma[13]_linregerrA numeric
@attribute mfcc_sma[13]_linregerrQ numeric
@attribute mfcc_sma[13]_stddev numeric
@attribute mfcc_sma[13]_skewness numeric
@attribute mfcc_sma[13]_kurtosis numeric
@attribute mfcc_sma[13]_quartile1 numeric
@attribute mfcc_sma[13]_quartile2 numeric
@attribute mfcc_sma[13]_quartile3 numeric
@attribute mfcc_sma[13]_iqr1-2 numeric
@attribute mfcc_sma[13]_iqr2-3 numeric
@attribute mfcc_sma[13]_iqr1-3 numeric
@attribute mfcc_sma[13]_percentile1.0 numeric
@attribute mfcc_sma[13]_percentile99.0 numeric
@attribute mfcc_sma[13]_pctlrange0-1 numeric
@attribute mfcc_sma[13]_upleveltime75 numeric
@attribute mfcc_sma[13]_upleveltime90 numeric
@attribute mfcc_sma[14]_maxPos numeric
@attribute mfcc_sma[14]_minPos numeric
@attribute mfcc_sma[14]_amean numeric
@attribute mfcc_sma[14]_linregc1 numeric
@attribute mfcc_sma[14]_linregc2 numeric
@attribute mfcc_sma[14]_linregerrA numeric
@attribute mfcc_sma[14]_linregerrQ numeric
@attribute mfcc_sma[14]_stddev numeric
@attribute mfcc_sma[14]_skewness numeric
@attribute mfcc_sma[14]_kurtosis numeric
@attribute mfcc_sma[14]_quartile1 numeric
@attribute mfcc_sma[14]_quartile2 numeric
@attribute mfcc_sma[14]_quartile3 numeric
@attribute mfcc_sma[14]_iqr1-2 numeric
@attribute mfcc_sma[14]_iqr2-3 numeric
@attribute mfcc_sma[14]_iqr1-3 numeric
@attribute mfcc_sma[14]_percentile1.0 numeric
@attribute mfcc_sma[14]_percentile99.0 numeric
@attribute mfcc_sma[14]_pctlrange0-1 numeric
@attribute mfcc_sma[14]_upleveltime75 numeric
@attribute mfcc_sma[14]_upleveltime90 numeric
@attribute logMelFreqBand_sma[0]_maxPos numeric
@attribute logMelFreqBand_sma[0]_minPos numeric
@attribute logMelFreqBand_sma[0]_amean numeric
@attribute logMelFreqBand_sma[0]_linregc1 numeric
@attribute logMelFreqBand_sma[0]_linregc2 numeric
@attribute logMelFreqBand_sma[0]_linregerrA numeric
@attribute logMelFreqBand_sma[0]_linregerrQ numeric
@attribute logMelFreqBand_sma[0]_stddev numeric
@attribute logMelFreqBand_sma[0]_skewness numeric
@attribute logMelFreqBand_sma[0]_kurtosis numeric
@attribute logMelFreqBand_sma[0]_quartile1 numeric
@attribute logMelFreqBand_sma[0]_quartile2 numeric
@attribute logMelFreqBand_sma[0]_quartile3 numeric
@attribute logMelFreqBand_sma[0]_iqr1-2 numeric
@attribute logMelFreqBand_sma[0]_iqr2-3 numeric
@attribute logMelFreqBand_sma[0]_iqr1-3 numeric
@attribute logMelFreqBand_sma[0]_percentile1.0 numeric
@attribute logMelFreqBand_sma[0]_percentile99.0 numeric
@attribute logMelFreqBand_sma[0]_pctlrange0-1 numeric
@attribute logMelFreqBand_sma[0]_upleveltime75 numeric
@attribute logMelFreqBand_sma[0]_upleveltime90 numeric
@attribute logMelFreqBand_sma[1]_maxPos numeric
@attribute logMelFreqBand_sma[1]_minPos numeric
@attribute logMelFreqBand_sma[1]_amean numeric
@attribute logMelFreqBand_sma[1]_linregc1 numeric
@attribute logMelFreqBand_sma[1]_linregc2 numeric
@attribute logMelFreqBand_sma[1]_linregerrA numeric
@attribute logMelFreqBand_sma[1]_linregerrQ numeric
@attribute logMelFreqBand_sma[1]_stddev numeric
@attribute logMelFreqBand_sma[1]_skewness numeric
@attribute logMelFreqBand_sma[1]_kurtosis numeric
@attribute logMelFreqBand_sma[1]_quartile1 numeric
@attribute logMelFreqBand_sma[1]_quartile2 numeric
@attribute logMelFreqBand_sma[1]_quartile3 numeric
@attribute logMelFreqBand_sma[1]_iqr1-2 numeric
@attribute logMelFreqBand_sma[1]_iqr2-3 numeric
@attribute logMelFreqBand_sma[1]_iqr1-3 numeric
@attribute logMelFreqBand_sma[1]_percentile1.0 numeric
@attribute logMelFreqBand_sma[1]_percentile99.0 numeric
@attribute logMelFreqBand_sma[1]_pctlrange0-1 numeric
@attribute logMelFreqBand_sma[1]_upleveltime75 numeric
@attribute logMelFreqBand_sma[1]_upleveltime90 numeric
@attribute logMelFreqBand_sma[2]_maxPos numeric
@attribute logMelFreqBand_sma[2]_minPos numeric
@attribute logMelFreqBand_sma[2]_amean numeric
@attribute logMelFreqBand_sma[2]_linregc1 numeric
@attribute logMelFreqBand_sma[2]_linregc2 numeric
@attribute logMelFreqBand_sma[2]_linregerrA numeric
@attribute logMelFreqBand_sma[2]_linregerrQ numeric
@attribute logMelFreqBand_sma[2]_stddev numeric
@attribute logMelFreqBand_sma[2]_skewness numeric
@attribute logMelFreqBand_sma[2]_kurtosis numeric
@attribute logMelFreqBand_sma[2]_quartile1 numeric
@attribute logMelFreqBand_sma[2]_quartile2 numeric
@attribute logMelFreqBand_sma[2]_quartile3 numeric
@attribute logMelFreqBand_sma[2]_iqr1-2 numeric
@attribute logMelFreqBand_sma[2]_iqr2-3 numeric
@attribute logMelFreqBand_sma[2]_iqr1-3 numeric
@attribute logMelFreqBand_sma[2]_percentile1.0 numeric
@attribute logMelFreqBand_sma[2]_percentile99.0 numeric
@attribute logMelFreqBand_sma[2]_pctlrange0-1 numeric
@attribute logMelFreqBand_sma[2]_upleveltime75 numeric
@attribute logMelFreqBand_sma[2]_upleveltime90 numeric
@attribute logMelFreqBand_sma[3]_maxPos numeric
@attribute logMelFreqBand_sma[3]_minPos numeric
@attribute logMelFreqBand_sma[3]_amean numeric
@attribute logMelFreqBand_sma[3]_linregc1 numeric
@attribute logMelFreqBand_sma[3]_linregc2 numeric
@attribute logMelFreqBand_sma[3]_linregerrA numeric
@attribute logMelFreqBand_sma[3]_linregerrQ numeric
@attribute logMelFreqBand_sma[3]_stddev numeric
@attribute logMelFreqBand_sma[3]_skewness numeric
@attribute logMelFreqBand_sma[3]_kurtosis numeric
@attribute logMelFreqBand_sma[3]_quartile1 numeric
@attribute logMelFreqBand_sma[3]_quartile2 numeric
@attribute logMelFreqBand_sma[3]_quartile3 numeric
@attribute logMelFreqBand_sma[3]_iqr1-2 numeric
@attribute logMelFreqBand_sma[3]_iqr2-3 numeric
@attribute logMelFreqBand_sma[3]_iqr1-3 numeric
@attribute logMelFreqBand_sma[3]_percentile1.0 numeric
@attribute logMelFreqBand_sma[3]_percentile99.0 numeric
@attribute logMelFreqBand_sma[3]_pctlrange0-1 numeric
@attribute logMelFreqBand_sma[3]_upleveltime75 numeric
@attribute logMelFreqBand_sma[3]_upleveltime90 numeric
@attribute logMelFreqBand_sma[4]_maxPos numeric
@attribute logMelFreqBand_sma[4]_minPos numeric
@attribute logMelFreqBand_sma[4]_amean numeric
@attribute logMelFreqBand_sma[4]_linregc1 numeric
@attribute logMelFreqBand_sma[4]_linregc2 numeric
@attribute logMelFreqBand_sma[4]_linregerrA numeric
@attribute logMelFreqBand_sma[4]_linregerrQ numeric
@attribute logMelFreqBand_sma[4]_stddev numeric
@attribute logMelFreqBand_sma[4]_skewness numeric
@attribute logMelFreqBand_sma[4]_kurtosis numeric
@attribute logMelFreqBand_sma[4]_quartile1 numeric
@attribute logMelFreqBand_sma[4]_quartile2 numeric
@attribute logMelFreqBand_sma[4]_quartile3 numeric
@attribute logMelFreqBand_sma[4]_iqr1-2 numeric
@attribute logMelFreqBand_sma[4]_iqr2-3 numeric
@attribute logMelFreqBand_sma[4]_iqr1-3 numeric
@attribute logMelFreqBand_sma[4]_percentile1.0 numeric
@attribute logMelFreqBand_sma[4]_percentile99.0 numeric
@attribute logMelFreqBand_sma[4]_pctlrange0-1 numeric
@attribute logMelFreqBand_sma[4]_upleveltime75 numeric
@attribute logMelFreqBand_sma[4]_upleveltime90 numeric
@attribute logMelFreqBand_sma[5]_maxPos numeric
@attribute logMelFreqBand_sma[5]_minPos numeric
@attribute logMelFreqBand_sma[5]_amean numeric
@attribute logMelFreqBand_sma[5]_linregc1 numeric
@attribute logMelFreqBand_sma[5]_linregc2 numeric
@attribute logMelFreqBand_sma[5]_linregerrA numeric
@attribute logMelFreqBand_sma[5]_linregerrQ numeric
@attribute logMelFreqBand_sma[5]_stddev numeric
@attribute logMelFreqBand_sma[5]_skewness numeric
@attribute logMelFreqBand_sma[5]_kurtosis numeric
@attribute logMelFreqBand_sma[5]_quartile1 numeric
@attribute logMelFreqBand_sma[5]_quartile2 numeric
@attribute logMelFreqBand_sma[5]_quartile3 numeric
@attribute logMelFreqBand_sma[5]_iqr1-2 numeric
@attribute logMelFreqBand_sma[5]_iqr2-3 numeric
@attribute logMelFreqBand_sma[5]_iqr1-3 numeric
@attribute logMelFreqBand_sma[5]_percentile1.0 numeric
@attribute logMelFreqBand_sma[5]_percentile99.0 numeric
@attribute logMelFreqBand_sma[5]_pctlrange0-1 numeric
@attribute logMelFreqBand_sma[5]_upleveltime75 numeric
@attribute logMelFreqBand_sma[5]_upleveltime90 numeric
@attribute logMelFreqBand_sma[6]_maxPos numeric
@attribute logMelFreqBand_sma[6]_minPos numeric
@attribute logMelFreqBand_sma[6]_amean numeric
@attribute logMelFreqBand_sma[6]_linregc1 numeric
@attribute logMelFreqBand_sma[6]_linregc2 numeric
@attribute logMelFreqBand_sma[6]_linregerrA numeric
@attribute logMelFreqBand_sma[6]_linregerrQ numeric
@attribute logMelFreqBand_sma[6]_stddev numeric
@attribute logMelFreqBand_sma[6]_skewness numeric
@attribute logMelFreqBand_sma[6]_kurtosis numeric
@attribute logMelFreqBand_sma[6]_quartile1 numeric
@attribute logMelFreqBand_sma[6]_quartile2 numeric
@attribute logMelFreqBand_sma[6]_quartile3 numeric
@attribute logMelFreqBand_sma[6]_iqr1-2 numeric
@attribute logMelFreqBand_sma[6]_iqr2-3 numeric
@attribute logMelFreqBand_sma[6]_iqr1-3 numeric
@attribute logMelFreqBand_sma[6]_percentile1.0 numeric
@attribute logMelFreqBand_sma[6]_percentile99.0 numeric
@attribute logMelFreqBand_sma[6]_pctlrange0-1 numeric
@attribute logMelFreqBand_sma[6]_upleveltime75 numeric
@attribute logMelFreqBand_sma[6]_upleveltime90 numeric
@attribute logMelFreqBand_sma[7]_maxPos numeric
@attribute logMelFreqBand_sma[7]_minPos numeric
@attribute logMelFreqBand_sma[7]_amean numeric
@attribute logMelFreqBand_sma[7]_linregc1 numeric
@attribute logMelFreqBand_sma[7]_linregc2 numeric
@attribute logMelFreqBand_sma[7]_linregerrA numeric
@attribute logMelFreqBand_sma[7]_linregerrQ numeric
@attribute logMelFreqBand_sma[7]_stddev numeric
@attribute logMelFreqBand_sma[7]_skewness numeric
@attribute logMelFreqBand_sma[7]_kurtosis numeric
@attribute logMelFreqBand_sma[7]_quartile1 numeric
@attribute logMelFreqBand_sma[7]_quartile2 numeric
@attribute logMelFreqBand_sma[7]_quartile3 numeric
@attribute logMelFreqBand_sma[7]_iqr1-2 numeric
@attribute logMelFreqBand_sma[7]_iqr2-3 numeric
@attribute logMelFreqBand_sma[7]_iqr1-3 numeric
@attribute logMelFreqBand_sma[7]_percentile1.0 numeric
@attribute logMelFreqBand_sma[7]_percentile99.0 numeric
@attribute logMelFreqBand_sma[7]_pctlrange0-1 numeric
@attribute logMelFreqBand_sma[7]_upleveltime75 numeric
@attribute logMelFreqBand_sma[7]_upleveltime90 numeric
@attribute lspFreq_sma[0]_maxPos numeric
@attribute lspFreq_sma[0]_minPos numeric
@attribute lspFreq_sma[0]_amean numeric
@attribute lspFreq_sma[0]_linregc1 numeric
@attribute lspFreq_sma[0]_linregc2 numeric
@attribute lspFreq_sma[0]_linregerrA numeric
@attribute lspFreq_sma[0]_linregerrQ numeric
@attribute lspFreq_sma[0]_stddev numeric
@attribute lspFreq_sma[0]_skewness numeric
@attribute lspFreq_sma[0]_kurtosis numeric
@attribute lspFreq_sma[0]_quartile1 numeric
@attribute lspFreq_sma[0]_quartile2 numeric
@attribute lspFreq_sma[0]_quartile3 numeric
@attribute lspFreq_sma[0]_iqr1-2 numeric
@attribute lspFreq_sma[0]_iqr2-3 numeric
@attribute lspFreq_sma[0]_iqr1-3 numeric
@attribute lspFreq_sma[0]_percentile1.0 numeric
@attribute lspFreq_sma[0]_percentile99.0 numeric
@attribute lspFreq_sma[0]_pctlrange0-1 numeric
@attribute lspFreq_sma[0]_upleveltime75 numeric
@attribute lspFreq_sma[0]_upleveltime90 numeric
@attribute lspFreq_sma[1]_maxPos numeric
@attribute lspFreq_sma[1]_minPos numeric
@attribute lspFreq_sma[1]_amean numeric
@attribute lspFreq_sma[1]_linregc1 numeric
@attribute lspFreq_sma[1]_linregc2 numeric
@attribute lspFreq_sma[1]_linregerrA numeric
@attribute lspFreq_sma[1]_linregerrQ numeric
@attribute lspFreq_sma[1]_stddev numeric
@attribute lspFreq_sma[1]_skewness numeric
@attribute lspFreq_sma[1]_kurtosis numeric
@attribute lspFreq_sma[1]_quartile1 numeric
@attribute lspFreq_sma[1]_quartile2 numeric
@attribute lspFreq_sma[1]_quartile3 numeric
@attribute lspFreq_sma[1]_iqr1-2 numeric
@attribute lspFreq_sma[1]_iqr2-3 numeric
@attribute lspFreq_sma[1]_iqr1-3 numeric
@attribute lspFreq_sma[1]_percentile1.0 numeric
@attribute lspFreq_sma[1]_percentile99.0 numeric
@attribute lspFreq_sma[1]_pctlrange0-1 numeric
@attribute lspFreq_sma[1]_upleveltime75 numeric
@attribute lspFreq_sma[1]_upleveltime90 numeric
@attribute lspFreq_sma[2]_maxPos numeric
@attribute lspFreq_sma[2]_minPos numeric
@attribute lspFreq_sma[2]_amean numeric
@attribute lspFreq_sma[2]_linregc1 numeric
@attribute lspFreq_sma[2]_linregc2 numeric
@attribute lspFreq_sma[2]_linregerrA numeric
@attribute lspFreq_sma[2]_linregerrQ numeric
@attribute lspFreq_sma[2]_stddev numeric
@attribute lspFreq_sma[2]_skewness numeric
@attribute lspFreq_sma[2]_kurtosis numeric
@attribute lspFreq_sma[2]_quartile1 numeric
@attribute lspFreq_sma[2]_quartile2 numeric
@attribute lspFreq_sma[2]_quartile3 numeric
@attribute lspFreq_sma[2]_iqr1-2 numeric
@attribute lspFreq_sma[2]_iqr2-3 numeric
@attribute lspFreq_sma[2]_iqr1-3 numeric
@attribute lspFreq_sma[2]_percentile1.0 numeric
@attribute lspFreq_sma[2]_percentile99.0 numeric
@attribute lspFreq_sma[2]_pctlrange0-1 numeric
@attribute lspFreq_sma[2]_upleveltime75 numeric
@attribute lspFreq_sma[2]_upleveltime90 numeric
@attribute lspFreq_sma[3]_maxPos numeric
@attribute lspFreq_sma[3]_minPos numeric
@attribute lspFreq_sma[3]_amean numeric
@attribute lspFreq_sma[3]_linregc1 numeric
@attribute lspFreq_sma[3]_linregc2 numeric
@attribute lspFreq_sma[3]_linregerrA numeric
@attribute lspFreq_sma[3]_linregerrQ numeric
@attribute lspFreq_sma[3]_stddev numeric
@attribute lspFreq_sma[3]_skewness numeric
@attribute lspFreq_sma[3]_kurtosis numeric
@attribute lspFreq_sma[3]_quartile1 numeric
@attribute lspFreq_sma[3]_quartile2 numeric
@attribute lspFreq_sma[3]_quartile3 numeric
@attribute lspFreq_sma[3]_iqr1-2 numeric
@attribute lspFreq_sma[3]_iqr2-3 numeric
@attribute lspFreq_sma[3]_iqr1-3 numeric
@attribute lspFreq_sma[3]_percentile1.0 numeric
@attribute lspFreq_sma[3]_percentile99.0 numeric
@attribute lspFreq_sma[3]_pctlrange0-1 numeric
@attribute lspFreq_sma[3]_upleveltime75 numeric
@attribute lspFreq_sma[3]_upleveltime90 numeric
@attribute lspFreq_sma[4]_maxPos numeric
@attribute lspFreq_sma[4]_minPos numeric
@attribute lspFreq_sma[4]_amean numeric
@attribute lspFreq_sma[4]_linregc1 numeric
@attribute lspFreq_sma[4]_linregc2 numeric
@attribute lspFreq_sma[4]_linregerrA numeric
@attribute lspFreq_sma[4]_linregerrQ numeric
@attribute lspFreq_sma[4]_stddev numeric
@attribute lspFreq_sma[4]_skewness numeric
@attribute lspFreq_sma[4]_kurtosis numeric
@attribute lspFreq_sma[4]_quartile1 numeric
@attribute lspFreq_sma[4]_quartile2 numeric
@attribute lspFreq_sma[4]_quartile3 numeric
@attribute lspFreq_sma[4]_iqr1-2 numeric
@attribute lspFreq_sma[4]_iqr2-3 numeric
@attribute lspFreq_sma[4]_iqr1-3 numeric
@attribute lspFreq_sma[4]_percentile1.0 numeric
@attribute lspFreq_sma[4]_percentile99.0 numeric
@attribute lspFreq_sma[4]_pctlrange0-1 numeric
@attribute lspFreq_sma[4]_upleveltime75 numeric
@attribute lspFreq_sma[4]_upleveltime90 numeric
@attribute lspFreq_sma[5]_maxPos numeric
@attribute lspFreq_sma[5]_minPos numeric
@attribute lspFreq_sma[5]_amean numeric
@attribute lspFreq_sma[5]_linregc1 numeric
@attribute lspFreq_sma[5]_linregc2 numeric
@attribute lspFreq_sma[5]_linregerrA numeric
@attribute lspFreq_sma[5]_linregerrQ numeric
@attribute lspFreq_sma[5]_stddev numeric
@attribute lspFreq_sma[5]_skewness numeric
@attribute lspFreq_sma[5]_kurtosis numeric
@attribute lspFreq_sma[5]_quartile1 numeric
@attribute lspFreq_sma[5]_quartile2 numeric
@attribute lspFreq_sma[5]_quartile3 numeric
@attribute lspFreq_sma[5]_iqr1-2 numeric
@attribute lspFreq_sma[5]_iqr2-3 numeric
@attribute lspFreq_sma[5]_iqr1-3 numeric
@attribute lspFreq_sma[5]_percentile1.0 numeric
@attribute lspFreq_sma[5]_percentile99.0 numeric
@attribute lspFreq_sma[5]_pctlrange0-1 numeric
@attribute lspFreq_sma[5]_upleveltime75 numeric
@attribute lspFreq_sma[5]_upleveltime90 numeric
@attribute lspFreq_sma[6]_maxPos numeric
@attribute lspFreq_sma[6]_minPos numeric
@attribute lspFreq_sma[6]_amean numeric
@attribute lspFreq_sma[6]_linregc1 numeric
@attribute lspFreq_sma[6]_linregc2 numeric
@attribute lspFreq_sma[6]_linregerrA numeric
@attribute lspFreq_sma[6]_linregerrQ numeric
@attribute lspFreq_sma[6]_stddev numeric
@attribute lspFreq_sma[6]_skewness numeric
@attribute lspFreq_sma[6]_kurtosis numeric
@attribute lspFreq_sma[6]_quartile1 numeric
@attribute lspFreq_sma[6]_quartile2 numeric
@attribute lspFreq_sma[6]_quartile3 numeric
@attribute lspFreq_sma[6]_iqr1-2 numeric
@attribute lspFreq_sma[6]_iqr2-3 numeric
@attribute lspFreq_sma[6]_iqr1-3 numeric
@attribute lspFreq_sma[6]_percentile1.0 numeric
@attribute lspFreq_sma[6]_percentile99.0 numeric
@attribute lspFreq_sma[6]_pctlrange0-1 numeric
@attribute lspFreq_sma[6]_upleveltime75 numeric
@attribute lspFreq_sma[6]_upleveltime90 numeric
@attribute lspFreq_sma[7]_maxPos numeric
@attribute lspFreq_sma[7]_minPos numeric
@attribute lspFreq_sma[7]_amean numeric
@attribute lspFreq_sma[7]_linregc1 numeric
@attribute lspFreq_sma[7]_linregc2 numeric
@attribute lspFreq_sma[7]_linregerrA numeric
@attribute lspFreq_sma[7]_linregerrQ numeric
@attribute lspFreq_sma[7]_stddev numeric
@attribute lspFreq_sma[7]_skewness numeric
@attribute lspFreq_sma[7]_kurtosis numeric
@attribute lspFreq_sma[7]_quartile1 numeric
@attribute lspFreq_sma[7]_quartile2 numeric
@attribute lspFreq_sma[7]_quartile3 numeric
@attribute lspFreq_sma[7]_iqr1-2 numeric
@attribute lspFreq_sma[7]_iqr2-3 numeric
@attribute lspFreq_sma[7]_iqr1-3 numeric
@attribute lspFreq_sma[7]_percentile1.0 numeric
@attribute lspFreq_sma[7]_percentile99.0 numeric
@attribute lspFreq_sma[7]_pctlrange0-1 numeric
@attribute lspFreq_sma[7]_upleveltime75 numeric
@attribute lspFreq_sma[7]_upleveltime90 numeric
@attribute F0finEnv_sma_maxPos numeric
@attribute F0finEnv_sma_minPos numeric
@attribute F0finEnv_sma_amean numeric
@attribute F0finEnv_sma_linregc1 numeric
@attribute F0finEnv_sma_linregc2 numeric
@attribute F0finEnv_sma_linregerrA numeric
@attribute F0finEnv_sma_linregerrQ numeric
@attribute F0finEnv_sma_stddev numeric
@attribute F0finEnv_sma_skewness numeric
@attribute F0finEnv_sma_kurtosis numeric
@attribute F0finEnv_sma_quartile1 numeric
@attribute F0finEnv_sma_quartile2 numeric
@attribute F0finEnv_sma_quartile3 numeric
@attribute F0finEnv_sma_iqr1-2 numeric
@attribute F0finEnv_sma_iqr2-3 numeric
@attribute F0finEnv_sma_iqr1-3 numeric
@attribute F0finEnv_sma_percentile1.0 numeric
@attribute F0finEnv_sma_percentile99.0 numeric
@attribute F0finEnv_sma_pctlrange0-1 numeric
@attribute F0finEnv_sma_upleveltime75 numeric
@attribute F0finEnv_sma_upleveltime90 numeric
@attribute voicingFinalUnclipped_sma_maxPos numeric
@attribute voicingFinalUnclipped_sma_minPos numeric
@attribute voicingFinalUnclipped_sma_amean numeric
@attribute voicingFinalUnclipped_sma_linregc1 numeric
@attribute voicingFinalUnclipped_sma_linregc2 numeric
@attribute voicingFinalUnclipped_sma_linregerrA numeric
@attribute voicingFinalUnclipped_sma_linregerrQ numeric
@attribute voicingFinalUnclipped_sma_stddev numeric
@attribute voicingFinalUnclipped_sma_skewness numeric
@attribute voicingFinalUnclipped_sma_kurtosis numeric
@attribute voicingFinalUnclipped_sma_quartile1 numeric
@attribute voicingFinalUnclipped_sma_quartile2 numeric
@attribute voicingFinalUnclipped_sma_quartile3 numeric
@attribute voicingFinalUnclipped_sma_iqr1-2 numeric
@attribute voicingFinalUnclipped_sma_iqr2-3 numeric
@attribute voicingFinalUnclipped_sma_iqr1-3 numeric
@attribute voicingFinalUnclipped_sma_percentile1.0 numeric
@attribute voicingFinalUnclipped_sma_percentile99.0 numeric
@attribute voicingFinalUnclipped_sma_pctlrange0-1 numeric
@attribute voicingFinalUnclipped_sma_upleveltime75 numeric
@attribute voicingFinalUnclipped_sma_upleveltime90 numeric
@attribute pcm_loudness_sma_de_maxPos numeric
@attribute pcm_loudness_sma_de_minPos numeric
@attribute pcm_loudness_sma_de_amean numeric
@attribute pcm_loudness_sma_de_linregc1 numeric
@attribute pcm_loudness_sma_de_linregc2 numeric
@attribute pcm_loudness_sma_de_linregerrA numeric
@attribute pcm_loudness_sma_de_linregerrQ numeric
@attribute pcm_loudness_sma_de_stddev numeric
@attribute pcm_loudness_sma_de_skewness numeric
@attribute pcm_loudness_sma_de_kurtosis numeric
@attribute pcm_loudness_sma_de_quartile1 numeric
@attribute pcm_loudness_sma_de_quartile2 numeric
@attribute pcm_loudness_sma_de_quartile3 numeric
@attribute pcm_loudness_sma_de_iqr1-2 numeric
@attribute pcm_loudness_sma_de_iqr2-3 numeric
@attribute pcm_loudness_sma_de_iqr1-3 numeric
@attribute pcm_loudness_sma_de_percentile1.0 numeric
@attribute pcm_loudness_sma_de_percentile99.0 numeric
@attribute pcm_loudness_sma_de_pctlrange0-1 numeric
@attribute pcm_loudness_sma_de_upleveltime75 numeric
@attribute pcm_loudness_sma_de_upleveltime90 numeric
@attribute mfcc_sma_de[0]_maxPos numeric
@attribute mfcc_sma_de[0]_minPos numeric
@attribute mfcc_sma_de[0]_amean numeric
@attribute mfcc_sma_de[0]_linregc1 numeric
@attribute mfcc_sma_de[0]_linregc2 numeric
@attribute mfcc_sma_de[0]_linregerrA numeric
@attribute mfcc_sma_de[0]_linregerrQ numeric
@attribute mfcc_sma_de[0]_stddev numeric
@attribute mfcc_sma_de[0]_skewness numeric
@attribute mfcc_sma_de[0]_kurtosis numeric
@attribute mfcc_sma_de[0]_quartile1 numeric
@attribute mfcc_sma_de[0]_quartile2 numeric
@attribute mfcc_sma_de[0]_quartile3 numeric
@attribute mfcc_sma_de[0]_iqr1-2 numeric
@attribute mfcc_sma_de[0]_iqr2-3 numeric
@attribute mfcc_sma_de[0]_iqr1-3 numeric
@attribute mfcc_sma_de[0]_percentile1.0 numeric
@attribute mfcc_sma_de[0]_percentile99.0 numeric
@attribute mfcc_sma_de[0]_pctlrange0-1 numeric
@attribute mfcc_sma_de[0]_upleveltime75 numeric
@attribute mfcc_sma_de[0]_upleveltime90 numeric
@attribute mfcc_sma_de[1]_maxPos numeric
@attribute mfcc_sma_de[1]_minPos numeric
@attribute mfcc_sma_de[1]_amean numeric
@attribute mfcc_sma_de[1]_linregc1 numeric
@attribute mfcc_sma_de[1]_linregc2 numeric
@attribute mfcc_sma_de[1]_linregerrA numeric
@attribute mfcc_sma_de[1]_linregerrQ numeric
@attribute mfcc_sma_de[1]_stddev numeric
@attribute mfcc_sma_de[1]_skewness numeric
@attribute mfcc_sma_de[1]_kurtosis numeric
@attribute mfcc_sma_de[1]_quartile1 numeric
@attribute mfcc_sma_de[1]_quartile2 numeric
@attribute mfcc_sma_de[1]_quartile3 numeric
@attribute mfcc_sma_de[1]_iqr1-2 numeric
@attribute mfcc_sma_de[1]_iqr2-3 numeric
@attribute mfcc_sma_de[1]_iqr1-3 numeric
@attribute mfcc_sma_de[1]_percentile1.0 numeric
@attribute mfcc_sma_de[1]_percentile99.0 numeric
@attribute mfcc_sma_de[1]_pctlrange0-1 numeric
@attribute mfcc_sma_de[1]_upleveltime75 numeric
@attribute mfcc_sma_de[1]_upleveltime90 numeric
@attribute mfcc_sma_de[2]_maxPos numeric
@attribute mfcc_sma_de[2]_minPos numeric
@attribute mfcc_sma_de[2]_amean numeric
@attribute mfcc_sma_de[2]_linregc1 numeric
@attribute mfcc_sma_de[2]_linregc2 numeric
@attribute mfcc_sma_de[2]_linregerrA numeric
@attribute mfcc_sma_de[2]_linregerrQ numeric
@attribute mfcc_sma_de[2]_stddev numeric
@attribute mfcc_sma_de[2]_skewness numeric
@attribute mfcc_sma_de[2]_kurtosis numeric
@attribute mfcc_sma_de[2]_quartile1 numeric
@attribute mfcc_sma_de[2]_quartile2 numeric
@attribute mfcc_sma_de[2]_quartile3 numeric
@attribute mfcc_sma_de[2]_iqr1-2 numeric
@attribute mfcc_sma_de[2]_iqr2-3 numeric
@attribute mfcc_sma_de[2]_iqr1-3 numeric
@attribute mfcc_sma_de[2]_percentile1.0 numeric
@attribute mfcc_sma_de[2]_percentile99.0 numeric
@attribute mfcc_sma_de[2]_pctlrange0-1 numeric
@attribute mfcc_sma_de[2]_upleveltime75 numeric
@attribute mfcc_sma_de[2]_upleveltime90 numeric
@attribute mfcc_sma_de[3]_maxPos numeric
@attribute mfcc_sma_de[3]_minPos numeric
@attribute mfcc_sma_de[3]_amean numeric
@attribute mfcc_sma_de[3]_linregc1 numeric
@attribute mfcc_sma_de[3]_linregc2 numeric
@attribute mfcc_sma_de[3]_linregerrA numeric
@attribute mfcc_sma_de[3]_linregerrQ numeric
@attribute mfcc_sma_de[3]_stddev numeric
@attribute mfcc_sma_de[3]_skewness numeric
@attribute mfcc_sma_de[3]_kurtosis numeric
@attribute mfcc_sma_de[3]_quartile1 numeric
@attribute mfcc_sma_de[3]_quartile2 numeric
@attribute mfcc_sma_de[3]_quartile3 numeric
@attribute mfcc_sma_de[3]_iqr1-2 numeric
@attribute mfcc_sma_de[3]_iqr2-3 numeric
@attribute mfcc_sma_de[3]_iqr1-3 numeric
@attribute mfcc_sma_de[3]_percentile1.0 numeric
@attribute mfcc_sma_de[3]_percentile99.0 numeric
@attribute mfcc_sma_de[3]_pctlrange0-1 numeric
@attribute mfcc_sma_de[3]_upleveltime75 numeric
@attribute mfcc_sma_de[3]_upleveltime90 numeric
@attribute mfcc_sma_de[4]_maxPos numeric
@attribute mfcc_sma_de[4]_minPos numeric
@attribute mfcc_sma_de[4]_amean numeric
@attribute mfcc_sma_de[4]_linregc1 numeric
@attribute mfcc_sma_de[4]_linregc2 numeric
@attribute mfcc_sma_de[4]_linregerrA numeric
@attribute mfcc_sma_de[4]_linregerrQ numeric
@attribute mfcc_sma_de[4]_stddev numeric
@attribute mfcc_sma_de[4]_skewness numeric
@attribute mfcc_sma_de[4]_kurtosis numeric
@attribute mfcc_sma_de[4]_quartile1 numeric
@attribute mfcc_sma_de[4]_quartile2 numeric
@attribute mfcc_sma_de[4]_quartile3 numeric
@attribute mfcc_sma_de[4]_iqr1-2 numeric
@attribute mfcc_sma_de[4]_iqr2-3 numeric
@attribute mfcc_sma_de[4]_iqr1-3 numeric
@attribute mfcc_sma_de[4]_percentile1.0 numeric
@attribute mfcc_sma_de[4]_percentile99.0 numeric
@attribute mfcc_sma_de[4]_pctlrange0-1 numeric
@attribute mfcc_sma_de[4]_upleveltime75 numeric
@attribute mfcc_sma_de[4]_upleveltime90 numeric
@attribute mfcc_sma_de[5]_maxPos numeric
@attribute mfcc_sma_de[5]_minPos numeric
@attribute mfcc_sma_de[5]_amean numeric
@attribute mfcc_sma_de[5]_linregc1 numeric
@attribute mfcc_sma_de[5]_linregc2 numeric
@attribute mfcc_sma_de[5]_linregerrA numeric
@attribute mfcc_sma_de[5]_linregerrQ numeric
@attribute mfcc_sma_de[5]_stddev numeric
@attribute mfcc_sma_de[5]_skewness numeric
@attribute mfcc_sma_de[5]_kurtosis numeric
@attribute mfcc_sma_de[5]_quartile1 numeric
@attribute mfcc_sma_de[5]_quartile2 numeric
@attribute mfcc_sma_de[5]_quartile3 numeric
@attribute mfcc_sma_de[5]_iqr1-2 numeric
@attribute mfcc_sma_de[5]_iqr2-3 numeric
@attribute mfcc_sma_de[5]_iqr1-3 numeric
@attribute mfcc_sma_de[5]_percentile1.0 numeric
@attribute mfcc_sma_de[5]_percentile99.0 numeric
@attribute mfcc_sma_de[5]_pctlrange0-1 numeric
@attribute mfcc_sma_de[5]_upleveltime75 numeric
@attribute mfcc_sma_de[5]_upleveltime90 numeric
@attribute mfcc_sma_de[6]_maxPos numeric
@attribute mfcc_sma_de[6]_minPos numeric
@attribute mfcc_sma_de[6]_amean numeric
@attribute mfcc_sma_de[6]_linregc1 numeric
@attribute mfcc_sma_de[6]_linregc2 numeric
@attribute mfcc_sma_de[6]_linregerrA numeric
@attribute mfcc_sma_de[6]_linregerrQ numeric
@attribute mfcc_sma_de[6]_stddev numeric
@attribute mfcc_sma_de[6]_skewness numeric
@attribute mfcc_sma_de[6]_kurtosis numeric
@attribute mfcc_sma_de[6]_quartile1 numeric
@attribute mfcc_sma_de[6]_quartile2 numeric
@attribute mfcc_sma_de[6]_quartile3 numeric
@attribute mfcc_sma_de[6]_iqr1-2 numeric
@attribute mfcc_sma_de[6]_iqr2-3 numeric
@attribute mfcc_sma_de[6]_iqr1-3 numeric
@attribute mfcc_sma_de[6]_percentile1.0 numeric
@attribute mfcc_sma_de[6]_percentile99.0 numeric
@attribute mfcc_sma_de[6]_pctlrange0-1 numeric
@attribute mfcc_sma_de[6]_upleveltime75 numeric
@attribute mfcc_sma_de[6]_upleveltime90 numeric
@attribute mfcc_sma_de[7]_maxPos numeric
@attribute mfcc_sma_de[7]_minPos numeric
@attribute mfcc_sma_de[7]_amean numeric
@attribute mfcc_sma_de[7]_linregc1 numeric
@attribute mfcc_sma_de[7]_linregc2 numeric
@attribute mfcc_sma_de[7]_linregerrA numeric
@attribute mfcc_sma_de[7]_linregerrQ numeric
@attribute mfcc_sma_de[7]_stddev numeric
@attribute mfcc_sma_de[7]_skewness numeric
@attribute mfcc_sma_de[7]_kurtosis numeric
@attribute mfcc_sma_de[7]_quartile1 numeric
@attribute mfcc_sma_de[7]_quartile2 numeric
@attribute mfcc_sma_de[7]_quartile3 numeric
@attribute mfcc_sma_de[7]_iqr1-2 numeric
@attribute mfcc_sma_de[7]_iqr2-3 numeric
@attribute mfcc_sma_de[7]_iqr1-3 numeric
@attribute mfcc_sma_de[7]_percentile1.0 numeric
@attribute mfcc_sma_de[7]_percentile99.0 numeric
@attribute mfcc_sma_de[7]_pctlrange0-1 numeric
@attribute mfcc_sma_de[7]_upleveltime75 numeric
@attribute mfcc_sma_de[7]_upleveltime90 numeric
@attribute mfcc_sma_de[8]_maxPos numeric
@attribute mfcc_sma_de[8]_minPos numeric
@attribute mfcc_sma_de[8]_amean numeric
@attribute mfcc_sma_de[8]_linregc1 numeric
@attribute mfcc_sma_de[8]_linregc2 numeric
@attribute mfcc_sma_de[8]_linregerrA numeric
@attribute mfcc_sma_de[8]_linregerrQ numeric
@attribute mfcc_sma_de[8]_stddev numeric
@attribute mfcc_sma_de[8]_skewness numeric
@attribute mfcc_sma_de[8]_kurtosis numeric
@attribute mfcc_sma_de[8]_quartile1 numeric
@attribute mfcc_sma_de[8]_quartile2 numeric
@attribute mfcc_sma_de[8]_quartile3 numeric
@attribute mfcc_sma_de[8]_iqr1-2 numeric
@attribute mfcc_sma_de[8]_iqr2-3 numeric
@attribute mfcc_sma_de[8]_iqr1-3 numeric
@attribute mfcc_sma_de[8]_percentile1.0 numeric
@attribute mfcc_sma_de[8]_percentile99.0 numeric
@attribute mfcc_sma_de[8]_pctlrange0-1 numeric
@attribute mfcc_sma_de[8]_upleveltime75 numeric
@attribute mfcc_sma_de[8]_upleveltime90 numeric
@attribute mfcc_sma_de[9]_maxPos numeric
@attribute mfcc_sma_de[9]_minPos numeric
@attribute mfcc_sma_de[9]_amean numeric
@attribute mfcc_sma_de[9]_linregc1 numeric
@attribute mfcc_sma_de[9]_linregc2 numeric
@attribute mfcc_sma_de[9]_linregerrA numeric
@attribute mfcc_sma_de[9]_linregerrQ numeric
@attribute mfcc_sma_de[9]_stddev numeric
@attribute mfcc_sma_de[9]_skewness numeric
@attribute mfcc_sma_de[9]_kurtosis numeric
@attribute mfcc_sma_de[9]_quartile1 numeric
@attribute mfcc_sma_de[9]_quartile2 numeric
@attribute mfcc_sma_de[9]_quartile3 numeric
@attribute mfcc_sma_de[9]_iqr1-2 numeric
@attribute mfcc_sma_de[9]_iqr2-3 numeric
@attribute mfcc_sma_de[9]_iqr1-3 numeric
@attribute mfcc_sma_de[9]_percentile1.0 numeric
@attribute mfcc_sma_de[9]_percentile99.0 numeric
@attribute mfcc_sma_de[9]_pctlrange0-1 numeric
@attribute mfcc_sma_de[9]_upleveltime75 numeric
@attribute mfcc_sma_de[9]_upleveltime90 numeric
@attribute mfcc_sma_de[10]_maxPos numeric
@attribute mfcc_sma_de[10]_minPos numeric
@attribute mfcc_sma_de[10]_amean numeric
@attribute mfcc_sma_de[10]_linregc1 numeric
@attribute mfcc_sma_de[10]_linregc2 numeric
@attribute mfcc_sma_de[10]_linregerrA numeric
@attribute mfcc_sma_de[10]_linregerrQ numeric
@attribute mfcc_sma_de[10]_stddev numeric
@attribute mfcc_sma_de[10]_skewness numeric
@attribute mfcc_sma_de[10]_kurtosis numeric
@attribute mfcc_sma_de[10]_quartile1 numeric
@attribute mfcc_sma_de[10]_quartile2 numeric
@attribute mfcc_sma_de[10]_quartile3 numeric
@attribute mfcc_sma_de[10]_iqr1-2 numeric
@attribute mfcc_sma_de[10]_iqr2-3 numeric
@attribute mfcc_sma_de[10]_iqr1-3 numeric
@attribute mfcc_sma_de[10]_percentile1.0 numeric
@attribute mfcc_sma_de[10]_percentile99.0 numeric
@attribute mfcc_sma_de[10]_pctlrange0-1 numeric
@attribute mfcc_sma_de[10]_upleveltime75 numeric
@attribute mfcc_sma_de[10]_upleveltime90 numeric
@attribute mfcc_sma_de[11]_maxPos numeric
@attribute mfcc_sma_de[11]_minPos numeric
@attribute mfcc_sma_de[11]_amean numeric
@attribute mfcc_sma_de[11]_linregc1 numeric
@attribute mfcc_sma_de[11]_linregc2 numeric
@attribute mfcc_sma_de[11]_linregerrA numeric
@attribute mfcc_sma_de[11]_linregerrQ numeric
@attribute mfcc_sma_de[11]_stddev numeric
@attribute mfcc_sma_de[11]_skewness numeric
@attribute mfcc_sma_de[11]_kurtosis numeric
@attribute mfcc_sma_de[11]_quartile1 numeric
@attribute mfcc_sma_de[11]_quartile2 numeric
@attribute mfcc_sma_de[11]_quartile3 numeric
@attribute mfcc_sma_de[11]_iqr1-2 numeric
@attribute mfcc_sma_de[11]_iqr2-3 numeric
@attribute mfcc_sma_de[11]_iqr1-3 numeric
@attribute mfcc_sma_de[11]_percentile1.0 numeric
@attribute mfcc_sma_de[11]_percentile99.0 numeric
@attribute mfcc_sma_de[11]_pctlrange0-1 numeric
@attribute mfcc_sma_de[11]_upleveltime75 numeric
@attribute mfcc_sma_de[11]_upleveltime90 numeric
@attribute mfcc_sma_de[12]_maxPos numeric
@attribute mfcc_sma_de[12]_minPos numeric
@attribute mfcc_sma_de[12]_amean numeric
@attribute mfcc_sma_de[12]_linregc1 numeric
@attribute mfcc_sma_de[12]_linregc2 numeric
@attribute mfcc_sma_de[12]_linregerrA numeric
@attribute mfcc_sma_de[12]_linregerrQ numeric
@attribute mfcc_sma_de[12]_stddev numeric
@attribute mfcc_sma_de[12]_skewness numeric
@attribute mfcc_sma_de[12]_kurtosis numeric
@attribute mfcc_sma_de[12]_quartile1 numeric
@attribute mfcc_sma_de[12]_quartile2 numeric
@attribute mfcc_sma_de[12]_quartile3 numeric
@attribute mfcc_sma_de[12]_iqr1-2 numeric
@attribute mfcc_sma_de[12]_iqr2-3 numeric
@attribute mfcc_sma_de[12]_iqr1-3 numeric
@attribute mfcc_sma_de[12]_percentile1.0 numeric
@attribute mfcc_sma_de[12]_percentile99.0 numeric
@attribute mfcc_sma_de[12]_pctlrange0-1 numeric
@attribute mfcc_sma_de[12]_upleveltime75 numeric
@attribute mfcc_sma_de[12]_upleveltime90 numeric
@attribute mfcc_sma_de[13]_maxPos numeric
@attribute mfcc_sma_de[13]_minPos numeric
@attribute mfcc_sma_de[13]_amean numeric
@attribute mfcc_sma_de[13]_linregc1 numeric
@attribute mfcc_sma_de[13]_linregc2 numeric
@attribute mfcc_sma_de[13]_linregerrA numeric
@attribute mfcc_sma_de[13]_linregerrQ numeric
@attribute mfcc_sma_de[13]_stddev numeric
@attribute mfcc_sma_de[13]_skewness numeric
@attribute mfcc_sma_de[13]_kurtosis numeric
@attribute mfcc_sma_de[13]_quartile1 numeric
@attribute mfcc_sma_de[13]_quartile2 numeric
@attribute mfcc_sma_de[13]_quartile3 numeric
@attribute mfcc_sma_de[13]_iqr1-2 numeric
@attribute mfcc_sma_de[13]_iqr2-3 numeric
@attribute mfcc_sma_de[13]_iqr1-3 numeric
@attribute mfcc_sma_de[13]_percentile1.0 numeric
@attribute mfcc_sma_de[13]_percentile99.0 numeric
@attribute mfcc_sma_de[13]_pctlrange0-1 numeric
@attribute mfcc_sma_de[13]_upleveltime75 numeric
@attribute mfcc_sma_de[13]_upleveltime90 numeric
@attribute mfcc_sma_de[14]_maxPos numeric
@attribute mfcc_sma_de[14]_minPos numeric
@attribute mfcc_sma_de[14]_amean numeric
@attribute mfcc_sma_de[14]_linregc1 numeric
@attribute mfcc_sma_de[14]_linregc2 numeric
@attribute mfcc_sma_de[14]_linregerrA numeric
@attribute mfcc_sma_de[14]_linregerrQ numeric
@attribute mfcc_sma_de[14]_stddev numeric
@attribute mfcc_sma_de[14]_skewness numeric
@attribute mfcc_sma_de[14]_kurtosis numeric
@attribute mfcc_sma_de[14]_quartile1 numeric
@attribute mfcc_sma_de[14]_quartile2 numeric
@attribute mfcc_sma_de[14]_quartile3 numeric
@attribute mfcc_sma_de[14]_iqr1-2 numeric
@attribute mfcc_sma_de[14]_iqr2-3 numeric
@attribute mfcc_sma_de[14]_iqr1-3 numeric
@attribute mfcc_sma_de[14]_percentile1.0 numeric
@attribute mfcc_sma_de[14]_percentile99.0 numeric
@attribute mfcc_sma_de[14]_pctlrange0-1 numeric
@attribute mfcc_sma_de[14]_upleveltime75 numeric
@attribute mfcc_sma_de[14]_upleveltime90 numeric
@attribute logMelFreqBand_sma_de[0]_maxPos numeric
@attribute logMelFreqBand_sma_de[0]_minPos numeric
@attribute logMelFreqBand_sma_de[0]_amean numeric
@attribute logMelFreqBand_sma_de[0]_linregc1 numeric
@attribute logMelFreqBand_sma_de[0]_linregc2 numeric
@attribute logMelFreqBand_sma_de[0]_linregerrA numeric
@attribute logMelFreqBand_sma_de[0]_linregerrQ numeric
@attribute logMelFreqBand_sma_de[0]_stddev numeric
@attribute logMelFreqBand_sma_de[0]_skewness numeric
@attribute logMelFreqBand_sma_de[0]_kurtosis numeric
@attribute logMelFreqBand_sma_de[0]_quartile1 numeric
@attribute logMelFreqBand_sma_de[0]_quartile2 numeric
@attribute logMelFreqBand_sma_de[0]_quartile3 numeric
@attribute logMelFreqBand_sma_de[0]_iqr1-2 numeric
@attribute logMelFreqBand_sma_de[0]_iqr2-3 numeric
@attribute logMelFreqBand_sma_de[0]_iqr1-3 numeric
@attribute logMelFreqBand_sma_de[0]_percentile1.0 numeric
@attribute logMelFreqBand_sma_de[0]_percentile99.0 numeric
@attribute logMelFreqBand_sma_de[0]_pctlrange0-1 numeric
@attribute logMelFreqBand_sma_de[0]_upleveltime75 numeric
@attribute logMelFreqBand_sma_de[0]_upleveltime90 numeric
@attribute logMelFreqBand_sma_de[1]_maxPos numeric
@attribute logMelFreqBand_sma_de[1]_minPos numeric
@attribute logMelFreqBand_sma_de[1]_amean numeric
@attribute logMelFreqBand_sma_de[1]_linregc1 numeric
@attribute logMelFreqBand_sma_de[1]_linregc2 numeric
@attribute logMelFreqBand_sma_de[1]_linregerrA numeric
@attribute logMelFreqBand_sma_de[1]_linregerrQ numeric
@attribute logMelFreqBand_sma_de[1]_stddev numeric
@attribute logMelFreqBand_sma_de[1]_skewness numeric
@attribute logMelFreqBand_sma_de[1]_kurtosis numeric
@attribute logMelFreqBand_sma_de[1]_quartile1 numeric
@attribute logMelFreqBand_sma_de[1]_quartile2 numeric
@attribute logMelFreqBand_sma_de[1]_quartile3 numeric
@attribute logMelFreqBand_sma_de[1]_iqr1-2 numeric
@attribute logMelFreqBand_sma_de[1]_iqr2-3 numeric
@attribute logMelFreqBand_sma_de[1]_iqr1-3 numeric
@attribute logMelFreqBand_sma_de[1]_percentile1.0 numeric
@attribute logMelFreqBand_sma_de[1]_percentile99.0 numeric
@attribute logMelFreqBand_sma_de[1]_pctlrange0-1 numeric
@attribute logMelFreqBand_sma_de[1]_upleveltime75 numeric
@attribute logMelFreqBand_sma_de[1]_upleveltime90 numeric
@attribute logMelFreqBand_sma_de[2]_maxPos numeric
@attribute logMelFreqBand_sma_de[2]_minPos numeric
@attribute logMelFreqBand_sma_de[2]_amean numeric
@attribute logMelFreqBand_sma_de[2]_linregc1 numeric
@attribute logMelFreqBand_sma_de[2]_linregc2 numeric
@attribute logMelFreqBand_sma_de[2]_linregerrA numeric
@attribute logMelFreqBand_sma_de[2]_linregerrQ numeric
@attribute logMelFreqBand_sma_de[2]_stddev numeric
@attribute logMelFreqBand_sma_de[2]_skewness numeric
@attribute logMelFreqBand_sma_de[2]_kurtosis numeric
@attribute logMelFreqBand_sma_de[2]_quartile1 numeric
@attribute logMelFreqBand_sma_de[2]_quartile2 numeric
@attribute logMelFreqBand_sma_de[2]_quartile3 numeric
@attribute logMelFreqBand_sma_de[2]_iqr1-2 numeric
@attribute logMelFreqBand_sma_de[2]_iqr2-3 numeric
@attribute logMelFreqBand_sma_de[2]_iqr1-3 numeric
@attribute logMelFreqBand_sma_de[2]_percentile1.0 numeric
@attribute logMelFreqBand_sma_de[2]_percentile99.0 numeric
@attribute logMelFreqBand_sma_de[2]_pctlrange0-1 numeric
@attribute logMelFreqBand_sma_de[2]_upleveltime75 numeric
@attribute logMelFreqBand_sma_de[2]_upleveltime90 numeric
@attribute logMelFreqBand_sma_de[3]_maxPos numeric
@attribute logMelFreqBand_sma_de[3]_minPos numeric
@attribute logMelFreqBand_sma_de[3]_amean numeric
@attribute logMelFreqBand_sma_de[3]_linregc1 numeric
@attribute logMelFreqBand_sma_de[3]_linregc2 numeric
@attribute logMelFreqBand_sma_de[3]_linregerrA numeric
@attribute logMelFreqBand_sma_de[3]_linregerrQ numeric
@attribute logMelFreqBand_sma_de[3]_stddev numeric
@attribute logMelFreqBand_sma_de[3]_skewness numeric
@attribute logMelFreqBand_sma_de[3]_kurtosis numeric
@attribute logMelFreqBand_sma_de[3]_quartile1 numeric
@attribute logMelFreqBand_sma_de[3]_quartile2 numeric
@attribute logMelFreqBand_sma_de[3]_quartile3 numeric
@attribute logMelFreqBand_sma_de[3]_iqr1-2 numeric
@attribute logMelFreqBand_sma_de[3]_iqr2-3 numeric
@attribute logMelFreqBand_sma_de[3]_iqr1-3 numeric
@attribute logMelFreqBand_sma_de[3]_percentile1.0 numeric
@attribute logMelFreqBand_sma_de[3]_percentile99.0 numeric
@attribute logMelFreqBand_sma_de[3]_pctlrange0-1 numeric
@attribute logMelFreqBand_sma_de[3]_upleveltime75 numeric
@attribute logMelFreqBand_sma_de[3]_upleveltime90 numeric
@attribute logMelFreqBand_sma_de[4]_maxPos numeric
@attribute logMelFreqBand_sma_de[4]_minPos numeric
@attribute logMelFreqBand_sma_de[4]_amean numeric
@attribute logMelFreqBand_sma_de[4]_linregc1 numeric
@attribute logMelFreqBand_sma_de[4]_linregc2 numeric
@attribute logMelFreqBand_sma_de[4]_linregerrA numeric
@attribute logMelFreqBand_sma_de[4]_linregerrQ numeric
@attribute logMelFreqBand_sma_de[4]_stddev numeric
@attribute logMelFreqBand_sma_de[4]_skewness numeric
@attribute logMelFreqBand_sma_de[4]_kurtosis numeric
@attribute logMelFreqBand_sma_de[4]_quartile1 numeric
@attribute logMelFreqBand_sma_de[4]_quartile2 numeric
@attribute logMelFreqBand_sma_de[4]_quartile3 numeric
@attribute logMelFreqBand_sma_de[4]_iqr1-2 numeric
@attribute logMelFreqBand_sma_de[4]_iqr2-3 numeric
@attribute logMelFreqBand_sma_de[4]_iqr1-3 numeric
@attribute logMelFreqBand_sma_de[4]_percentile1.0 numeric
@attribute logMelFreqBand_sma_de[4]_percentile99.0 numeric
@attribute logMelFreqBand_sma_de[4]_pctlrange0-1 numeric
@attribute logMelFreqBand_sma_de[4]_upleveltime75 numeric
@attribute logMelFreqBand_sma_de[4]_upleveltime90 numeric
@attribute logMelFreqBand_sma_de[5]_maxPos numeric
@attribute logMelFreqBand_sma_de[5]_minPos numeric
@attribute logMelFreqBand_sma_de[5]_amean numeric
@attribute logMelFreqBand_sma_de[5]_linregc1 numeric
@attribute logMelFreqBand_sma_de[5]_linregc2 numeric
@attribute logMelFreqBand_sma_de[5]_linregerrA numeric
@attribute logMelFreqBand_sma_de[5]_linregerrQ numeric
@attribute logMelFreqBand_sma_de[5]_stddev numeric
@attribute logMelFreqBand_sma_de[5]_skewness numeric
@attribute logMelFreqBand_sma_de[5]_kurtosis numeric
@attribute logMelFreqBand_sma_de[5]_quartile1 numeric
@attribute logMelFreqBand_sma_de[5]_quartile2 numeric
@attribute logMelFreqBand_sma_de[5]_quartile3 numeric
@attribute logMelFreqBand_sma_de[5]_iqr1-2 numeric
@attribute logMelFreqBand_sma_de[5]_iqr2-3 numeric
@attribute logMelFreqBand_sma_de[5]_iqr1-3 numeric
@attribute logMelFreqBand_sma_de[5]_percentile1.0 numeric
@attribute logMelFreqBand_sma_de[5]_percentile99.0 numeric
@attribute logMelFreqBand_sma_de[5]_pctlrange0-1 numeric
@attribute logMelFreqBand_sma_de[5]_upleveltime75 numeric
@attribute logMelFreqBand_sma_de[5]_upleveltime90 numeric
@attribute logMelFreqBand_sma_de[6]_maxPos numeric
@attribute logMelFreqBand_sma_de[6]_minPos numeric
@attribute logMelFreqBand_sma_de[6]_amean numeric
@attribute logMelFreqBand_sma_de[6]_linregc1 numeric
@attribute logMelFreqBand_sma_de[6]_linregc2 numeric
@attribute logMelFreqBand_sma_de[6]_linregerrA numeric
@attribute logMelFreqBand_sma_de[6]_linregerrQ numeric
@attribute logMelFreqBand_sma_de[6]_stddev numeric
@attribute logMelFreqBand_sma_de[6]_skewness numeric
@attribute logMelFreqBand_sma_de[6]_kurtosis numeric
@attribute logMelFreqBand_sma_de[6]_quartile1 numeric
@attribute logMelFreqBand_sma_de[6]_quartile2 numeric
@attribute logMelFreqBand_sma_de[6]_quartile3 numeric
@attribute logMelFreqBand_sma_de[6]_iqr1-2 numeric
@attribute logMelFreqBand_sma_de[6]_iqr2-3 numeric
@attribute logMelFreqBand_sma_de[6]_iqr1-3 numeric
@attribute logMelFreqBand_sma_de[6]_percentile1.0 numeric
@attribute logMelFreqBand_sma_de[6]_percentile99.0 numeric
@attribute logMelFreqBand_sma_de[6]_pctlrange0-1 numeric
@attribute logMelFreqBand_sma_de[6]_upleveltime75 numeric
@attribute logMelFreqBand_sma_de[6]_upleveltime90 numeric
@attribute logMelFreqBand_sma_de[7]_maxPos numeric
@attribute logMelFreqBand_sma_de[7]_minPos numeric
@attribute logMelFreqBand_sma_de[7]_amean numeric
@attribute logMelFreqBand_sma_de[7]_linregc1 numeric
@attribute logMelFreqBand_sma_de[7]_linregc2 numeric
@attribute logMelFreqBand_sma_de[7]_linregerrA numeric
@attribute logMelFreqBand_sma_de[7]_linregerrQ numeric
@attribute logMelFreqBand_sma_de[7]_stddev numeric
@attribute logMelFreqBand_sma_de[7]_skewness numeric
@attribute logMelFreqBand_sma_de[7]_kurtosis numeric
@attribute logMelFreqBand_sma_de[7]_quartile1 numeric
@attribute logMelFreqBand_sma_de[7]_quartile2 numeric
@attribute logMelFreqBand_sma_de[7]_quartile3 numeric
@attribute logMelFreqBand_sma_de[7]_iqr1-2 numeric
@attribute logMelFreqBand_sma_de[7]_iqr2-3 numeric
@attribute logMelFreqBand_sma_de[7]_iqr1-3 numeric
@attribute logMelFreqBand_sma_de[7]_percentile1.0 numeric
@attribute logMelFreqBand_sma_de[7]_percentile99.0 numeric
@attribute logMelFreqBand_sma_de[7]_pctlrange0-1 numeric
@attribute logMelFreqBand_sma_de[7]_upleveltime75 numeric
@attribute logMelFreqBand_sma_de[7]_upleveltime90 numeric
@attribute lspFreq_sma_de[0]_maxPos numeric
@attribute lspFreq_sma_de[0]_minPos numeric
@attribute lspFreq_sma_de[0]_amean numeric
@attribute lspFreq_sma_de[0]_linregc1 numeric
@attribute lspFreq_sma_de[0]_linregc2 numeric
@attribute lspFreq_sma_de[0]_linregerrA numeric
@attribute lspFreq_sma_de[0]_linregerrQ numeric
@attribute lspFreq_sma_de[0]_stddev numeric
@attribute lspFreq_sma_de[0]_skewness numeric
@attribute lspFreq_sma_de[0]_kurtosis numeric
@attribute lspFreq_sma_de[0]_quartile1 numeric
@attribute lspFreq_sma_de[0]_quartile2 numeric
@attribute lspFreq_sma_de[0]_quartile3 numeric
@attribute lspFreq_sma_de[0]_iqr1-2 numeric
@attribute lspFreq_sma_de[0]_iqr2-3 numeric
@attribute lspFreq_sma_de[0]_iqr1-3 numeric
@attribute lspFreq_sma_de[0]_percentile1.0 numeric
@attribute lspFreq_sma_de[0]_percentile99.0 numeric
@attribute lspFreq_sma_de[0]_pctlrange0-1 numeric
@attribute lspFreq_sma_de[0]_upleveltime75 numeric
@attribute lspFreq_sma_de[0]_upleveltime90 numeric
@attribute lspFreq_sma_de[1]_maxPos numeric
@attribute lspFreq_sma_de[1]_minPos numeric
@attribute lspFreq_sma_de[1]_amean numeric
@attribute lspFreq_sma_de[1]_linregc1 numeric
@attribute lspFreq_sma_de[1]_linregc2 numeric
@attribute lspFreq_sma_de[1]_linregerrA numeric
@attribute lspFreq_sma_de[1]_linregerrQ numeric
@attribute lspFreq_sma_de[1]_stddev numeric
@attribute lspFreq_sma_de[1]_skewness numeric
@attribute lspFreq_sma_de[1]_kurtosis numeric
@attribute lspFreq_sma_de[1]_quartile1 numeric
@attribute lspFreq_sma_de[1]_quartile2 numeric
@attribute lspFreq_sma_de[1]_quartile3 numeric
@attribute lspFreq_sma_de[1]_iqr1-2 numeric
@attribute lspFreq_sma_de[1]_iqr2-3 numeric
@attribute lspFreq_sma_de[1]_iqr1-3 numeric
@attribute lspFreq_sma_de[1]_percentile1.0 numeric
@attribute lspFreq_sma_de[1]_percentile99.0 numeric
@attribute lspFreq_sma_de[1]_pctlrange0-1 numeric
@attribute lspFreq_sma_de[1]_upleveltime75 numeric
@attribute lspFreq_sma_de[1]_upleveltime90 numeric
@attribute lspFreq_sma_de[2]_maxPos numeric
@attribute lspFreq_sma_de[2]_minPos numeric
@attribute lspFreq_sma_de[2]_amean numeric
@attribute lspFreq_sma_de[2]_linregc1 numeric
@attribute lspFreq_sma_de[2]_linregc2 numeric
@attribute lspFreq_sma_de[2]_linregerrA numeric
@attribute lspFreq_sma_de[2]_linregerrQ numeric
@attribute lspFreq_sma_de[2]_stddev numeric
@attribute lspFreq_sma_de[2]_skewness numeric
@attribute lspFreq_sma_de[2]_kurtosis numeric
@attribute lspFreq_sma_de[2]_quartile1 numeric
@attribute lspFreq_sma_de[2]_quartile2 numeric
@attribute lspFreq_sma_de[2]_quartile3 numeric
@attribute lspFreq_sma_de[2]_iqr1-2 numeric
@attribute lspFreq_sma_de[2]_iqr2-3 numeric
@attribute lspFreq_sma_de[2]_iqr1-3 numeric
@attribute lspFreq_sma_de[2]_percentile1.0 numeric
@attribute lspFreq_sma_de[2]_percentile99.0 numeric
@attribute lspFreq_sma_de[2]_pctlrange0-1 numeric
@attribute lspFreq_sma_de[2]_upleveltime75 numeric
@attribute lspFreq_sma_de[2]_upleveltime90 numeric
@attribute lspFreq_sma_de[3]_maxPos numeric
@attribute lspFreq_sma_de[3]_minPos numeric
@attribute lspFreq_sma_de[3]_amean numeric
@attribute lspFreq_sma_de[3]_linregc1 numeric
@attribute lspFreq_sma_de[3]_linregc2 numeric
@attribute lspFreq_sma_de[3]_linregerrA numeric
@attribute lspFreq_sma_de[3]_linregerrQ numeric
@attribute lspFreq_sma_de[3]_stddev numeric
@attribute lspFreq_sma_de[3]_skewness numeric
@attribute lspFreq_sma_de[3]_kurtosis numeric
@attribute lspFreq_sma_de[3]_quartile1 numeric
@attribute lspFreq_sma_de[3]_quartile2 numeric
@attribute lspFreq_sma_de[3]_quartile3 numeric
@attribute lspFreq_sma_de[3]_iqr1-2 numeric
@attribute lspFreq_sma_de[3]_iqr2-3 numeric
@attribute lspFreq_sma_de[3]_iqr1-3 numeric
@attribute lspFreq_sma_de[3]_percentile1.0 numeric
@attribute lspFreq_sma_de[3]_percentile99.0 numeric
@attribute lspFreq_sma_de[3]_pctlrange0-1 numeric
@attribute lspFreq_sma_de[3]_upleveltime75 numeric
@attribute lspFreq_sma_de[3]_upleveltime90 numeric
@attribute lspFreq_sma_de[4]_maxPos numeric
@attribute lspFreq_sma_de[4]_minPos numeric
@attribute lspFreq_sma_de[4]_amean numeric
@attribute lspFreq_sma_de[4]_linregc1 numeric
@attribute lspFreq_sma_de[4]_linregc2 numeric
@attribute lspFreq_sma_de[4]_linregerrA numeric
@attribute lspFreq_sma_de[4]_linregerrQ numeric
@attribute lspFreq_sma_de[4]_stddev numeric
@attribute lspFreq_sma_de[4]_skewness numeric
@attribute lspFreq_sma_de[4]_kurtosis numeric
@attribute lspFreq_sma_de[4]_quartile1 numeric
@attribute lspFreq_sma_de[4]_quartile2 numeric
@attribute lspFreq_sma_de[4]_quartile3 numeric
@attribute lspFreq_sma_de[4]_iqr1-2 numeric
@attribute lspFreq_sma_de[4]_iqr2-3 numeric
@attribute lspFreq_sma_de[4]_iqr1-3 numeric
@attribute lspFreq_sma_de[4]_percentile1.0 numeric
@attribute lspFreq_sma_de[4]_percentile99.0 numeric
@attribute lspFreq_sma_de[4]_pctlrange0-1 numeric
@attribute lspFreq_sma_de[4]_upleveltime75 numeric
@attribute lspFreq_sma_de[4]_upleveltime90 numeric
@attribute lspFreq_sma_de[5]_maxPos numeric
@attribute lspFreq_sma_de[5]_minPos numeric
@attribute lspFreq_sma_de[5]_amean numeric
@attribute lspFreq_sma_de[5]_linregc1 numeric
@attribute lspFreq_sma_de[5]_linregc2 numeric
@attribute lspFreq_sma_de[5]_linregerrA numeric
@attribute lspFreq_sma_de[5]_linregerrQ numeric
@attribute lspFreq_sma_de[5]_stddev numeric
@attribute lspFreq_sma_de[5]_skewness numeric
@attribute lspFreq_sma_de[5]_kurtosis numeric
@attribute lspFreq_sma_de[5]_quartile1 numeric
@attribute lspFreq_sma_de[5]_quartile2 numeric
@attribute lspFreq_sma_de[5]_quartile3 numeric
@attribute lspFreq_sma_de[5]_iqr1-2 numeric
@attribute lspFreq_sma_de[5]_iqr2-3 numeric
@attribute lspFreq_sma_de[5]_iqr1-3 numeric
@attribute lspFreq_sma_de[5]_percentile1.0 numeric
@attribute lspFreq_sma_de[5]_percentile99.0 numeric
@attribute lspFreq_sma_de[5]_pctlrange0-1 numeric
@attribute lspFreq_sma_de[5]_upleveltime75 numeric
@attribute lspFreq_sma_de[5]_upleveltime90 numeric
@attribute lspFreq_sma_de[6]_maxPos numeric
@attribute lspFreq_sma_de[6]_minPos numeric
@attribute lspFreq_sma_de[6]_amean numeric
@attribute lspFreq_sma_de[6]_linregc1 numeric
@attribute lspFreq_sma_de[6]_linregc2 numeric
@attribute lspFreq_sma_de[6]_linregerrA numeric
@attribute lspFreq_sma_de[6]_linregerrQ numeric
@attribute lspFreq_sma_de[6]_stddev numeric
@attribute lspFreq_sma_de[6]_skewness numeric
@attribute lspFreq_sma_de[6]_kurtosis numeric
@attribute lspFreq_sma_de[6]_quartile1 numeric
@attribute lspFreq_sma_de[6]_quartile2 numeric
@attribute lspFreq_sma_de[6]_quartile3 numeric
@attribute lspFreq_sma_de[6]_iqr1-2 numeric
@attribute lspFreq_sma_de[6]_iqr2-3 numeric
@attribute lspFreq_sma_de[6]_iqr1-3 numeric
@attribute lspFreq_sma_de[6]_percentile1.0 numeric
@attribute lspFreq_sma_de[6]_percentile99.0 numeric
@attribute lspFreq_sma_de[6]_pctlrange0-1 numeric
@attribute lspFreq_sma_de[6]_upleveltime75 numeric
@attribute lspFreq_sma_de[6]_upleveltime90 numeric
@attribute lspFreq_sma_de[7]_maxPos numeric
@attribute lspFreq_sma_de[7]_minPos numeric
@attribute lspFreq_sma_de[7]_amean numeric
@attribute lspFreq_sma_de[7]_linregc1 numeric
@attribute lspFreq_sma_de[7]_linregc2 numeric
@attribute lspFreq_sma_de[7]_linregerrA numeric
@attribute lspFreq_sma_de[7]_linregerrQ numeric
@attribute lspFreq_sma_de[7]_stddev numeric
@attribute lspFreq_sma_de[7]_skewness numeric
@attribute lspFreq_sma_de[7]_kurtosis numeric
@attribute lspFreq_sma_de[7]_quartile1 numeric
@attribute lspFreq_sma_de[7]_quartile2 numeric
@attribute lspFreq_sma_de[7]_quartile3 numeric
@attribute lspFreq_sma_de[7]_iqr1-2 numeric
@attribute lspFreq_sma_de[7]_iqr2-3 numeric
@attribute lspFreq_sma_de[7]_iqr1-3 numeric
@attribute lspFreq_sma_de[7]_percentile1.0 numeric
@attribute lspFreq_sma_de[7]_percentile99.0 numeric
@attribute lspFreq_sma_de[7]_pctlrange0-1 numeric
@attribute lspFreq_sma_de[7]_upleveltime75 numeric
@attribute lspFreq_sma_de[7]_upleveltime90 numeric
@attribute F0finEnv_sma_de_maxPos numeric
@attribute F0finEnv_sma_de_minPos numeric
@attribute F0finEnv_sma_de_amean numeric
@attribute F0finEnv_sma_de_linregc1 numeric
@attribute F0finEnv_sma_de_linregc2 numeric
@attribute F0finEnv_sma_de_linregerrA numeric
@attribute F0finEnv_sma_de_linregerrQ numeric
@attribute F0finEnv_sma_de_stddev numeric
@attribute F0finEnv_sma_de_skewness numeric
@attribute F0finEnv_sma_de_kurtosis numeric
@attribute F0finEnv_sma_de_quartile1 numeric
@attribute F0finEnv_sma_de_quartile2 numeric
@attribute F0finEnv_sma_de_quartile3 numeric
@attribute F0finEnv_sma_de_iqr1-2 numeric
@attribute F0finEnv_sma_de_iqr2-3 numeric
@attribute F0finEnv_sma_de_iqr1-3 numeric
@attribute F0finEnv_sma_de_percentile1.0 numeric
@attribute F0finEnv_sma_de_percentile99.0 numeric
@attribute F0finEnv_sma_de_pctlrange0-1 numeric
@attribute F0finEnv_sma_de_upleveltime75 numeric
@attribute F0finEnv_sma_de_upleveltime90 numeric
@attribute voicingFinalUnclipped_sma_de_maxPos numeric
@attribute voicingFinalUnclipped_sma_de_minPos numeric
@attribute voicingFinalUnclipped_sma_de_amean numeric
@attribute voicingFinalUnclipped_sma_de_linregc1 numeric
@attribute voicingFinalUnclipped_sma_de_linregc2 numeric
@attribute voicingFinalUnclipped_sma_de_linregerrA numeric
@attribute voicingFinalUnclipped_sma_de_linregerrQ numeric
@attribute voicingFinalUnclipped_sma_de_stddev numeric
@attribute voicingFinalUnclipped_sma_de_skewness numeric
@attribute voicingFinalUnclipped_sma_de_kurtosis numeric
@attribute voicingFinalUnclipped_sma_de_quartile1 numeric
@attribute voicingFinalUnclipped_sma_de_quartile2 numeric
@attribute voicingFinalUnclipped_sma_de_quartile3 numeric
@attribute voicingFinalUnclipped_sma_de_iqr1-2 numeric
@attribute voicingFinalUnclipped_sma_de_iqr2-3 numeric
@attribute voicingFinalUnclipped_sma_de_iqr1-3 numeric
@attribute voicingFinalUnclipped_sma_de_percentile1.0 numeric
@attribute voicingFinalUnclipped_sma_de_percentile99.0 numeric
@attribute voicingFinalUnclipped_sma_de_pctlrange0-1 numeric
@attribute voicingFinalUnclipped_sma_de_upleveltime75 numeric
@attribute voicingFinalUnclipped_sma_de_upleveltime90 numeric
@attribute F0final_sma_maxPos numeric
@attribute F0final_sma_minPos numeric
@attribute F0final_sma_amean numeric
@attribute F0final_sma_linregc1 numeric
@attribute F0final_sma_linregc2 numeric
@attribute F0final_sma_linregerrA numeric
@attribute F0final_sma_linregerrQ numeric
@attribute F0final_sma_stddev numeric
@attribute F0final_sma_skewness numeric
@attribute F0final_sma_kurtosis numeric
@attribute F0final_sma_quartile1 numeric
@attribute F0final_sma_quartile2 numeric
@attribute F0final_sma_quartile3 numeric
@attribute F0final_sma_iqr1-2 numeric
@attribute F0final_sma_iqr2-3 numeric
@attribute F0final_sma_iqr1-3 numeric
@attribute F0final_sma_percentile99.0 numeric
@attribute F0final_sma_upleveltime75 numeric
@attribute F0final_sma_upleveltime90 numeric
@attribute jitterLocal_sma_maxPos numeric
@attribute jitterLocal_sma_minPos numeric
@attribute jitterLocal_sma_amean numeric
@attribute jitterLocal_sma_linregc1 numeric
@attribute jitterLocal_sma_linregc2 numeric
@attribute jitterLocal_sma_linregerrA numeric
@attribute jitterLocal_sma_linregerrQ numeric
@attribute jitterLocal_sma_stddev numeric
@attribute jitterLocal_sma_skewness numeric
@attribute jitterLocal_sma_kurtosis numeric
@attribute jitterLocal_sma_quartile1 numeric
@attribute jitterLocal_sma_quartile2 numeric
@attribute jitterLocal_sma_quartile3 numeric
@attribute jitterLocal_sma_iqr1-2 numeric
@attribute jitterLocal_sma_iqr2-3 numeric
@attribute jitterLocal_sma_iqr1-3 numeric
@attribute jitterLocal_sma_percentile99.0 numeric
@attribute jitterLocal_sma_upleveltime75 numeric
@attribute jitterLocal_sma_upleveltime90 numeric
@attribute jitterDDP_sma_maxPos numeric
@attribute jitterDDP_sma_minPos numeric
@attribute jitterDDP_sma_amean numeric
@attribute jitterDDP_sma_linregc1 numeric
@attribute jitterDDP_sma_linregc2 numeric
@attribute jitterDDP_sma_linregerrA numeric
@attribute jitterDDP_sma_linregerrQ numeric
@attribute jitterDDP_sma_stddev numeric
@attribute jitterDDP_sma_skewness numeric
@attribute jitterDDP_sma_kurtosis numeric
@attribute jitterDDP_sma_quartile1 numeric
@attribute jitterDDP_sma_quartile2 numeric
@attribute jitterDDP_sma_quartile3 numeric
@attribute jitterDDP_sma_iqr1-2 numeric
@attribute jitterDDP_sma_iqr2-3 numeric
@attribute jitterDDP_sma_iqr1-3 numeric
@attribute jitterDDP_sma_percentile99.0 numeric
@attribute jitterDDP_sma_upleveltime75 numeric
@attribute jitterDDP_sma_upleveltime90 numeric
@attribute shimmerLocal_sma_maxPos numeric
@attribute shimmerLocal_sma_minPos numeric
@attribute shimmerLocal_sma_amean numeric
@attribute shimmerLocal_sma_linregc1 numeric
@attribute shimmerLocal_sma_linregc2 numeric
@attribute shimmerLocal_sma_linregerrA numeric
@attribute shimmerLocal_sma_linregerrQ numeric
@attribute shimmerLocal_sma_stddev numeric
@attribute shimmerLocal_sma_skewness numeric
@attribute shimmerLocal_sma_kurtosis numeric
@attribute shimmerLocal_sma_quartile1 numeric
@attribute shimmerLocal_sma_quartile2 numeric
@attribute shimmerLocal_sma_quartile3 numeric
@attribute shimmerLocal_sma_iqr1-2 numeric
@attribute shimmerLocal_sma_iqr2-3 numeric
@attribute shimmerLocal_sma_iqr1-3 numeric
@attribute shimmerLocal_sma_percentile99.0 numeric
@attribute shimmerLocal_sma_upleveltime75 numeric
@attribute shimmerLocal_sma_upleveltime90 numeric
@attribute F0final_sma_de_maxPos numeric
@attribute F0final_sma_de_minPos numeric
@attribute F0final_sma_de_amean numeric
@attribute F0final_sma_de_linregc1 numeric
@attribute F0final_sma_de_linregc2 numeric
@attribute F0final_sma_de_linregerrA numeric
@attribute F0final_sma_de_linregerrQ numeric
@attribute F0final_sma_de_stddev numeric
@attribute F0final_sma_de_skewness numeric
@attribute F0final_sma_de_kurtosis numeric
@attribute F0final_sma_de_quartile1 numeric
@attribute F0final_sma_de_quartile2 numeric
@attribute F0final_sma_de_quartile3 numeric
@attribute F0final_sma_de_iqr1-2 numeric
@attribute F0final_sma_de_iqr2-3 numeric
@attribute F0final_sma_de_iqr1-3 numeric
@attribute F0final_sma_de_percentile99.0 numeric
@attribute F0final_sma_de_upleveltime75 numeric
@attribute F0final_sma_de_upleveltime90 numeric
@attribute jitterLocal_sma_de_maxPos numeric
@attribute jitterLocal_sma_de_minPos numeric
@attribute jitterLocal_sma_de_amean numeric
@attribute jitterLocal_sma_de_linregc1 numeric
@attribute jitterLocal_sma_de_linregc2 numeric
@attribute jitterLocal_sma_de_linregerrA numeric
@attribute jitterLocal_sma_de_linregerrQ numeric
@attribute jitterLocal_sma_de_stddev numeric
@attribute jitterLocal_sma_de_skewness numeric
@attribute jitterLocal_sma_de_kurtosis numeric
@attribute jitterLocal_sma_de_quartile1 numeric
@attribute jitterLocal_sma_de_quartile2 numeric
@attribute jitterLocal_sma_de_quartile3 numeric
@attribute jitterLocal_sma_de_iqr1-2 numeric
@attribute jitterLocal_sma_de_iqr2-3 numeric
@attribute jitterLocal_sma_de_iqr1-3 numeric
@attribute jitterLocal_sma_de_percentile99.0 numeric
@attribute jitterLocal_sma_de_upleveltime75 numeric
@attribute jitterLocal_sma_de_upleveltime90 numeric
@attribute jitterDDP_sma_de_maxPos numeric
@attribute jitterDDP_sma_de_minPos numeric
@attribute jitterDDP_sma_de_amean numeric
@attribute jitterDDP_sma_de_linregc1 numeric
@attribute jitterDDP_sma_de_linregc2 numeric
@attribute jitterDDP_sma_de_linregerrA numeric
@attribute jitterDDP_sma_de_linregerrQ numeric
@attribute jitterDDP_sma_de_stddev numeric
@attribute jitterDDP_sma_de_skewness numeric
@attribute jitterDDP_sma_de_kurtosis numeric
@attribute jitterDDP_sma_de_quartile1 numeric
@attribute jitterDDP_sma_de_quartile2 numeric
@attribute jitterDDP_sma_de_quartile3 numeric
@attribute jitterDDP_sma_de_iqr1-2 numeric
@attribute jitterDDP_sma_de_iqr2-3 numeric
@attribute jitterDDP_sma_de_iqr1-3 numeric
@attribute jitterDDP_sma_de_percentile99.0 numeric
@attribute jitterDDP_sma_de_upleveltime75 numeric
@attribute jitterDDP_sma_de_upleveltime90 numeric
@attribute shimmerLocal_sma_de_maxPos numeric
@attribute shimmerLocal_sma_de_minPos numeric
@attribute shimmerLocal_sma_de_amean numeric
@attribute shimmerLocal_sma_de_linregc1 numeric
@attribute shimmerLocal_sma_de_linregc2 numeric
@attribute shimmerLocal_sma_de_linregerrA numeric
@attribute shimmerLocal_sma_de_linregerrQ numeric
@attribute shimmerLocal_sma_de_stddev numeric
@attribute shimmerLocal_sma_de_skewness numeric
@attribute shimmerLocal_sma_de_kurtosis numeric
@attribute shimmerLocal_sma_de_quartile1 numeric
@attribute shimmerLocal_sma_de_quartile2 numeric
@attribute shimmerLocal_sma_de_quartile3 numeric
@attribute shimmerLocal_sma_de_iqr1-2 numeric
@attribute shimmerLocal_sma_de_iqr2-3 numeric
@attribute shimmerLocal_sma_de_iqr1-3 numeric
@attribute shimmerLocal_sma_de_percentile99.0 numeric
@attribute shimmerLocal_sma_de_upleveltime75 numeric
@attribute shimmerLocal_sma_de_upleveltime90 numeric
@attribute F0final__Turn_numOnsets numeric
@attribute F0final__Turn_duration numeric
@attribute numeric_class numeric

@data

'noname',2.000000e+001,1.090000e+002,9.083517e-001,-3.824637e-004,9.523351e-001,1.388026e-001,4.245699e-002,2.076233e-001,6.875179e-001,6.589250e+000,8.183109e-001,9.041653e-001,9.804226e-001,8.585435e-002,7.625735e-002,1.621117e-001,3.656656e-001,1.636927e+000,1.271262e+000,1.731602e-002,1.298701e-002,1.900000e+001,2.170000e+002,-3.540487e+001,-9.175257e-002,-2.485332e+001,1.507935e+001,3.110689e+002,1.866824e+001,-6.564752e-001,2.208776e+000,-5.030304e+001,-3.025374e+001,-1.971971e+001,2.004930e+001,1.053403e+001,3.058333e+001,-7.256319e+001,-1.138511e+001,6.117808e+001,4.199134e-001,1.688312e-001,1.230000e+002,3.500000e+001,-8.767345e-001,3.041512e-002,-4.374473e+000,8.214372e+000,1.267812e+002,1.144092e+001,-1.695269e+000,6.709713e+000,-5.797817e+000,1.409636e+000,6.431065e+000,7.207454e+000,5.021428e+000,1.222888e+001,-4.155529e+001,1.382274e+001,5.537803e+001,6.320347e-001,2.034632e-001,1.230000e+002,1.090000e+002,6.363136e+000,1.642335e-002,4.474452e+000,6.619124e+000,7.628590e+001,8.802572e+000,5.041290e-002,3.109565e+000,1.068895e+000,6.249394e+000,9.955399e+000,5.180499e+000,3.706005e+000,8.886503e+000,-1.358519e+001,2.564328e+001,3.922848e+001,1.298701e-001,6.060606e-002,1.380000e+002,4.900000e+001,1.037947e+001,-2.739130e-002,1.352947e+001,7.682775e+000,9.973762e+001,1.015253e+001,5.474012e-001,3.118900e+000,3.227623e+000,9.226107e+000,1.619350e+001,5.998484e+000,6.967394e+000,1.296588e+001,-8.055391e+000,3.851516e+001,4.657056e+001,6.926407e-002,2.164502e-002,1.000000e+001,1.010000e+002,5.904920e+000,1.773130e-002,3.865820e+000,7.908348e+000,9.192301e+001,9.660281e+000,2.426413e-001,2.487873e+000,-2.221732e+000,6.083266e+000,1.277054e+001,8.304997e+000,6.687271e+000,1.499227e+001,-1.277655e+001,2.667632e+001,3.945287e+001,9.090909e-002,1.298701e-002,7.100000e+001,8.000000e+000,-1.903745e+001,3.124747e-002,-2.263090e+001,1.311388e+001,2.414998e+002,1.567933e+001,-1.262235e-001,2.188083e+000,-2.948120e+001,-1.725757e+001,-7.960924e+000,1.222364e+001,9.296642e+000,2.152028e+001,-4.912300e+001,1.314512e+001,6.226812e+001,1.212121e-001,3.030303e-002,2.040000e+002,1.810000e+002,-1.199255e+001,2.706471e-002,-1.510499e+001,1.161777e+001,1.882735e+002,1.383946e+001,-1.526757e-001,1.969294e+000,-2.222133e+001,-1.309762e+001,5.193504e-002,9.123713e+000,1.314955e+001,2.227327e+001,-4.011765e+001,1.033876e+001,5.045640e+001,3.203463e-001,1.082251e-001,1.880000e+002,1.250000e+002,6.135288e+000,3.613352e-002,1.979934e+000,7.481594e+000,9.572263e+001,1.007613e+001,-4.865621e-001,3.438712e+000,3.807381e-001,7.522542e+000,1.291902e+001,7.141804e+000,5.396475e+000,1.253828e+001,-2.052071e+001,2.981587e+001,5.033659e+001,8.225108e-002,2.164502e-002,2.100000e+002,9.000000e+000,4.206630e+000,2.574843e-002,1.245561e+000,6.652500e+000,6.740937e+001,8.387934e+000,4.519178e-001,3.238020e+000,-1.240638e+000,3.346632e+000,9.478624e+000,4.587270e+000,6.131992e+000,1.071926e+001,-1.252961e+001,2.729874e+001,3.982835e+001,5.627706e-002,1.731602e-002,1.850000e+002,1.440000e+002,-3.882778e+000,2.865849e-002,-7.178504e+000,6.698063e+000,7.917860e+001,9.101136e+000,-8.903102e-001,3.935845e+000,-8.457397e+000,-3.255153e+000,3.531925e+000,5.202244e+000,6.787078e+000,1.198932e+001,-3.089047e+001,1.017879e+001,4.106927e+001,3.593073e-001,1.038961e-001,2.070000e+002,1.070000e+002,-6.968078e-001,8.948321e-003,-1.725865e+000,6.727649e+000,6.845469e+001,8.295224e+000,-1.336500e-001,2.933110e+000,-6.089077e+000,-1.142570e+000,4.998584e+000,4.946507e+000,6.141153e+000,1.108766e+001,-2.188620e+001,1.658891e+001,3.847511e+001,1.601732e-001,5.194805e-002,7.900000e+001,4.300000e+001,-2.221307e-001,1.881270e-002,-2.385591e+000,6.021068e+000,5.685804e+001,7.644069e+000,2.811670e-002,2.839644e+000,-5.442884e+000,-3.875813e-001,5.063538e+000,5.055303e+000,5.451119e+000,1.050642e+001,-1.843750e+001,1.799263e+001,3.643012e+001,8.225108e-002,1.731602e-002,1.770000e+002,1.970000e+002,7.095447e-001,3.829320e-002,-3.694173e+000,6.454671e+000,6.493951e+001,8.453400e+000,-1.363176e-001,2.676090e+000,-4.776798e+000,2.142679e-001,7.389312e+000,4.991066e+000,7.175044e+000,1.216611e+001,-1.855266e+001,1.771438e+001,3.626704e+001,1.298701e-001,1.298701e-002,8.900000e+001,3.600000e+001,1.541888e+000,-1.183004e-002,2.902343e+000,4.478869e+000,3.519128e+001,5.984446e+000,4.070891e-001,3.445513e+000,-1.970146e+000,1.207769e+000,4.406724e+000,3.177916e+000,3.198955e+000,6.376870e+000,-1.040227e+001,1.735779e+001,2.776006e+001,7.359307e-002,3.463203e-002,1.750000e+002,8.900000e+001,-6.153054e+000,8.724952e-002,-1.618675e+001,6.727635e+000,6.501377e+001,9.943034e+000,-2.946561e-001,1.999159e+000,-1.345637e+001,-5.097427e+000,2.748639e+000,8.358940e+000,7.846066e+000,1.620501e+001,-2.664205e+001,1.098512e+001,3.762717e+001,2.900433e-001,3.896104e-002,6.000000e+001,2.220000e+002,-2.971055e+000,-9.594398e-003,-1.867699e+000,2.213790e+000,6.937689e+000,2.710538e+000,-8.442931e-001,2.348182e+000,-5.154387e+000,-2.101834e+000,-8.846012e-001,3.052553e+000,1.217232e+000,4.269785e+000,-8.596522e+000,2.101739e-001,8.806696e+000,4.891775e-001,1.904762e-001,2.000000e+001,2.120000e+002,-3.114697e+000,-1.088837e-002,-1.862534e+000,2.718736e+000,1.005627e+001,3.253222e+000,-5.341434e-001,2.191765e+000,-5.646920e+000,-2.505831e+000,-4.833596e-001,3.141089e+000,2.022471e+000,5.163561e+000,-9.657955e+000,1.932804e+000,1.159076e+001,3.073593e-001,6.926407e-002,1.070000e+002,2.210000e+002,-4.450986e+000,-1.047404e-002,-3.246472e+000,2.505210e+000,8.320601e+000,2.967899e+000,-3.089938e-001,2.083774e+000,-6.305397e+000,-4.001951e+000,-2.043089e+000,2.303446e+000,1.958862e+000,4.262308e+000,-9.924809e+000,5.869207e-001,1.051173e+001,2.467532e-001,7.359307e-002,1.060000e+002,2.150000e+002,-4.965260e+000,-1.136395e-002,-3.658406e+000,2.398814e+000,7.669681e+000,2.871223e+000,-3.190069e-001,1.970940e+000,-7.477229e+000,-4.424913e+000,-2.763960e+000,3.052316e+000,1.660953e+000,4.713269e+000,-9.834188e+000,-1.561226e-001,9.678065e+000,2.380952e-001,7.359307e-002,1.060000e+002,2.060000e+002,-3.114966e+000,-1.490202e-002,-1.401234e+000,2.452712e+000,8.032961e+000,3.003403e+000,-6.031904e-001,2.017112e+000,-5.661896e+000,-2.087950e+000,-5.887288e-001,3.573946e+000,1.499221e+000,5.073167e+000,-8.696387e+000,9.545166e-001,9.650904e+000,3.852814e-001,7.792208e-002,3.500000e+001,2.160000e+002,-3.146449e+000,-1.653139e-002,-1.245339e+000,2.442032e+000,7.745356e+000,2.993421e+000,-5.630764e-001,2.021593e+000,-5.770334e+000,-2.333894e+000,-5.766991e-001,3.436439e+000,1.757195e+000,5.193635e+000,-8.766802e+000,1.060325e+000,9.827127e+000,3.246753e-001,3.896104e-002,3.500000e+001,2.160000e+002,-3.750426e+000,-1.694217e-002,-1.802077e+000,2.179297e+000,6.576838e+000,2.802356e+000,-4.852465e-001,2.083418e+000,-6.343623e+000,-3.001261e+000,-1.554407e+000,3.342362e+000,1.446854e+000,4.789216e+000,-8.932624e+000,1.182510e+000,1.011513e+001,3.896104e-002,1.298701e-002,3.500000e+001,2.160000e+002,-3.539513e+000,-1.293551e-002,-2.051929e+000,2.373982e+000,7.759739e+000,2.916126e+000,-2.885433e-001,1.887264e+000,-6.294327e+000,-2.845369e+000,-1.180490e+000,3.448957e+000,1.664879e+000,5.113836e+000,-8.644041e+000,1.504678e+000,1.014872e+001,1.471861e-001,2.597403e-002,1.080000e+002,2.170000e+002,1.523994e-001,-2.303089e-004,1.788850e-001,7.470458e-002,7.526634e-003,8.810502e-002,1.248102e-001,2.151295e+000,8.551023e-002,1.643005e-001,2.254727e-001,7.879027e-002,6.117222e-002,1.399625e-001,1.900729e-002,3.587172e-001,3.397099e-001,5.627706e-002,2.597403e-002,3.600000e+001,8.700000e+001,4.458257e-001,-6.388312e-004,5.192913e-001,1.013266e-001,1.949299e-002,1.459716e-001,1.995855e+000,8.132304e+000,3.585240e-001,4.109167e-001,4.903850e-001,5.239266e-002,7.946837e-002,1.318610e-001,2.610769e-001,9.882222e-001,7.271453e-001,1.298701e-002,8.658009e-003,3.500000e+001,1.230000e+002,1.019101e+000,-6.695239e-004,1.096096e+000,8.967194e-002,1.355115e-002,1.246773e-001,3.511892e-001,3.105954e+000,9.441339e-001,9.883463e-001,1.101745e+000,4.421246e-002,1.133991e-001,1.576116e-001,7.234865e-001,1.326332e+000,6.028457e-001,9.090909e-002,3.896104e-002,3.500000e+001,1.160000e+002,1.217866e+000,-3.244843e-004,1.255182e+000,8.994515e-002,1.204046e-002,1.118421e-001,8.706005e-001,4.649656e+000,1.131933e+000,1.212373e+000,1.281327e+000,8.043993e-002,6.895363e-002,1.493936e-001,1.027537e+000,1.588042e+000,5.605059e-001,1.731602e-002,8.658009e-003,4.800000e+001,1.440000e+002,1.521667e+000,-4.916077e-004,1.578202e+000,9.212881e-002,1.363370e-002,1.212781e-001,8.288845e-001,3.912243e+000,1.437321e+000,1.508877e+000,1.576699e+000,7.155550e-002,6.782210e-002,1.393776e-001,1.287570e+000,1.879564e+000,5.919939e-001,6.493507e-002,2.597403e-002,5.000000e+001,1.850000e+002,1.743979e+000,-7.054958e-005,1.752092e+000,1.354621e-001,2.543860e-002,1.595642e-001,3.156473e-001,2.154152e+000,1.615700e+000,1.714642e+000,1.891935e+000,9.894204e-002,1.772929e-001,2.762350e-001,1.476238e+000,2.110825e+000,6.345868e-001,7.359307e-002,3.463203e-002,4.800000e+001,1.400000e+002,2.167619e+000,-3.447165e-004,2.207261e+000,9.035242e-002,1.136796e-002,1.090704e-001,-3.756196e-001,2.586777e+000,2.086008e+000,2.191323e+000,2.251575e+000,1.053157e-001,6.025195e-002,1.655676e-001,1.893259e+000,2.354970e+000,4.617109e-001,3.506494e-001,7.792208e-002,2.150000e+002,1.150000e+002,2.302163e+000,-2.087001e-005,2.304564e+000,1.095263e-001,1.781387e-002,1.334759e-001,1.939614e-001,2.137293e+000,2.164372e+000,2.312744e+000,2.386346e+000,1.483712e-001,7.360268e-002,2.219739e-001,2.102148e+000,2.579204e+000,4.770558e-001,1.341991e-001,5.627706e-002,6.000000e+001,0.000000e+000,1.729859e+002,-1.552013e-001,1.908341e+002,5.902346e+000,1.292277e+002,1.537324e+001,-1.969310e+000,1.333464e+001,1.553625e+002,1.798970e+002,1.848996e+002,2.453453e+001,5.002579e+000,2.953711e+001,1.553625e+002,1.914539e+002,3.609142e+001,7.099567e-001,5.238096e-001,1.900000e+001,2.900000e+001,5.245847e-001,-5.444549e-004,5.871969e-001,2.497524e-001,8.071317e-002,2.864110e-001,-8.617492e-001,2.116304e+000,2.699024e-001,6.952834e-001,7.462680e-001,4.253810e-001,5.098462e-002,4.763656e-001,0.000000e+000,7.991971e-001,7.991971e-001,6.060606e-001,3.722944e-001,1.590000e+002,1.070000e+002,5.557910e-004,-2.075174e-005,2.942241e-003,4.832319e-002,4.824709e-003,6.947391e-002,2.741151e-001,4.141177e+000,-3.286856e-002,-7.096708e-004,3.013143e-002,3.215889e-002,3.084110e-002,6.299999e-002,-1.631612e-001,1.963747e-001,3.595359e-001,4.761905e-002,1.298701e-002,7.000000e+001,6.300000e+001,-1.029600e-001,7.731382e-004,-1.918709e-001,2.817650e+000,1.715371e+001,4.142025e+000,5.152475e-001,5.080825e+000,-2.229709e+000,-3.366058e-001,1.161549e+000,1.893103e+000,1.498154e+000,3.391257e+000,-1.138606e+001,1.255040e+001,2.393646e+001,4.329005e-002,1.731602e-002,3.700000e+001,3.200000e+001,-6.630016e-003,-7.685627e-004,8.175468e-002,1.767196e+000,8.057893e+000,2.839105e+000,8.007845e-001,1.034776e+001,-1.202103e+000,-4.557018e-002,1.125063e+000,1.156533e+000,1.170633e+000,2.327166e+000,-8.725358e+000,9.360002e+000,1.808536e+001,1.731602e-002,8.658009e-003,1.170000e+002,1.460000e+002,-6.187019e-002,-1.779029e-003,1.427182e-001,1.668986e+000,5.166150e+000,2.276011e+000,3.004614e-001,4.149642e+000,-1.273214e+000,-1.301892e-001,8.702444e-001,1.143025e+000,1.000434e+000,2.143458e+000,-5.386737e+000,6.393198e+000,1.177994e+001,6.493507e-002,2.164502e-002,2.500000e+001,4.700000e+001,-9.737577e-002,1.598557e-003,-2.812098e-001,1.853273e+000,5.636854e+000,2.376598e+000,4.102765e-002,3.127997e+000,-1.670207e+000,1.089282e-001,1.272216e+000,1.779135e+000,1.163288e+000,2.942423e+000,-5.559412e+000,5.200054e+000,1.075947e+001,7.359307e-002,8.658009e-003,8.000000e+000,9.900000e+001,-3.671925e-002,-2.330718e-003,2.313133e-001,1.805040e+000,6.303409e+000,2.515465e+000,5.578132e-003,4.329396e+000,-1.171750e+000,-1.056900e-002,1.265867e+000,1.161181e+000,1.276436e+000,2.437617e+000,-6.313666e+000,7.600998e+000,1.391466e+001,5.627706e-002,1.731602e-002,1.000000e+001,7.400000e+001,1.295433e-001,-1.913682e-003,3.496167e-001,2.501962e+000,1.187262e+001,3.448029e+000,-4.689025e-001,4.780477e+000,-1.591735e+000,1.689653e-001,1.846761e+000,1.760700e+000,1.677796e+000,3.438496e+000,-9.778585e+000,8.152231e+000,1.793082e+001,1.818182e-001,4.329005e-002,6.300000e+001,3.700000e+001,4.803463e-002,3.983489e-003,-4.100666e-001,1.748233e+000,5.429443e+000,2.345209e+000,2.379770e-001,4.134584e+000,-1.253402e+000,-1.140490e-001,1.056245e+000,1.139353e+000,1.170294e+000,2.309647e+000,-5.520883e+000,6.360293e+000,1.188118e+001,8.225108e-002,2.164502e-002,2.500000e+001,1.140000e+002,4.048263e-002,9.873871e-004,-7.306689e-002,2.020248e+000,6.912074e+000,2.629907e+000,2.867429e-001,3.298356e+000,-1.631720e+000,-6.372347e-002,1.376381e+000,1.567996e+000,1.440105e+000,3.008101e+000,-5.728336e+000,6.923147e+000,1.265148e+001,7.359307e-002,2.597403e-002,2.800000e+001,2.400000e+001,1.078950e-001,4.386178e-004,5.745398e-002,1.624128e+000,4.477766e+000,2.116275e+000,2.763497e-002,3.444749e+000,-1.124015e+000,1.733031e-002,1.366497e+000,1.141345e+000,1.349167e+000,2.490512e+000,-5.175229e+000,5.315722e+000,1.049095e+001,9.956710e-002,2.164502e-002,1.460000e+002,1.400000e+002,-3.299049e-002,-2.529072e-003,2.578527e-001,1.859840e+000,6.600540e+000,2.574681e+000,-2.942897e-002,4.412603e+000,-1.150280e+000,9.515691e-002,1.261217e+000,1.245437e+000,1.166060e+000,2.411497e+000,-6.660447e+000,6.457847e+000,1.311829e+001,4.761905e-002,8.658009e-003,6.400000e+001,3.300000e+001,5.445533e-002,2.550925e-003,-2.389010e-001,1.736978e+000,4.949237e+000,2.231182e+000,8.908156e-002,3.178300e+000,-1.364781e+000,3.650742e-002,1.413134e+000,1.401289e+000,1.376627e+000,2.777915e+000,-5.185629e+000,5.369414e+000,1.055504e+001,5.627706e-002,4.329004e-003,4.500000e+001,8.500000e+001,6.039296e-003,3.392010e-004,-3.296882e-002,1.593784e+000,4.438235e+000,2.106833e+000,-1.545951e-001,3.556662e+000,-1.163706e+000,-5.089264e-002,1.208126e+000,1.112813e+000,1.259018e+000,2.371832e+000,-5.273189e+000,4.705407e+000,9.978596e+000,1.125541e-001,1.298701e-002,2.030000e+002,1.830000e+002,8.509671e-002,-9.606309e-004,1.955693e-001,1.509032e+000,3.878007e+000,1.970307e+000,1.361359e-001,3.643374e+000,-1.188851e+000,2.486610e-001,1.229369e+000,1.437512e+000,9.807078e-001,2.418220e+000,-4.325876e+000,4.909971e+000,9.235847e+000,2.597403e-002,8.658009e-003,1.030000e+002,9.300000e+001,5.315492e-003,4.925588e-004,-5.132877e-002,1.336001e+000,3.097507e+000,1.760280e+000,-1.295662e-001,3.453236e+000,-1.030870e+000,5.806734e-002,1.084028e+000,1.088938e+000,1.025961e+000,2.114898e+000,-4.611062e+000,4.057106e+000,8.668168e+000,1.558442e-001,5.194805e-002,6.400000e+001,1.840000e+002,4.116150e-002,-8.700256e-005,5.116680e-002,1.533968e+000,4.214156e+000,2.052849e+000,-1.687690e-002,3.670624e+000,-9.689945e-001,1.460478e-001,1.199902e+000,1.115042e+000,1.053854e+000,2.168897e+000,-4.761838e+000,5.354258e+000,1.011610e+001,2.164502e-002,8.658009e-003,7.100000e+001,6.300000e+001,-2.305709e-002,-9.203217e-005,-1.247339e-002,3.573861e-001,3.341395e-001,5.780806e-001,3.464635e-001,5.391673e+000,-2.142240e-001,-3.055910e-002,8.792806e-002,1.836649e-001,1.184872e-001,3.021520e-001,-1.626416e+000,1.700621e+000,3.327037e+000,7.359307e-002,3.463203e-002,2.240000e+002,6.300000e+001,-1.828136e-002,5.350084e-006,-1.889662e-002,4.638509e-001,4.510798e-001,6.716248e-001,1.885321e-001,4.399947e+000,-3.430433e-001,-5.383730e-002,2.191361e-001,2.892060e-001,2.729734e-001,5.621794e-001,-1.927802e+000,1.768616e+000,3.696418e+000,8.658009e-002,3.463203e-002,7.000000e+001,6.300000e+001,-7.919746e-003,1.794893e-004,-2.856102e-002,4.713601e-001,4.559388e-001,6.753385e-001,3.221298e-001,4.524436e+000,-3.160790e-001,-6.203375e-002,2.261436e-001,2.540452e-001,2.881774e-001,5.422226e-001,-1.831822e+000,1.896870e+000,3.728692e+000,4.329005e-002,1.298701e-002,7.000000e+001,6.300000e+001,-6.086680e-003,1.795023e-005,-8.150957e-003,4.420999e-001,4.213858e-001,6.491435e-001,4.633170e-001,4.484622e+000,-2.621207e-001,-4.632749e-002,2.153558e-001,2.157932e-001,2.616833e-001,4.774765e-001,-1.671961e+000,1.761090e+000,3.433051e+000,5.627706e-002,8.658009e-003,7.000000e+001,6.300000e+001,-1.595582e-002,1.953924e-004,-3.842595e-002,4.392224e-001,4.047921e-001,6.363661e-001,2.248210e-001,4.493996e+000,-3.192428e-001,-4.149153e-002,1.908983e-001,2.777512e-001,2.323898e-001,5.101411e-001,-1.762732e+000,1.691369e+000,3.454101e+000,8.225108e-002,2.164502e-002,3.300000e+001,6.300000e+001,-1.932365e-002,3.862452e-004,-6.374184e-002,4.623539e-001,4.403838e-001,6.641139e-001,4.740717e-001,4.432832e+000,-3.604117e-001,-4.440893e-002,2.315398e-001,3.160028e-001,2.759487e-001,5.919515e-001,-1.754845e+000,1.869996e+000,3.624841e+000,6.493507e-002,2.164502e-002,3.200000e+001,6.300000e+001,-1.422943e-002,2.912150e-004,-4.771915e-002,4.635263e-001,4.614214e-001,6.795576e-001,8.200032e-001,5.109959e+000,-3.520376e-001,-5.299313e-002,2.047721e-001,2.990445e-001,2.577653e-001,5.568098e-001,-1.492642e+000,2.143063e+000,3.635705e+000,5.627706e-002,2.597403e-002,3.200000e+001,6.300000e+001,-1.092026e-002,3.801774e-005,-1.529230e-002,4.613790e-001,4.458565e-001,6.677297e-001,8.428251e-001,5.310563e+000,-3.649618e-001,-6.488278e-002,2.157695e-001,3.000790e-001,2.806522e-001,5.807313e-001,-1.600888e+000,2.215192e+000,3.816081e+000,5.194805e-002,2.164502e-002,7.000000e+001,2.600000e+001,-4.147496e-004,-2.387287e-006,-1.402116e-004,1.408375e-002,3.885125e-004,1.971136e-002,1.856549e-001,3.588399e+000,-1.055728e-002,-7.425129e-004,7.707585e-003,9.814768e-003,8.450097e-003,1.826487e-002,-4.910829e-002,4.714844e-002,9.625673e-002,9.090909e-002,2.597403e-002,3.300000e+001,3.800000e+001,6.013297e-004,1.049839e-005,-6.059855e-004,2.133352e-002,1.295581e-003,3.600099e-002,-4.677818e-001,1.013457e+001,-9.693231e-003,-9.369254e-005,1.260524e-002,9.599539e-003,1.269893e-002,2.229847e-002,-1.194393e-001,1.185757e-001,2.380151e-001,2.597403e-002,1.298701e-002,1.270000e+002,3.700000e+001,-1.013315e-003,2.939273e-005,-4.393479e-003,2.071654e-002,7.955421e-004,2.827338e-002,2.290798e-001,3.951672e+000,-1.785341e-002,-1.261520e-003,1.386792e-002,1.659189e-002,1.512944e-002,3.172133e-002,-6.825159e-002,7.689287e-002,1.451445e-001,5.194805e-002,1.731602e-002,3.200000e+001,3.700000e+001,-2.488399e-004,2.646083e-005,-3.291835e-003,1.879101e-002,7.462812e-004,2.737507e-002,-8.980772e-001,8.171131e+000,-1.339372e-002,2.370596e-004,1.300840e-002,1.363078e-002,1.277134e-002,2.640212e-002,-8.712543e-002,6.308596e-002,1.502114e-001,1.558442e-001,3.896104e-002,4.400000e+001,3.800000e+001,-1.589487e-004,3.503024e-006,-5.617965e-004,1.958520e-002,7.046209e-004,2.654572e-002,2.535215e-001,4.834466e+000,-1.417489e-002,-1.417065e-003,1.293937e-002,1.275783e-002,1.435644e-002,2.711426e-002,-6.531741e-002,7.106147e-002,1.363789e-001,3.463203e-002,8.658009e-003,4.400000e+001,5.600000e+001,5.294993e-004,3.740328e-006,9.936155e-005,2.205969e-002,9.641341e-004,3.105151e-002,2.319499e-001,4.430321e+000,-1.282331e-002,-2.927947e-003,1.339488e-002,9.895367e-003,1.632283e-002,2.621819e-002,-8.049744e-002,8.791827e-002,1.684157e-001,5.194805e-002,1.298701e-002,1.420000e+002,8.000000e+000,4.285929e-004,3.319506e-006,4.684972e-005,1.561830e-002,4.637527e-004,2.153606e-002,7.138722e-001,4.790812e+000,-1.203305e-002,-1.530242e-003,9.372104e-003,1.050280e-002,1.090235e-002,2.140515e-002,-4.785348e-002,6.384391e-002,1.116974e-001,4.329005e-002,8.658009e-003,1.400000e+002,1.260000e+002,3.608744e-004,-8.514665e-006,1.340061e-003,1.857601e-002,6.849673e-004,2.617804e-002,2.225222e-001,4.366497e+000,-1.009560e-002,-1.412654e-003,1.142571e-002,8.682942e-003,1.283836e-002,2.152131e-002,-6.521824e-002,7.585308e-002,1.410713e-001,5.194805e-002,1.298701e-002,1.000000e+000,1.490000e+002,3.541573e-001,-1.315638e-002,1.867141e+000,1.297703e+000,1.417605e+001,3.865971e+000,7.992197e+000,6.818879e+001,0.000000e+000,0.000000e+000,0.000000e+000,0.000000e+000,0.000000e+000,0.000000e+000,-2.450315e+000,2.523679e+001,2.768710e+001,1.298701e-002,4.329004e-003,2.230000e+002,2.600000e+001,5.245855e-004,-3.568640e-005,4.628521e-003,3.654275e-002,3.437376e-003,5.867741e-002,4.153174e-002,4.600071e+000,-1.416609e-002,-9.325206e-004,1.113017e-002,1.323357e-002,1.206269e-002,2.529626e-002,-1.578445e-001,1.610159e-001,3.188604e-001,9.523810e-002,2.164502e-002,2.000000e+001,7.500000e+001,1.411120e+002,2.186002e-001,1.329145e+002,3.558572e+001,1.896943e+003,4.381712e+001,-8.985784e-001,2.416737e+000,1.205151e+002,1.586645e+002,1.784750e+002,3.814932e+001,1.981053e+001,5.795985e+001,1.864539e+002,6.184211e-001,2.894737e-001,2.400000e+001,6.000000e+000,6.748652e-003,-5.255800e-005,8.693298e-003,4.892942e-003,4.736247e-005,6.975464e-003,1.896175e+000,5.484489e+000,2.578036e-003,4.322661e-003,6.373063e-003,1.744624e-003,2.050403e-003,3.795027e-003,2.878837e-002,6.666667e-002,4.000000e-002,1.800000e+001,3.300000e+001,4.729777e-003,-1.149733e-005,5.132184e-003,3.297442e-003,2.238948e-005,4.737616e-003,2.226144e+000,7.968427e+000,1.843468e-003,2.917932e-003,5.949909e-003,1.074465e-003,3.031977e-003,4.106442e-003,2.171489e-002,4.225352e-002,2.816901e-002,2.400000e+001,2.700000e+001,4.272470e-002,-3.259163e-004,5.494656e-002,2.236586e-002,1.364676e-003,3.762705e-002,2.798714e+000,1.150907e+001,2.542460e-002,3.320032e-002,4.383265e-002,7.775716e-003,1.063233e-002,1.840805e-002,2.033812e-001,3.947368e-002,2.631579e-002,2.600000e+001,3.000000e+001,-7.214820e-001,-7.876924e-002,3.256364e+000,2.155240e+001,7.541582e+002,2.755970e+001,5.956950e-004,2.256589e+000,-1.814128e+001,-3.121376e-001,1.309842e+001,1.782914e+001,1.341056e+001,3.123970e+001,4.892757e+001,2.352941e-001,8.823530e-002,3.500000e+001,3.800000e+001,-2.150555e-005,-4.616375e-006,2.093132e-004,1.903304e-003,8.596334e-006,2.935038e-003,2.139271e-001,4.852650e+000,-8.689357e-004,-2.121353e-004,8.827168e-004,6.568004e-004,1.094852e-003,1.751653e-003,8.191339e-003,8.910891e-002,2.970297e-002,2.500000e+001,2.900000e+001,-1.648278e-006,-4.180050e-006,2.010842e-004,1.227117e-003,3.856213e-006,1.967281e-003,5.620134e-002,6.634066e+000,-6.115829e-004,-1.577204e-004,6.143802e-004,4.538625e-004,7.721006e-004,1.225963e-003,6.181871e-003,5.102041e-002,2.040816e-002,3.500000e+001,3.800000e+001,-6.402309e-005,-3.294850e-005,1.599876e-003,1.044759e-002,2.678940e-004,1.639619e-002,1.268614e-001,7.850596e+000,-5.988550e-003,-1.746844e-003,5.393818e-003,4.241706e-003,7.140662e-003,1.138237e-002,5.833870e-002,3.921569e-002,1.960784e-002,7.000000e+000,2.330000e+000,0.0
