@relation SMILEfeatures

@attribute name string
@attribute pcm_loudness_sma_maxPos numeric
@attribute pcm_loudness_sma_minPos numeric
@attribute pcm_loudness_sma_amean numeric
@attribute pcm_loudness_sma_linregc1 numeric
@attribute pcm_loudness_sma_linregc2 numeric
@attribute pcm_loudness_sma_linregerrA numeric
@attribute pcm_loudness_sma_linregerrQ numeric
@attribute pcm_loudness_sma_stddev numeric
@attribute pcm_loudness_sma_skewness numeric
@attribute pcm_loudness_sma_kurtosis numeric
@attribute pcm_loudness_sma_quartile1 numeric
@attribute pcm_loudness_sma_quartile2 numeric
@attribute pcm_loudness_sma_quartile3 numeric
@attribute pcm_loudness_sma_iqr1-2 numeric
@attribute pcm_loudness_sma_iqr2-3 numeric
@attribute pcm_loudness_sma_iqr1-3 numeric
@attribute pcm_loudness_sma_percentile1.0 numeric
@attribute pcm_loudness_sma_percentile99.0 numeric
@attribute pcm_loudness_sma_pctlrange0-1 numeric
@attribute pcm_loudness_sma_upleveltime75 numeric
@attribute pcm_loudness_sma_upleveltime90 numeric
@attribute mfcc_sma[0]_maxPos numeric
@attribute mfcc_sma[0]_minPos numeric
@attribute mfcc_sma[0]_amean numeric
@attribute mfcc_sma[0]_linregc1 numeric
@attribute mfcc_sma[0]_linregc2 numeric
@attribute mfcc_sma[0]_linregerrA numeric
@attribute mfcc_sma[0]_linregerrQ numeric
@attribute mfcc_sma[0]_stddev numeric
@attribute mfcc_sma[0]_skewness numeric
@attribute mfcc_sma[0]_kurtosis numeric
@attribute mfcc_sma[0]_quartile1 numeric
@attribute mfcc_sma[0]_quartile2 numeric
@attribute mfcc_sma[0]_quartile3 numeric
@attribute mfcc_sma[0]_iqr1-2 numeric
@attribute mfcc_sma[0]_iqr2-3 numeric
@attribute mfcc_sma[0]_iqr1-3 numeric
@attribute mfcc_sma[0]_percentile1.0 numeric
@attribute mfcc_sma[0]_percentile99.0 numeric
@attribute mfcc_sma[0]_pctlrange0-1 numeric
@attribute mfcc_sma[0]_upleveltime75 numeric
@attribute mfcc_sma[0]_upleveltime90 numeric
@attribute mfcc_sma[1]_maxPos numeric
@attribute mfcc_sma[1]_minPos numeric
@attribute mfcc_sma[1]_amean numeric
@attribute mfcc_sma[1]_linregc1 numeric
@attribute mfcc_sma[1]_linregc2 numeric
@attribute mfcc_sma[1]_linregerrA numeric
@attribute mfcc_sma[1]_linregerrQ numeric
@attribute mfcc_sma[1]_stddev numeric
@attribute mfcc_sma[1]_skewness numeric
@attribute mfcc_sma[1]_kurtosis numeric
@attribute mfcc_sma[1]_quartile1 numeric
@attribute mfcc_sma[1]_quartile2 numeric
@attribute mfcc_sma[1]_quartile3 numeric
@attribute mfcc_sma[1]_iqr1-2 numeric
@attribute mfcc_sma[1]_iqr2-3 numeric
@attribute mfcc_sma[1]_iqr1-3 numeric
@attribute mfcc_sma[1]_percentile1.0 numeric
@attribute mfcc_sma[1]_percentile99.0 numeric
@attribute mfcc_sma[1]_pctlrange0-1 numeric
@attribute mfcc_sma[1]_upleveltime75 numeric
@attribute mfcc_sma[1]_upleveltime90 numeric
@attribute mfcc_sma[2]_maxPos numeric
@attribute mfcc_sma[2]_minPos numeric
@attribute mfcc_sma[2]_amean numeric
@attribute mfcc_sma[2]_linregc1 numeric
@attribute mfcc_sma[2]_linregc2 numeric
@attribute mfcc_sma[2]_linregerrA numeric
@attribute mfcc_sma[2]_linregerrQ numeric
@attribute mfcc_sma[2]_stddev numeric
@attribute mfcc_sma[2]_skewness numeric
@attribute mfcc_sma[2]_kurtosis numeric
@attribute mfcc_sma[2]_quartile1 numeric
@attribute mfcc_sma[2]_quartile2 numeric
@attribute mfcc_sma[2]_quartile3 numeric
@attribute mfcc_sma[2]_iqr1-2 numeric
@attribute mfcc_sma[2]_iqr2-3 numeric
@attribute mfcc_sma[2]_iqr1-3 numeric
@attribute mfcc_sma[2]_percentile1.0 numeric
@attribute mfcc_sma[2]_percentile99.0 numeric
@attribute mfcc_sma[2]_pctlrange0-1 numeric
@attribute mfcc_sma[2]_upleveltime75 numeric
@attribute mfcc_sma[2]_upleveltime90 numeric
@attribute mfcc_sma[3]_maxPos numeric
@attribute mfcc_sma[3]_minPos numeric
@attribute mfcc_sma[3]_amean numeric
@attribute mfcc_sma[3]_linregc1 numeric
@attribute mfcc_sma[3]_linregc2 numeric
@attribute mfcc_sma[3]_linregerrA numeric
@attribute mfcc_sma[3]_linregerrQ numeric
@attribute mfcc_sma[3]_stddev numeric
@attribute mfcc_sma[3]_skewness numeric
@attribute mfcc_sma[3]_kurtosis numeric
@attribute mfcc_sma[3]_quartile1 numeric
@attribute mfcc_sma[3]_quartile2 numeric
@attribute mfcc_sma[3]_quartile3 numeric
@attribute mfcc_sma[3]_iqr1-2 numeric
@attribute mfcc_sma[3]_iqr2-3 numeric
@attribute mfcc_sma[3]_iqr1-3 numeric
@attribute mfcc_sma[3]_percentile1.0 numeric
@attribute mfcc_sma[3]_percentile99.0 numeric
@attribute mfcc_sma[3]_pctlrange0-1 numeric
@attribute mfcc_sma[3]_upleveltime75 numeric
@attribute mfcc_sma[3]_upleveltime90 numeric
@attribute mfcc_sma[4]_maxPos numeric
@attribute mfcc_sma[4]_minPos numeric
@attribute mfcc_sma[4]_amean numeric
@attribute mfcc_sma[4]_linregc1 numeric
@attribute mfcc_sma[4]_linregc2 numeric
@attribute mfcc_sma[4]_linregerrA numeric
@attribute mfcc_sma[4]_linregerrQ numeric
@attribute mfcc_sma[4]_stddev numeric
@attribute mfcc_sma[4]_skewness numeric
@attribute mfcc_sma[4]_kurtosis numeric
@attribute mfcc_sma[4]_quartile1 numeric
@attribute mfcc_sma[4]_quartile2 numeric
@attribute mfcc_sma[4]_quartile3 numeric
@attribute mfcc_sma[4]_iqr1-2 numeric
@attribute mfcc_sma[4]_iqr2-3 numeric
@attribute mfcc_sma[4]_iqr1-3 numeric
@attribute mfcc_sma[4]_percentile1.0 numeric
@attribute mfcc_sma[4]_percentile99.0 numeric
@attribute mfcc_sma[4]_pctlrange0-1 numeric
@attribute mfcc_sma[4]_upleveltime75 numeric
@attribute mfcc_sma[4]_upleveltime90 numeric
@attribute mfcc_sma[5]_maxPos numeric
@attribute mfcc_sma[5]_minPos numeric
@attribute mfcc_sma[5]_amean numeric
@attribute mfcc_sma[5]_linregc1 numeric
@attribute mfcc_sma[5]_linregc2 numeric
@attribute mfcc_sma[5]_linregerrA numeric
@attribute mfcc_sma[5]_linregerrQ numeric
@attribute mfcc_sma[5]_stddev numeric
@attribute mfcc_sma[5]_skewness numeric
@attribute mfcc_sma[5]_kurtosis numeric
@attribute mfcc_sma[5]_quartile1 numeric
@attribute mfcc_sma[5]_quartile2 numeric
@attribute mfcc_sma[5]_quartile3 numeric
@attribute mfcc_sma[5]_iqr1-2 numeric
@attribute mfcc_sma[5]_iqr2-3 numeric
@attribute mfcc_sma[5]_iqr1-3 numeric
@attribute mfcc_sma[5]_percentile1.0 numeric
@attribute mfcc_sma[5]_percentile99.0 numeric
@attribute mfcc_sma[5]_pctlrange0-1 numeric
@attribute mfcc_sma[5]_upleveltime75 numeric
@attribute mfcc_sma[5]_upleveltime90 numeric
@attribute mfcc_sma[6]_maxPos numeric
@attribute mfcc_sma[6]_minPos numeric
@attribute mfcc_sma[6]_amean numeric
@attribute mfcc_sma[6]_linregc1 numeric
@attribute mfcc_sma[6]_linregc2 numeric
@attribute mfcc_sma[6]_linregerrA numeric
@attribute mfcc_sma[6]_linregerrQ numeric
@attribute mfcc_sma[6]_stddev numeric
@attribute mfcc_sma[6]_skewness numeric
@attribute mfcc_sma[6]_kurtosis numeric
@attribute mfcc_sma[6]_quartile1 numeric
@attribute mfcc_sma[6]_quartile2 numeric
@attribute mfcc_sma[6]_quartile3 numeric
@attribute mfcc_sma[6]_iqr1-2 numeric
@attribute mfcc_sma[6]_iqr2-3 numeric
@attribute mfcc_sma[6]_iqr1-3 numeric
@attribute mfcc_sma[6]_percentile1.0 numeric
@attribute mfcc_sma[6]_percentile99.0 numeric
@attribute mfcc_sma[6]_pctlrange0-1 numeric
@attribute mfcc_sma[6]_upleveltime75 numeric
@attribute mfcc_sma[6]_upleveltime90 numeric
@attribute mfcc_sma[7]_maxPos numeric
@attribute mfcc_sma[7]_minPos numeric
@attribute mfcc_sma[7]_amean numeric
@attribute mfcc_sma[7]_linregc1 numeric
@attribute mfcc_sma[7]_linregc2 numeric
@attribute mfcc_sma[7]_linregerrA numeric
@attribute mfcc_sma[7]_linregerrQ numeric
@attribute mfcc_sma[7]_stddev numeric
@attribute mfcc_sma[7]_skewness numeric
@attribute mfcc_sma[7]_kurtosis numeric
@attribute mfcc_sma[7]_quartile1 numeric
@attribute mfcc_sma[7]_quartile2 numeric
@attribute mfcc_sma[7]_quartile3 numeric
@attribute mfcc_sma[7]_iqr1-2 numeric
@attribute mfcc_sma[7]_iqr2-3 numeric
@attribute mfcc_sma[7]_iqr1-3 numeric
@attribute mfcc_sma[7]_percentile1.0 numeric
@attribute mfcc_sma[7]_percentile99.0 numeric
@attribute mfcc_sma[7]_pctlrange0-1 numeric
@attribute mfcc_sma[7]_upleveltime75 numeric
@attribute mfcc_sma[7]_upleveltime90 numeric
@attribute mfcc_sma[8]_maxPos numeric
@attribute mfcc_sma[8]_minPos numeric
@attribute mfcc_sma[8]_amean numeric
@attribute mfcc_sma[8]_linregc1 numeric
@attribute mfcc_sma[8]_linregc2 numeric
@attribute mfcc_sma[8]_linregerrA numeric
@attribute mfcc_sma[8]_linregerrQ numeric
@attribute mfcc_sma[8]_stddev numeric
@attribute mfcc_sma[8]_skewness numeric
@attribute mfcc_sma[8]_kurtosis numeric
@attribute mfcc_sma[8]_quartile1 numeric
@attribute mfcc_sma[8]_quartile2 numeric
@attribute mfcc_sma[8]_quartile3 numeric
@attribute mfcc_sma[8]_iqr1-2 numeric
@attribute mfcc_sma[8]_iqr2-3 numeric
@attribute mfcc_sma[8]_iqr1-3 numeric
@attribute mfcc_sma[8]_percentile1.0 numeric
@attribute mfcc_sma[8]_percentile99.0 numeric
@attribute mfcc_sma[8]_pctlrange0-1 numeric
@attribute mfcc_sma[8]_upleveltime75 numeric
@attribute mfcc_sma[8]_upleveltime90 numeric
@attribute mfcc_sma[9]_maxPos numeric
@attribute mfcc_sma[9]_minPos numeric
@attribute mfcc_sma[9]_amean numeric
@attribute mfcc_sma[9]_linregc1 numeric
@attribute mfcc_sma[9]_linregc2 numeric
@attribute mfcc_sma[9]_linregerrA numeric
@attribute mfcc_sma[9]_linregerrQ numeric
@attribute mfcc_sma[9]_stddev numeric
@attribute mfcc_sma[9]_skewness numeric
@attribute mfcc_sma[9]_kurtosis numeric
@attribute mfcc_sma[9]_quartile1 numeric
@attribute mfcc_sma[9]_quartile2 numeric
@attribute mfcc_sma[9]_quartile3 numeric
@attribute mfcc_sma[9]_iqr1-2 numeric
@attribute mfcc_sma[9]_iqr2-3 numeric
@attribute mfcc_sma[9]_iqr1-3 numeric
@attribute mfcc_sma[9]_percentile1.0 numeric
@attribute mfcc_sma[9]_percentile99.0 numeric
@attribute mfcc_sma[9]_pctlrange0-1 numeric
@attribute mfcc_sma[9]_upleveltime75 numeric
@attribute mfcc_sma[9]_upleveltime90 numeric
@attribute mfcc_sma[10]_maxPos numeric
@attribute mfcc_sma[10]_minPos numeric
@attribute mfcc_sma[10]_amean numeric
@attribute mfcc_sma[10]_linregc1 numeric
@attribute mfcc_sma[10]_linregc2 numeric
@attribute mfcc_sma[10]_linregerrA numeric
@attribute mfcc_sma[10]_linregerrQ numeric
@attribute mfcc_sma[10]_stddev numeric
@attribute mfcc_sma[10]_skewness numeric
@attribute mfcc_sma[10]_kurtosis numeric
@attribute mfcc_sma[10]_quartile1 numeric
@attribute mfcc_sma[10]_quartile2 numeric
@attribute mfcc_sma[10]_quartile3 numeric
@attribute mfcc_sma[10]_iqr1-2 numeric
@attribute mfcc_sma[10]_iqr2-3 numeric
@attribute mfcc_sma[10]_iqr1-3 numeric
@attribute mfcc_sma[10]_percentile1.0 numeric
@attribute mfcc_sma[10]_percentile99.0 numeric
@attribute mfcc_sma[10]_pctlrange0-1 numeric
@attribute mfcc_sma[10]_upleveltime75 numeric
@attribute mfcc_sma[10]_upleveltime90 numeric
@attribute mfcc_sma[11]_maxPos numeric
@attribute mfcc_sma[11]_minPos numeric
@attribute mfcc_sma[11]_amean numeric
@attribute mfcc_sma[11]_linregc1 numeric
@attribute mfcc_sma[11]_linregc2 numeric
@attribute mfcc_sma[11]_linregerrA numeric
@attribute mfcc_sma[11]_linregerrQ numeric
@attribute mfcc_sma[11]_stddev numeric
@attribute mfcc_sma[11]_skewness numeric
@attribute mfcc_sma[11]_kurtosis numeric
@attribute mfcc_sma[11]_quartile1 numeric
@attribute mfcc_sma[11]_quartile2 numeric
@attribute mfcc_sma[11]_quartile3 numeric
@attribute mfcc_sma[11]_iqr1-2 numeric
@attribute mfcc_sma[11]_iqr2-3 numeric
@attribute mfcc_sma[11]_iqr1-3 numeric
@attribute mfcc_sma[11]_percentile1.0 numeric
@attribute mfcc_sma[11]_percentile99.0 numeric
@attribute mfcc_sma[11]_pctlrange0-1 numeric
@attribute mfcc_sma[11]_upleveltime75 numeric
@attribute mfcc_sma[11]_upleveltime90 numeric
@attribute mfcc_sma[12]_maxPos numeric
@attribute mfcc_sma[12]_minPos numeric
@attribute mfcc_sma[12]_amean numeric
@attribute mfcc_sma[12]_linregc1 numeric
@attribute mfcc_sma[12]_linregc2 numeric
@attribute mfcc_sma[12]_linregerrA numeric
@attribute mfcc_sma[12]_linregerrQ numeric
@attribute mfcc_sma[12]_stddev numeric
@attribute mfcc_sma[12]_skewness numeric
@attribute mfcc_sma[12]_kurtosis numeric
@attribute mfcc_sma[12]_quartile1 numeric
@attribute mfcc_sma[12]_quartile2 numeric
@attribute mfcc_sma[12]_quartile3 numeric
@attribute mfcc_sma[12]_iqr1-2 numeric
@attribute mfcc_sma[12]_iqr2-3 numeric
@attribute mfcc_sma[12]_iqr1-3 numeric
@attribute mfcc_sma[12]_percentile1.0 numeric
@attribute mfcc_sma[12]_percentile99.0 numeric
@attribute mfcc_sma[12]_pctlrange0-1 numeric
@attribute mfcc_sma[12]_upleveltime75 numeric
@attribute mfcc_sma[12]_upleveltime90 numeric
@attribute mfcc_sma[13]_maxPos numeric
@attribute mfcc_sma[13]_minPos numeric
@attribute mfcc_sma[13]_amean numeric
@attribute mfcc_sma[13]_linregc1 numeric
@attribute mfcc_sma[13]_linregc2 numeric
@attribute mfcc_sma[13]_linregerrA numeric
@attribute mfcc_sma[13]_linregerrQ numeric
@attribute mfcc_sma[13]_stddev numeric
@attribute mfcc_sma[13]_skewness numeric
@attribute mfcc_sma[13]_kurtosis numeric
@attribute mfcc_sma[13]_quartile1 numeric
@attribute mfcc_sma[13]_quartile2 numeric
@attribute mfcc_sma[13]_quartile3 numeric
@attribute mfcc_sma[13]_iqr1-2 numeric
@attribute mfcc_sma[13]_iqr2-3 numeric
@attribute mfcc_sma[13]_iqr1-3 numeric
@attribute mfcc_sma[13]_percentile1.0 numeric
@attribute mfcc_sma[13]_percentile99.0 numeric
@attribute mfcc_sma[13]_pctlrange0-1 numeric
@attribute mfcc_sma[13]_upleveltime75 numeric
@attribute mfcc_sma[13]_upleveltime90 numeric
@attribute mfcc_sma[14]_maxPos numeric
@attribute mfcc_sma[14]_minPos numeric
@attribute mfcc_sma[14]_amean numeric
@attribute mfcc_sma[14]_linregc1 numeric
@attribute mfcc_sma[14]_linregc2 numeric
@attribute mfcc_sma[14]_linregerrA numeric
@attribute mfcc_sma[14]_linregerrQ numeric
@attribute mfcc_sma[14]_stddev numeric
@attribute mfcc_sma[14]_skewness numeric
@attribute mfcc_sma[14]_kurtosis numeric
@attribute mfcc_sma[14]_quartile1 numeric
@attribute mfcc_sma[14]_quartile2 numeric
@attribute mfcc_sma[14]_quartile3 numeric
@attribute mfcc_sma[14]_iqr1-2 numeric
@attribute mfcc_sma[14]_iqr2-3 numeric
@attribute mfcc_sma[14]_iqr1-3 numeric
@attribute mfcc_sma[14]_percentile1.0 numeric
@attribute mfcc_sma[14]_percentile99.0 numeric
@attribute mfcc_sma[14]_pctlrange0-1 numeric
@attribute mfcc_sma[14]_upleveltime75 numeric
@attribute mfcc_sma[14]_upleveltime90 numeric
@attribute logMelFreqBand_sma[0]_maxPos numeric
@attribute logMelFreqBand_sma[0]_minPos numeric
@attribute logMelFreqBand_sma[0]_amean numeric
@attribute logMelFreqBand_sma[0]_linregc1 numeric
@attribute logMelFreqBand_sma[0]_linregc2 numeric
@attribute logMelFreqBand_sma[0]_linregerrA numeric
@attribute logMelFreqBand_sma[0]_linregerrQ numeric
@attribute logMelFreqBand_sma[0]_stddev numeric
@attribute logMelFreqBand_sma[0]_skewness numeric
@attribute logMelFreqBand_sma[0]_kurtosis numeric
@attribute logMelFreqBand_sma[0]_quartile1 numeric
@attribute logMelFreqBand_sma[0]_quartile2 numeric
@attribute logMelFreqBand_sma[0]_quartile3 numeric
@attribute logMelFreqBand_sma[0]_iqr1-2 numeric
@attribute logMelFreqBand_sma[0]_iqr2-3 numeric
@attribute logMelFreqBand_sma[0]_iqr1-3 numeric
@attribute logMelFreqBand_sma[0]_percentile1.0 numeric
@attribute logMelFreqBand_sma[0]_percentile99.0 numeric
@attribute logMelFreqBand_sma[0]_pctlrange0-1 numeric
@attribute logMelFreqBand_sma[0]_upleveltime75 numeric
@attribute logMelFreqBand_sma[0]_upleveltime90 numeric
@attribute logMelFreqBand_sma[1]_maxPos numeric
@attribute logMelFreqBand_sma[1]_minPos numeric
@attribute logMelFreqBand_sma[1]_amean numeric
@attribute logMelFreqBand_sma[1]_linregc1 numeric
@attribute logMelFreqBand_sma[1]_linregc2 numeric
@attribute logMelFreqBand_sma[1]_linregerrA numeric
@attribute logMelFreqBand_sma[1]_linregerrQ numeric
@attribute logMelFreqBand_sma[1]_stddev numeric
@attribute logMelFreqBand_sma[1]_skewness numeric
@attribute logMelFreqBand_sma[1]_kurtosis numeric
@attribute logMelFreqBand_sma[1]_quartile1 numeric
@attribute logMelFreqBand_sma[1]_quartile2 numeric
@attribute logMelFreqBand_sma[1]_quartile3 numeric
@attribute logMelFreqBand_sma[1]_iqr1-2 numeric
@attribute logMelFreqBand_sma[1]_iqr2-3 numeric
@attribute logMelFreqBand_sma[1]_iqr1-3 numeric
@attribute logMelFreqBand_sma[1]_percentile1.0 numeric
@attribute logMelFreqBand_sma[1]_percentile99.0 numeric
@attribute logMelFreqBand_sma[1]_pctlrange0-1 numeric
@attribute logMelFreqBand_sma[1]_upleveltime75 numeric
@attribute logMelFreqBand_sma[1]_upleveltime90 numeric
@attribute logMelFreqBand_sma[2]_maxPos numeric
@attribute logMelFreqBand_sma[2]_minPos numeric
@attribute logMelFreqBand_sma[2]_amean numeric
@attribute logMelFreqBand_sma[2]_linregc1 numeric
@attribute logMelFreqBand_sma[2]_linregc2 numeric
@attribute logMelFreqBand_sma[2]_linregerrA numeric
@attribute logMelFreqBand_sma[2]_linregerrQ numeric
@attribute logMelFreqBand_sma[2]_stddev numeric
@attribute logMelFreqBand_sma[2]_skewness numeric
@attribute logMelFreqBand_sma[2]_kurtosis numeric
@attribute logMelFreqBand_sma[2]_quartile1 numeric
@attribute logMelFreqBand_sma[2]_quartile2 numeric
@attribute logMelFreqBand_sma[2]_quartile3 numeric
@attribute logMelFreqBand_sma[2]_iqr1-2 numeric
@attribute logMelFreqBand_sma[2]_iqr2-3 numeric
@attribute logMelFreqBand_sma[2]_iqr1-3 numeric
@attribute logMelFreqBand_sma[2]_percentile1.0 numeric
@attribute logMelFreqBand_sma[2]_percentile99.0 numeric
@attribute logMelFreqBand_sma[2]_pctlrange0-1 numeric
@attribute logMelFreqBand_sma[2]_upleveltime75 numeric
@attribute logMelFreqBand_sma[2]_upleveltime90 numeric
@attribute logMelFreqBand_sma[3]_maxPos numeric
@attribute logMelFreqBand_sma[3]_minPos numeric
@attribute logMelFreqBand_sma[3]_amean numeric
@attribute logMelFreqBand_sma[3]_linregc1 numeric
@attribute logMelFreqBand_sma[3]_linregc2 numeric
@attribute logMelFreqBand_sma[3]_linregerrA numeric
@attribute logMelFreqBand_sma[3]_linregerrQ numeric
@attribute logMelFreqBand_sma[3]_stddev numeric
@attribute logMelFreqBand_sma[3]_skewness numeric
@attribute logMelFreqBand_sma[3]_kurtosis numeric
@attribute logMelFreqBand_sma[3]_quartile1 numeric
@attribute logMelFreqBand_sma[3]_quartile2 numeric
@attribute logMelFreqBand_sma[3]_quartile3 numeric
@attribute logMelFreqBand_sma[3]_iqr1-2 numeric
@attribute logMelFreqBand_sma[3]_iqr2-3 numeric
@attribute logMelFreqBand_sma[3]_iqr1-3 numeric
@attribute logMelFreqBand_sma[3]_percentile1.0 numeric
@attribute logMelFreqBand_sma[3]_percentile99.0 numeric
@attribute logMelFreqBand_sma[3]_pctlrange0-1 numeric
@attribute logMelFreqBand_sma[3]_upleveltime75 numeric
@attribute logMelFreqBand_sma[3]_upleveltime90 numeric
@attribute logMelFreqBand_sma[4]_maxPos numeric
@attribute logMelFreqBand_sma[4]_minPos numeric
@attribute logMelFreqBand_sma[4]_amean numeric
@attribute logMelFreqBand_sma[4]_linregc1 numeric
@attribute logMelFreqBand_sma[4]_linregc2 numeric
@attribute logMelFreqBand_sma[4]_linregerrA numeric
@attribute logMelFreqBand_sma[4]_linregerrQ numeric
@attribute logMelFreqBand_sma[4]_stddev numeric
@attribute logMelFreqBand_sma[4]_skewness numeric
@attribute logMelFreqBand_sma[4]_kurtosis numeric
@attribute logMelFreqBand_sma[4]_quartile1 numeric
@attribute logMelFreqBand_sma[4]_quartile2 numeric
@attribute logMelFreqBand_sma[4]_quartile3 numeric
@attribute logMelFreqBand_sma[4]_iqr1-2 numeric
@attribute logMelFreqBand_sma[4]_iqr2-3 numeric
@attribute logMelFreqBand_sma[4]_iqr1-3 numeric
@attribute logMelFreqBand_sma[4]_percentile1.0 numeric
@attribute logMelFreqBand_sma[4]_percentile99.0 numeric
@attribute logMelFreqBand_sma[4]_pctlrange0-1 numeric
@attribute logMelFreqBand_sma[4]_upleveltime75 numeric
@attribute logMelFreqBand_sma[4]_upleveltime90 numeric
@attribute logMelFreqBand_sma[5]_maxPos numeric
@attribute logMelFreqBand_sma[5]_minPos numeric
@attribute logMelFreqBand_sma[5]_amean numeric
@attribute logMelFreqBand_sma[5]_linregc1 numeric
@attribute logMelFreqBand_sma[5]_linregc2 numeric
@attribute logMelFreqBand_sma[5]_linregerrA numeric
@attribute logMelFreqBand_sma[5]_linregerrQ numeric
@attribute logMelFreqBand_sma[5]_stddev numeric
@attribute logMelFreqBand_sma[5]_skewness numeric
@attribute logMelFreqBand_sma[5]_kurtosis numeric
@attribute logMelFreqBand_sma[5]_quartile1 numeric
@attribute logMelFreqBand_sma[5]_quartile2 numeric
@attribute logMelFreqBand_sma[5]_quartile3 numeric
@attribute logMelFreqBand_sma[5]_iqr1-2 numeric
@attribute logMelFreqBand_sma[5]_iqr2-3 numeric
@attribute logMelFreqBand_sma[5]_iqr1-3 numeric
@attribute logMelFreqBand_sma[5]_percentile1.0 numeric
@attribute logMelFreqBand_sma[5]_percentile99.0 numeric
@attribute logMelFreqBand_sma[5]_pctlrange0-1 numeric
@attribute logMelFreqBand_sma[5]_upleveltime75 numeric
@attribute logMelFreqBand_sma[5]_upleveltime90 numeric
@attribute logMelFreqBand_sma[6]_maxPos numeric
@attribute logMelFreqBand_sma[6]_minPos numeric
@attribute logMelFreqBand_sma[6]_amean numeric
@attribute logMelFreqBand_sma[6]_linregc1 numeric
@attribute logMelFreqBand_sma[6]_linregc2 numeric
@attribute logMelFreqBand_sma[6]_linregerrA numeric
@attribute logMelFreqBand_sma[6]_linregerrQ numeric
@attribute logMelFreqBand_sma[6]_stddev numeric
@attribute logMelFreqBand_sma[6]_skewness numeric
@attribute logMelFreqBand_sma[6]_kurtosis numeric
@attribute logMelFreqBand_sma[6]_quartile1 numeric
@attribute logMelFreqBand_sma[6]_quartile2 numeric
@attribute logMelFreqBand_sma[6]_quartile3 numeric
@attribute logMelFreqBand_sma[6]_iqr1-2 numeric
@attribute logMelFreqBand_sma[6]_iqr2-3 numeric
@attribute logMelFreqBand_sma[6]_iqr1-3 numeric
@attribute logMelFreqBand_sma[6]_percentile1.0 numeric
@attribute logMelFreqBand_sma[6]_percentile99.0 numeric
@attribute logMelFreqBand_sma[6]_pctlrange0-1 numeric
@attribute logMelFreqBand_sma[6]_upleveltime75 numeric
@attribute logMelFreqBand_sma[6]_upleveltime90 numeric
@attribute logMelFreqBand_sma[7]_maxPos numeric
@attribute logMelFreqBand_sma[7]_minPos numeric
@attribute logMelFreqBand_sma[7]_amean numeric
@attribute logMelFreqBand_sma[7]_linregc1 numeric
@attribute logMelFreqBand_sma[7]_linregc2 numeric
@attribute logMelFreqBand_sma[7]_linregerrA numeric
@attribute logMelFreqBand_sma[7]_linregerrQ numeric
@attribute logMelFreqBand_sma[7]_stddev numeric
@attribute logMelFreqBand_sma[7]_skewness numeric
@attribute logMelFreqBand_sma[7]_kurtosis numeric
@attribute logMelFreqBand_sma[7]_quartile1 numeric
@attribute logMelFreqBand_sma[7]_quartile2 numeric
@attribute logMelFreqBand_sma[7]_quartile3 numeric
@attribute logMelFreqBand_sma[7]_iqr1-2 numeric
@attribute logMelFreqBand_sma[7]_iqr2-3 numeric
@attribute logMelFreqBand_sma[7]_iqr1-3 numeric
@attribute logMelFreqBand_sma[7]_percentile1.0 numeric
@attribute logMelFreqBand_sma[7]_percentile99.0 numeric
@attribute logMelFreqBand_sma[7]_pctlrange0-1 numeric
@attribute logMelFreqBand_sma[7]_upleveltime75 numeric
@attribute logMelFreqBand_sma[7]_upleveltime90 numeric
@attribute lspFreq_sma[0]_maxPos numeric
@attribute lspFreq_sma[0]_minPos numeric
@attribute lspFreq_sma[0]_amean numeric
@attribute lspFreq_sma[0]_linregc1 numeric
@attribute lspFreq_sma[0]_linregc2 numeric
@attribute lspFreq_sma[0]_linregerrA numeric
@attribute lspFreq_sma[0]_linregerrQ numeric
@attribute lspFreq_sma[0]_stddev numeric
@attribute lspFreq_sma[0]_skewness numeric
@attribute lspFreq_sma[0]_kurtosis numeric
@attribute lspFreq_sma[0]_quartile1 numeric
@attribute lspFreq_sma[0]_quartile2 numeric
@attribute lspFreq_sma[0]_quartile3 numeric
@attribute lspFreq_sma[0]_iqr1-2 numeric
@attribute lspFreq_sma[0]_iqr2-3 numeric
@attribute lspFreq_sma[0]_iqr1-3 numeric
@attribute lspFreq_sma[0]_percentile1.0 numeric
@attribute lspFreq_sma[0]_percentile99.0 numeric
@attribute lspFreq_sma[0]_pctlrange0-1 numeric
@attribute lspFreq_sma[0]_upleveltime75 numeric
@attribute lspFreq_sma[0]_upleveltime90 numeric
@attribute lspFreq_sma[1]_maxPos numeric
@attribute lspFreq_sma[1]_minPos numeric
@attribute lspFreq_sma[1]_amean numeric
@attribute lspFreq_sma[1]_linregc1 numeric
@attribute lspFreq_sma[1]_linregc2 numeric
@attribute lspFreq_sma[1]_linregerrA numeric
@attribute lspFreq_sma[1]_linregerrQ numeric
@attribute lspFreq_sma[1]_stddev numeric
@attribute lspFreq_sma[1]_skewness numeric
@attribute lspFreq_sma[1]_kurtosis numeric
@attribute lspFreq_sma[1]_quartile1 numeric
@attribute lspFreq_sma[1]_quartile2 numeric
@attribute lspFreq_sma[1]_quartile3 numeric
@attribute lspFreq_sma[1]_iqr1-2 numeric
@attribute lspFreq_sma[1]_iqr2-3 numeric
@attribute lspFreq_sma[1]_iqr1-3 numeric
@attribute lspFreq_sma[1]_percentile1.0 numeric
@attribute lspFreq_sma[1]_percentile99.0 numeric
@attribute lspFreq_sma[1]_pctlrange0-1 numeric
@attribute lspFreq_sma[1]_upleveltime75 numeric
@attribute lspFreq_sma[1]_upleveltime90 numeric
@attribute lspFreq_sma[2]_maxPos numeric
@attribute lspFreq_sma[2]_minPos numeric
@attribute lspFreq_sma[2]_amean numeric
@attribute lspFreq_sma[2]_linregc1 numeric
@attribute lspFreq_sma[2]_linregc2 numeric
@attribute lspFreq_sma[2]_linregerrA numeric
@attribute lspFreq_sma[2]_linregerrQ numeric
@attribute lspFreq_sma[2]_stddev numeric
@attribute lspFreq_sma[2]_skewness numeric
@attribute lspFreq_sma[2]_kurtosis numeric
@attribute lspFreq_sma[2]_quartile1 numeric
@attribute lspFreq_sma[2]_quartile2 numeric
@attribute lspFreq_sma[2]_quartile3 numeric
@attribute lspFreq_sma[2]_iqr1-2 numeric
@attribute lspFreq_sma[2]_iqr2-3 numeric
@attribute lspFreq_sma[2]_iqr1-3 numeric
@attribute lspFreq_sma[2]_percentile1.0 numeric
@attribute lspFreq_sma[2]_percentile99.0 numeric
@attribute lspFreq_sma[2]_pctlrange0-1 numeric
@attribute lspFreq_sma[2]_upleveltime75 numeric
@attribute lspFreq_sma[2]_upleveltime90 numeric
@attribute lspFreq_sma[3]_maxPos numeric
@attribute lspFreq_sma[3]_minPos numeric
@attribute lspFreq_sma[3]_amean numeric
@attribute lspFreq_sma[3]_linregc1 numeric
@attribute lspFreq_sma[3]_linregc2 numeric
@attribute lspFreq_sma[3]_linregerrA numeric
@attribute lspFreq_sma[3]_linregerrQ numeric
@attribute lspFreq_sma[3]_stddev numeric
@attribute lspFreq_sma[3]_skewness numeric
@attribute lspFreq_sma[3]_kurtosis numeric
@attribute lspFreq_sma[3]_quartile1 numeric
@attribute lspFreq_sma[3]_quartile2 numeric
@attribute lspFreq_sma[3]_quartile3 numeric
@attribute lspFreq_sma[3]_iqr1-2 numeric
@attribute lspFreq_sma[3]_iqr2-3 numeric
@attribute lspFreq_sma[3]_iqr1-3 numeric
@attribute lspFreq_sma[3]_percentile1.0 numeric
@attribute lspFreq_sma[3]_percentile99.0 numeric
@attribute lspFreq_sma[3]_pctlrange0-1 numeric
@attribute lspFreq_sma[3]_upleveltime75 numeric
@attribute lspFreq_sma[3]_upleveltime90 numeric
@attribute lspFreq_sma[4]_maxPos numeric
@attribute lspFreq_sma[4]_minPos numeric
@attribute lspFreq_sma[4]_amean numeric
@attribute lspFreq_sma[4]_linregc1 numeric
@attribute lspFreq_sma[4]_linregc2 numeric
@attribute lspFreq_sma[4]_linregerrA numeric
@attribute lspFreq_sma[4]_linregerrQ numeric
@attribute lspFreq_sma[4]_stddev numeric
@attribute lspFreq_sma[4]_skewness numeric
@attribute lspFreq_sma[4]_kurtosis numeric
@attribute lspFreq_sma[4]_quartile1 numeric
@attribute lspFreq_sma[4]_quartile2 numeric
@attribute lspFreq_sma[4]_quartile3 numeric
@attribute lspFreq_sma[4]_iqr1-2 numeric
@attribute lspFreq_sma[4]_iqr2-3 numeric
@attribute lspFreq_sma[4]_iqr1-3 numeric
@attribute lspFreq_sma[4]_percentile1.0 numeric
@attribute lspFreq_sma[4]_percentile99.0 numeric
@attribute lspFreq_sma[4]_pctlrange0-1 numeric
@attribute lspFreq_sma[4]_upleveltime75 numeric
@attribute lspFreq_sma[4]_upleveltime90 numeric
@attribute lspFreq_sma[5]_maxPos numeric
@attribute lspFreq_sma[5]_minPos numeric
@attribute lspFreq_sma[5]_amean numeric
@attribute lspFreq_sma[5]_linregc1 numeric
@attribute lspFreq_sma[5]_linregc2 numeric
@attribute lspFreq_sma[5]_linregerrA numeric
@attribute lspFreq_sma[5]_linregerrQ numeric
@attribute lspFreq_sma[5]_stddev numeric
@attribute lspFreq_sma[5]_skewness numeric
@attribute lspFreq_sma[5]_kurtosis numeric
@attribute lspFreq_sma[5]_quartile1 numeric
@attribute lspFreq_sma[5]_quartile2 numeric
@attribute lspFreq_sma[5]_quartile3 numeric
@attribute lspFreq_sma[5]_iqr1-2 numeric
@attribute lspFreq_sma[5]_iqr2-3 numeric
@attribute lspFreq_sma[5]_iqr1-3 numeric
@attribute lspFreq_sma[5]_percentile1.0 numeric
@attribute lspFreq_sma[5]_percentile99.0 numeric
@attribute lspFreq_sma[5]_pctlrange0-1 numeric
@attribute lspFreq_sma[5]_upleveltime75 numeric
@attribute lspFreq_sma[5]_upleveltime90 numeric
@attribute lspFreq_sma[6]_maxPos numeric
@attribute lspFreq_sma[6]_minPos numeric
@attribute lspFreq_sma[6]_amean numeric
@attribute lspFreq_sma[6]_linregc1 numeric
@attribute lspFreq_sma[6]_linregc2 numeric
@attribute lspFreq_sma[6]_linregerrA numeric
@attribute lspFreq_sma[6]_linregerrQ numeric
@attribute lspFreq_sma[6]_stddev numeric
@attribute lspFreq_sma[6]_skewness numeric
@attribute lspFreq_sma[6]_kurtosis numeric
@attribute lspFreq_sma[6]_quartile1 numeric
@attribute lspFreq_sma[6]_quartile2 numeric
@attribute lspFreq_sma[6]_quartile3 numeric
@attribute lspFreq_sma[6]_iqr1-2 numeric
@attribute lspFreq_sma[6]_iqr2-3 numeric
@attribute lspFreq_sma[6]_iqr1-3 numeric
@attribute lspFreq_sma[6]_percentile1.0 numeric
@attribute lspFreq_sma[6]_percentile99.0 numeric
@attribute lspFreq_sma[6]_pctlrange0-1 numeric
@attribute lspFreq_sma[6]_upleveltime75 numeric
@attribute lspFreq_sma[6]_upleveltime90 numeric
@attribute lspFreq_sma[7]_maxPos numeric
@attribute lspFreq_sma[7]_minPos numeric
@attribute lspFreq_sma[7]_amean numeric
@attribute lspFreq_sma[7]_linregc1 numeric
@attribute lspFreq_sma[7]_linregc2 numeric
@attribute lspFreq_sma[7]_linregerrA numeric
@attribute lspFreq_sma[7]_linregerrQ numeric
@attribute lspFreq_sma[7]_stddev numeric
@attribute lspFreq_sma[7]_skewness numeric
@attribute lspFreq_sma[7]_kurtosis numeric
@attribute lspFreq_sma[7]_quartile1 numeric
@attribute lspFreq_sma[7]_quartile2 numeric
@attribute lspFreq_sma[7]_quartile3 numeric
@attribute lspFreq_sma[7]_iqr1-2 numeric
@attribute lspFreq_sma[7]_iqr2-3 numeric
@attribute lspFreq_sma[7]_iqr1-3 numeric
@attribute lspFreq_sma[7]_percentile1.0 numeric
@attribute lspFreq_sma[7]_percentile99.0 numeric
@attribute lspFreq_sma[7]_pctlrange0-1 numeric
@attribute lspFreq_sma[7]_upleveltime75 numeric
@attribute lspFreq_sma[7]_upleveltime90 numeric
@attribute F0finEnv_sma_maxPos numeric
@attribute F0finEnv_sma_minPos numeric
@attribute F0finEnv_sma_amean numeric
@attribute F0finEnv_sma_linregc1 numeric
@attribute F0finEnv_sma_linregc2 numeric
@attribute F0finEnv_sma_linregerrA numeric
@attribute F0finEnv_sma_linregerrQ numeric
@attribute F0finEnv_sma_stddev numeric
@attribute F0finEnv_sma_skewness numeric
@attribute F0finEnv_sma_kurtosis numeric
@attribute F0finEnv_sma_quartile1 numeric
@attribute F0finEnv_sma_quartile2 numeric
@attribute F0finEnv_sma_quartile3 numeric
@attribute F0finEnv_sma_iqr1-2 numeric
@attribute F0finEnv_sma_iqr2-3 numeric
@attribute F0finEnv_sma_iqr1-3 numeric
@attribute F0finEnv_sma_percentile1.0 numeric
@attribute F0finEnv_sma_percentile99.0 numeric
@attribute F0finEnv_sma_pctlrange0-1 numeric
@attribute F0finEnv_sma_upleveltime75 numeric
@attribute F0finEnv_sma_upleveltime90 numeric
@attribute voicingFinalUnclipped_sma_maxPos numeric
@attribute voicingFinalUnclipped_sma_minPos numeric
@attribute voicingFinalUnclipped_sma_amean numeric
@attribute voicingFinalUnclipped_sma_linregc1 numeric
@attribute voicingFinalUnclipped_sma_linregc2 numeric
@attribute voicingFinalUnclipped_sma_linregerrA numeric
@attribute voicingFinalUnclipped_sma_linregerrQ numeric
@attribute voicingFinalUnclipped_sma_stddev numeric
@attribute voicingFinalUnclipped_sma_skewness numeric
@attribute voicingFinalUnclipped_sma_kurtosis numeric
@attribute voicingFinalUnclipped_sma_quartile1 numeric
@attribute voicingFinalUnclipped_sma_quartile2 numeric
@attribute voicingFinalUnclipped_sma_quartile3 numeric
@attribute voicingFinalUnclipped_sma_iqr1-2 numeric
@attribute voicingFinalUnclipped_sma_iqr2-3 numeric
@attribute voicingFinalUnclipped_sma_iqr1-3 numeric
@attribute voicingFinalUnclipped_sma_percentile1.0 numeric
@attribute voicingFinalUnclipped_sma_percentile99.0 numeric
@attribute voicingFinalUnclipped_sma_pctlrange0-1 numeric
@attribute voicingFinalUnclipped_sma_upleveltime75 numeric
@attribute voicingFinalUnclipped_sma_upleveltime90 numeric
@attribute pcm_loudness_sma_de_maxPos numeric
@attribute pcm_loudness_sma_de_minPos numeric
@attribute pcm_loudness_sma_de_amean numeric
@attribute pcm_loudness_sma_de_linregc1 numeric
@attribute pcm_loudness_sma_de_linregc2 numeric
@attribute pcm_loudness_sma_de_linregerrA numeric
@attribute pcm_loudness_sma_de_linregerrQ numeric
@attribute pcm_loudness_sma_de_stddev numeric
@attribute pcm_loudness_sma_de_skewness numeric
@attribute pcm_loudness_sma_de_kurtosis numeric
@attribute pcm_loudness_sma_de_quartile1 numeric
@attribute pcm_loudness_sma_de_quartile2 numeric
@attribute pcm_loudness_sma_de_quartile3 numeric
@attribute pcm_loudness_sma_de_iqr1-2 numeric
@attribute pcm_loudness_sma_de_iqr2-3 numeric
@attribute pcm_loudness_sma_de_iqr1-3 numeric
@attribute pcm_loudness_sma_de_percentile1.0 numeric
@attribute pcm_loudness_sma_de_percentile99.0 numeric
@attribute pcm_loudness_sma_de_pctlrange0-1 numeric
@attribute pcm_loudness_sma_de_upleveltime75 numeric
@attribute pcm_loudness_sma_de_upleveltime90 numeric
@attribute mfcc_sma_de[0]_maxPos numeric
@attribute mfcc_sma_de[0]_minPos numeric
@attribute mfcc_sma_de[0]_amean numeric
@attribute mfcc_sma_de[0]_linregc1 numeric
@attribute mfcc_sma_de[0]_linregc2 numeric
@attribute mfcc_sma_de[0]_linregerrA numeric
@attribute mfcc_sma_de[0]_linregerrQ numeric
@attribute mfcc_sma_de[0]_stddev numeric
@attribute mfcc_sma_de[0]_skewness numeric
@attribute mfcc_sma_de[0]_kurtosis numeric
@attribute mfcc_sma_de[0]_quartile1 numeric
@attribute mfcc_sma_de[0]_quartile2 numeric
@attribute mfcc_sma_de[0]_quartile3 numeric
@attribute mfcc_sma_de[0]_iqr1-2 numeric
@attribute mfcc_sma_de[0]_iqr2-3 numeric
@attribute mfcc_sma_de[0]_iqr1-3 numeric
@attribute mfcc_sma_de[0]_percentile1.0 numeric
@attribute mfcc_sma_de[0]_percentile99.0 numeric
@attribute mfcc_sma_de[0]_pctlrange0-1 numeric
@attribute mfcc_sma_de[0]_upleveltime75 numeric
@attribute mfcc_sma_de[0]_upleveltime90 numeric
@attribute mfcc_sma_de[1]_maxPos numeric
@attribute mfcc_sma_de[1]_minPos numeric
@attribute mfcc_sma_de[1]_amean numeric
@attribute mfcc_sma_de[1]_linregc1 numeric
@attribute mfcc_sma_de[1]_linregc2 numeric
@attribute mfcc_sma_de[1]_linregerrA numeric
@attribute mfcc_sma_de[1]_linregerrQ numeric
@attribute mfcc_sma_de[1]_stddev numeric
@attribute mfcc_sma_de[1]_skewness numeric
@attribute mfcc_sma_de[1]_kurtosis numeric
@attribute mfcc_sma_de[1]_quartile1 numeric
@attribute mfcc_sma_de[1]_quartile2 numeric
@attribute mfcc_sma_de[1]_quartile3 numeric
@attribute mfcc_sma_de[1]_iqr1-2 numeric
@attribute mfcc_sma_de[1]_iqr2-3 numeric
@attribute mfcc_sma_de[1]_iqr1-3 numeric
@attribute mfcc_sma_de[1]_percentile1.0 numeric
@attribute mfcc_sma_de[1]_percentile99.0 numeric
@attribute mfcc_sma_de[1]_pctlrange0-1 numeric
@attribute mfcc_sma_de[1]_upleveltime75 numeric
@attribute mfcc_sma_de[1]_upleveltime90 numeric
@attribute mfcc_sma_de[2]_maxPos numeric
@attribute mfcc_sma_de[2]_minPos numeric
@attribute mfcc_sma_de[2]_amean numeric
@attribute mfcc_sma_de[2]_linregc1 numeric
@attribute mfcc_sma_de[2]_linregc2 numeric
@attribute mfcc_sma_de[2]_linregerrA numeric
@attribute mfcc_sma_de[2]_linregerrQ numeric
@attribute mfcc_sma_de[2]_stddev numeric
@attribute mfcc_sma_de[2]_skewness numeric
@attribute mfcc_sma_de[2]_kurtosis numeric
@attribute mfcc_sma_de[2]_quartile1 numeric
@attribute mfcc_sma_de[2]_quartile2 numeric
@attribute mfcc_sma_de[2]_quartile3 numeric
@attribute mfcc_sma_de[2]_iqr1-2 numeric
@attribute mfcc_sma_de[2]_iqr2-3 numeric
@attribute mfcc_sma_de[2]_iqr1-3 numeric
@attribute mfcc_sma_de[2]_percentile1.0 numeric
@attribute mfcc_sma_de[2]_percentile99.0 numeric
@attribute mfcc_sma_de[2]_pctlrange0-1 numeric
@attribute mfcc_sma_de[2]_upleveltime75 numeric
@attribute mfcc_sma_de[2]_upleveltime90 numeric
@attribute mfcc_sma_de[3]_maxPos numeric
@attribute mfcc_sma_de[3]_minPos numeric
@attribute mfcc_sma_de[3]_amean numeric
@attribute mfcc_sma_de[3]_linregc1 numeric
@attribute mfcc_sma_de[3]_linregc2 numeric
@attribute mfcc_sma_de[3]_linregerrA numeric
@attribute mfcc_sma_de[3]_linregerrQ numeric
@attribute mfcc_sma_de[3]_stddev numeric
@attribute mfcc_sma_de[3]_skewness numeric
@attribute mfcc_sma_de[3]_kurtosis numeric
@attribute mfcc_sma_de[3]_quartile1 numeric
@attribute mfcc_sma_de[3]_quartile2 numeric
@attribute mfcc_sma_de[3]_quartile3 numeric
@attribute mfcc_sma_de[3]_iqr1-2 numeric
@attribute mfcc_sma_de[3]_iqr2-3 numeric
@attribute mfcc_sma_de[3]_iqr1-3 numeric
@attribute mfcc_sma_de[3]_percentile1.0 numeric
@attribute mfcc_sma_de[3]_percentile99.0 numeric
@attribute mfcc_sma_de[3]_pctlrange0-1 numeric
@attribute mfcc_sma_de[3]_upleveltime75 numeric
@attribute mfcc_sma_de[3]_upleveltime90 numeric
@attribute mfcc_sma_de[4]_maxPos numeric
@attribute mfcc_sma_de[4]_minPos numeric
@attribute mfcc_sma_de[4]_amean numeric
@attribute mfcc_sma_de[4]_linregc1 numeric
@attribute mfcc_sma_de[4]_linregc2 numeric
@attribute mfcc_sma_de[4]_linregerrA numeric
@attribute mfcc_sma_de[4]_linregerrQ numeric
@attribute mfcc_sma_de[4]_stddev numeric
@attribute mfcc_sma_de[4]_skewness numeric
@attribute mfcc_sma_de[4]_kurtosis numeric
@attribute mfcc_sma_de[4]_quartile1 numeric
@attribute mfcc_sma_de[4]_quartile2 numeric
@attribute mfcc_sma_de[4]_quartile3 numeric
@attribute mfcc_sma_de[4]_iqr1-2 numeric
@attribute mfcc_sma_de[4]_iqr2-3 numeric
@attribute mfcc_sma_de[4]_iqr1-3 numeric
@attribute mfcc_sma_de[4]_percentile1.0 numeric
@attribute mfcc_sma_de[4]_percentile99.0 numeric
@attribute mfcc_sma_de[4]_pctlrange0-1 numeric
@attribute mfcc_sma_de[4]_upleveltime75 numeric
@attribute mfcc_sma_de[4]_upleveltime90 numeric
@attribute mfcc_sma_de[5]_maxPos numeric
@attribute mfcc_sma_de[5]_minPos numeric
@attribute mfcc_sma_de[5]_amean numeric
@attribute mfcc_sma_de[5]_linregc1 numeric
@attribute mfcc_sma_de[5]_linregc2 numeric
@attribute mfcc_sma_de[5]_linregerrA numeric
@attribute mfcc_sma_de[5]_linregerrQ numeric
@attribute mfcc_sma_de[5]_stddev numeric
@attribute mfcc_sma_de[5]_skewness numeric
@attribute mfcc_sma_de[5]_kurtosis numeric
@attribute mfcc_sma_de[5]_quartile1 numeric
@attribute mfcc_sma_de[5]_quartile2 numeric
@attribute mfcc_sma_de[5]_quartile3 numeric
@attribute mfcc_sma_de[5]_iqr1-2 numeric
@attribute mfcc_sma_de[5]_iqr2-3 numeric
@attribute mfcc_sma_de[5]_iqr1-3 numeric
@attribute mfcc_sma_de[5]_percentile1.0 numeric
@attribute mfcc_sma_de[5]_percentile99.0 numeric
@attribute mfcc_sma_de[5]_pctlrange0-1 numeric
@attribute mfcc_sma_de[5]_upleveltime75 numeric
@attribute mfcc_sma_de[5]_upleveltime90 numeric
@attribute mfcc_sma_de[6]_maxPos numeric
@attribute mfcc_sma_de[6]_minPos numeric
@attribute mfcc_sma_de[6]_amean numeric
@attribute mfcc_sma_de[6]_linregc1 numeric
@attribute mfcc_sma_de[6]_linregc2 numeric
@attribute mfcc_sma_de[6]_linregerrA numeric
@attribute mfcc_sma_de[6]_linregerrQ numeric
@attribute mfcc_sma_de[6]_stddev numeric
@attribute mfcc_sma_de[6]_skewness numeric
@attribute mfcc_sma_de[6]_kurtosis numeric
@attribute mfcc_sma_de[6]_quartile1 numeric
@attribute mfcc_sma_de[6]_quartile2 numeric
@attribute mfcc_sma_de[6]_quartile3 numeric
@attribute mfcc_sma_de[6]_iqr1-2 numeric
@attribute mfcc_sma_de[6]_iqr2-3 numeric
@attribute mfcc_sma_de[6]_iqr1-3 numeric
@attribute mfcc_sma_de[6]_percentile1.0 numeric
@attribute mfcc_sma_de[6]_percentile99.0 numeric
@attribute mfcc_sma_de[6]_pctlrange0-1 numeric
@attribute mfcc_sma_de[6]_upleveltime75 numeric
@attribute mfcc_sma_de[6]_upleveltime90 numeric
@attribute mfcc_sma_de[7]_maxPos numeric
@attribute mfcc_sma_de[7]_minPos numeric
@attribute mfcc_sma_de[7]_amean numeric
@attribute mfcc_sma_de[7]_linregc1 numeric
@attribute mfcc_sma_de[7]_linregc2 numeric
@attribute mfcc_sma_de[7]_linregerrA numeric
@attribute mfcc_sma_de[7]_linregerrQ numeric
@attribute mfcc_sma_de[7]_stddev numeric
@attribute mfcc_sma_de[7]_skewness numeric
@attribute mfcc_sma_de[7]_kurtosis numeric
@attribute mfcc_sma_de[7]_quartile1 numeric
@attribute mfcc_sma_de[7]_quartile2 numeric
@attribute mfcc_sma_de[7]_quartile3 numeric
@attribute mfcc_sma_de[7]_iqr1-2 numeric
@attribute mfcc_sma_de[7]_iqr2-3 numeric
@attribute mfcc_sma_de[7]_iqr1-3 numeric
@attribute mfcc_sma_de[7]_percentile1.0 numeric
@attribute mfcc_sma_de[7]_percentile99.0 numeric
@attribute mfcc_sma_de[7]_pctlrange0-1 numeric
@attribute mfcc_sma_de[7]_upleveltime75 numeric
@attribute mfcc_sma_de[7]_upleveltime90 numeric
@attribute mfcc_sma_de[8]_maxPos numeric
@attribute mfcc_sma_de[8]_minPos numeric
@attribute mfcc_sma_de[8]_amean numeric
@attribute mfcc_sma_de[8]_linregc1 numeric
@attribute mfcc_sma_de[8]_linregc2 numeric
@attribute mfcc_sma_de[8]_linregerrA numeric
@attribute mfcc_sma_de[8]_linregerrQ numeric
@attribute mfcc_sma_de[8]_stddev numeric
@attribute mfcc_sma_de[8]_skewness numeric
@attribute mfcc_sma_de[8]_kurtosis numeric
@attribute mfcc_sma_de[8]_quartile1 numeric
@attribute mfcc_sma_de[8]_quartile2 numeric
@attribute mfcc_sma_de[8]_quartile3 numeric
@attribute mfcc_sma_de[8]_iqr1-2 numeric
@attribute mfcc_sma_de[8]_iqr2-3 numeric
@attribute mfcc_sma_de[8]_iqr1-3 numeric
@attribute mfcc_sma_de[8]_percentile1.0 numeric
@attribute mfcc_sma_de[8]_percentile99.0 numeric
@attribute mfcc_sma_de[8]_pctlrange0-1 numeric
@attribute mfcc_sma_de[8]_upleveltime75 numeric
@attribute mfcc_sma_de[8]_upleveltime90 numeric
@attribute mfcc_sma_de[9]_maxPos numeric
@attribute mfcc_sma_de[9]_minPos numeric
@attribute mfcc_sma_de[9]_amean numeric
@attribute mfcc_sma_de[9]_linregc1 numeric
@attribute mfcc_sma_de[9]_linregc2 numeric
@attribute mfcc_sma_de[9]_linregerrA numeric
@attribute mfcc_sma_de[9]_linregerrQ numeric
@attribute mfcc_sma_de[9]_stddev numeric
@attribute mfcc_sma_de[9]_skewness numeric
@attribute mfcc_sma_de[9]_kurtosis numeric
@attribute mfcc_sma_de[9]_quartile1 numeric
@attribute mfcc_sma_de[9]_quartile2 numeric
@attribute mfcc_sma_de[9]_quartile3 numeric
@attribute mfcc_sma_de[9]_iqr1-2 numeric
@attribute mfcc_sma_de[9]_iqr2-3 numeric
@attribute mfcc_sma_de[9]_iqr1-3 numeric
@attribute mfcc_sma_de[9]_percentile1.0 numeric
@attribute mfcc_sma_de[9]_percentile99.0 numeric
@attribute mfcc_sma_de[9]_pctlrange0-1 numeric
@attribute mfcc_sma_de[9]_upleveltime75 numeric
@attribute mfcc_sma_de[9]_upleveltime90 numeric
@attribute mfcc_sma_de[10]_maxPos numeric
@attribute mfcc_sma_de[10]_minPos numeric
@attribute mfcc_sma_de[10]_amean numeric
@attribute mfcc_sma_de[10]_linregc1 numeric
@attribute mfcc_sma_de[10]_linregc2 numeric
@attribute mfcc_sma_de[10]_linregerrA numeric
@attribute mfcc_sma_de[10]_linregerrQ numeric
@attribute mfcc_sma_de[10]_stddev numeric
@attribute mfcc_sma_de[10]_skewness numeric
@attribute mfcc_sma_de[10]_kurtosis numeric
@attribute mfcc_sma_de[10]_quartile1 numeric
@attribute mfcc_sma_de[10]_quartile2 numeric
@attribute mfcc_sma_de[10]_quartile3 numeric
@attribute mfcc_sma_de[10]_iqr1-2 numeric
@attribute mfcc_sma_de[10]_iqr2-3 numeric
@attribute mfcc_sma_de[10]_iqr1-3 numeric
@attribute mfcc_sma_de[10]_percentile1.0 numeric
@attribute mfcc_sma_de[10]_percentile99.0 numeric
@attribute mfcc_sma_de[10]_pctlrange0-1 numeric
@attribute mfcc_sma_de[10]_upleveltime75 numeric
@attribute mfcc_sma_de[10]_upleveltime90 numeric
@attribute mfcc_sma_de[11]_maxPos numeric
@attribute mfcc_sma_de[11]_minPos numeric
@attribute mfcc_sma_de[11]_amean numeric
@attribute mfcc_sma_de[11]_linregc1 numeric
@attribute mfcc_sma_de[11]_linregc2 numeric
@attribute mfcc_sma_de[11]_linregerrA numeric
@attribute mfcc_sma_de[11]_linregerrQ numeric
@attribute mfcc_sma_de[11]_stddev numeric
@attribute mfcc_sma_de[11]_skewness numeric
@attribute mfcc_sma_de[11]_kurtosis numeric
@attribute mfcc_sma_de[11]_quartile1 numeric
@attribute mfcc_sma_de[11]_quartile2 numeric
@attribute mfcc_sma_de[11]_quartile3 numeric
@attribute mfcc_sma_de[11]_iqr1-2 numeric
@attribute mfcc_sma_de[11]_iqr2-3 numeric
@attribute mfcc_sma_de[11]_iqr1-3 numeric
@attribute mfcc_sma_de[11]_percentile1.0 numeric
@attribute mfcc_sma_de[11]_percentile99.0 numeric
@attribute mfcc_sma_de[11]_pctlrange0-1 numeric
@attribute mfcc_sma_de[11]_upleveltime75 numeric
@attribute mfcc_sma_de[11]_upleveltime90 numeric
@attribute mfcc_sma_de[12]_maxPos numeric
@attribute mfcc_sma_de[12]_minPos numeric
@attribute mfcc_sma_de[12]_amean numeric
@attribute mfcc_sma_de[12]_linregc1 numeric
@attribute mfcc_sma_de[12]_linregc2 numeric
@attribute mfcc_sma_de[12]_linregerrA numeric
@attribute mfcc_sma_de[12]_linregerrQ numeric
@attribute mfcc_sma_de[12]_stddev numeric
@attribute mfcc_sma_de[12]_skewness numeric
@attribute mfcc_sma_de[12]_kurtosis numeric
@attribute mfcc_sma_de[12]_quartile1 numeric
@attribute mfcc_sma_de[12]_quartile2 numeric
@attribute mfcc_sma_de[12]_quartile3 numeric
@attribute mfcc_sma_de[12]_iqr1-2 numeric
@attribute mfcc_sma_de[12]_iqr2-3 numeric
@attribute mfcc_sma_de[12]_iqr1-3 numeric
@attribute mfcc_sma_de[12]_percentile1.0 numeric
@attribute mfcc_sma_de[12]_percentile99.0 numeric
@attribute mfcc_sma_de[12]_pctlrange0-1 numeric
@attribute mfcc_sma_de[12]_upleveltime75 numeric
@attribute mfcc_sma_de[12]_upleveltime90 numeric
@attribute mfcc_sma_de[13]_maxPos numeric
@attribute mfcc_sma_de[13]_minPos numeric
@attribute mfcc_sma_de[13]_amean numeric
@attribute mfcc_sma_de[13]_linregc1 numeric
@attribute mfcc_sma_de[13]_linregc2 numeric
@attribute mfcc_sma_de[13]_linregerrA numeric
@attribute mfcc_sma_de[13]_linregerrQ numeric
@attribute mfcc_sma_de[13]_stddev numeric
@attribute mfcc_sma_de[13]_skewness numeric
@attribute mfcc_sma_de[13]_kurtosis numeric
@attribute mfcc_sma_de[13]_quartile1 numeric
@attribute mfcc_sma_de[13]_quartile2 numeric
@attribute mfcc_sma_de[13]_quartile3 numeric
@attribute mfcc_sma_de[13]_iqr1-2 numeric
@attribute mfcc_sma_de[13]_iqr2-3 numeric
@attribute mfcc_sma_de[13]_iqr1-3 numeric
@attribute mfcc_sma_de[13]_percentile1.0 numeric
@attribute mfcc_sma_de[13]_percentile99.0 numeric
@attribute mfcc_sma_de[13]_pctlrange0-1 numeric
@attribute mfcc_sma_de[13]_upleveltime75 numeric
@attribute mfcc_sma_de[13]_upleveltime90 numeric
@attribute mfcc_sma_de[14]_maxPos numeric
@attribute mfcc_sma_de[14]_minPos numeric
@attribute mfcc_sma_de[14]_amean numeric
@attribute mfcc_sma_de[14]_linregc1 numeric
@attribute mfcc_sma_de[14]_linregc2 numeric
@attribute mfcc_sma_de[14]_linregerrA numeric
@attribute mfcc_sma_de[14]_linregerrQ numeric
@attribute mfcc_sma_de[14]_stddev numeric
@attribute mfcc_sma_de[14]_skewness numeric
@attribute mfcc_sma_de[14]_kurtosis numeric
@attribute mfcc_sma_de[14]_quartile1 numeric
@attribute mfcc_sma_de[14]_quartile2 numeric
@attribute mfcc_sma_de[14]_quartile3 numeric
@attribute mfcc_sma_de[14]_iqr1-2 numeric
@attribute mfcc_sma_de[14]_iqr2-3 numeric
@attribute mfcc_sma_de[14]_iqr1-3 numeric
@attribute mfcc_sma_de[14]_percentile1.0 numeric
@attribute mfcc_sma_de[14]_percentile99.0 numeric
@attribute mfcc_sma_de[14]_pctlrange0-1 numeric
@attribute mfcc_sma_de[14]_upleveltime75 numeric
@attribute mfcc_sma_de[14]_upleveltime90 numeric
@attribute logMelFreqBand_sma_de[0]_maxPos numeric
@attribute logMelFreqBand_sma_de[0]_minPos numeric
@attribute logMelFreqBand_sma_de[0]_amean numeric
@attribute logMelFreqBand_sma_de[0]_linregc1 numeric
@attribute logMelFreqBand_sma_de[0]_linregc2 numeric
@attribute logMelFreqBand_sma_de[0]_linregerrA numeric
@attribute logMelFreqBand_sma_de[0]_linregerrQ numeric
@attribute logMelFreqBand_sma_de[0]_stddev numeric
@attribute logMelFreqBand_sma_de[0]_skewness numeric
@attribute logMelFreqBand_sma_de[0]_kurtosis numeric
@attribute logMelFreqBand_sma_de[0]_quartile1 numeric
@attribute logMelFreqBand_sma_de[0]_quartile2 numeric
@attribute logMelFreqBand_sma_de[0]_quartile3 numeric
@attribute logMelFreqBand_sma_de[0]_iqr1-2 numeric
@attribute logMelFreqBand_sma_de[0]_iqr2-3 numeric
@attribute logMelFreqBand_sma_de[0]_iqr1-3 numeric
@attribute logMelFreqBand_sma_de[0]_percentile1.0 numeric
@attribute logMelFreqBand_sma_de[0]_percentile99.0 numeric
@attribute logMelFreqBand_sma_de[0]_pctlrange0-1 numeric
@attribute logMelFreqBand_sma_de[0]_upleveltime75 numeric
@attribute logMelFreqBand_sma_de[0]_upleveltime90 numeric
@attribute logMelFreqBand_sma_de[1]_maxPos numeric
@attribute logMelFreqBand_sma_de[1]_minPos numeric
@attribute logMelFreqBand_sma_de[1]_amean numeric
@attribute logMelFreqBand_sma_de[1]_linregc1 numeric
@attribute logMelFreqBand_sma_de[1]_linregc2 numeric
@attribute logMelFreqBand_sma_de[1]_linregerrA numeric
@attribute logMelFreqBand_sma_de[1]_linregerrQ numeric
@attribute logMelFreqBand_sma_de[1]_stddev numeric
@attribute logMelFreqBand_sma_de[1]_skewness numeric
@attribute logMelFreqBand_sma_de[1]_kurtosis numeric
@attribute logMelFreqBand_sma_de[1]_quartile1 numeric
@attribute logMelFreqBand_sma_de[1]_quartile2 numeric
@attribute logMelFreqBand_sma_de[1]_quartile3 numeric
@attribute logMelFreqBand_sma_de[1]_iqr1-2 numeric
@attribute logMelFreqBand_sma_de[1]_iqr2-3 numeric
@attribute logMelFreqBand_sma_de[1]_iqr1-3 numeric
@attribute logMelFreqBand_sma_de[1]_percentile1.0 numeric
@attribute logMelFreqBand_sma_de[1]_percentile99.0 numeric
@attribute logMelFreqBand_sma_de[1]_pctlrange0-1 numeric
@attribute logMelFreqBand_sma_de[1]_upleveltime75 numeric
@attribute logMelFreqBand_sma_de[1]_upleveltime90 numeric
@attribute logMelFreqBand_sma_de[2]_maxPos numeric
@attribute logMelFreqBand_sma_de[2]_minPos numeric
@attribute logMelFreqBand_sma_de[2]_amean numeric
@attribute logMelFreqBand_sma_de[2]_linregc1 numeric
@attribute logMelFreqBand_sma_de[2]_linregc2 numeric
@attribute logMelFreqBand_sma_de[2]_linregerrA numeric
@attribute logMelFreqBand_sma_de[2]_linregerrQ numeric
@attribute logMelFreqBand_sma_de[2]_stddev numeric
@attribute logMelFreqBand_sma_de[2]_skewness numeric
@attribute logMelFreqBand_sma_de[2]_kurtosis numeric
@attribute logMelFreqBand_sma_de[2]_quartile1 numeric
@attribute logMelFreqBand_sma_de[2]_quartile2 numeric
@attribute logMelFreqBand_sma_de[2]_quartile3 numeric
@attribute logMelFreqBand_sma_de[2]_iqr1-2 numeric
@attribute logMelFreqBand_sma_de[2]_iqr2-3 numeric
@attribute logMelFreqBand_sma_de[2]_iqr1-3 numeric
@attribute logMelFreqBand_sma_de[2]_percentile1.0 numeric
@attribute logMelFreqBand_sma_de[2]_percentile99.0 numeric
@attribute logMelFreqBand_sma_de[2]_pctlrange0-1 numeric
@attribute logMelFreqBand_sma_de[2]_upleveltime75 numeric
@attribute logMelFreqBand_sma_de[2]_upleveltime90 numeric
@attribute logMelFreqBand_sma_de[3]_maxPos numeric
@attribute logMelFreqBand_sma_de[3]_minPos numeric
@attribute logMelFreqBand_sma_de[3]_amean numeric
@attribute logMelFreqBand_sma_de[3]_linregc1 numeric
@attribute logMelFreqBand_sma_de[3]_linregc2 numeric
@attribute logMelFreqBand_sma_de[3]_linregerrA numeric
@attribute logMelFreqBand_sma_de[3]_linregerrQ numeric
@attribute logMelFreqBand_sma_de[3]_stddev numeric
@attribute logMelFreqBand_sma_de[3]_skewness numeric
@attribute logMelFreqBand_sma_de[3]_kurtosis numeric
@attribute logMelFreqBand_sma_de[3]_quartile1 numeric
@attribute logMelFreqBand_sma_de[3]_quartile2 numeric
@attribute logMelFreqBand_sma_de[3]_quartile3 numeric
@attribute logMelFreqBand_sma_de[3]_iqr1-2 numeric
@attribute logMelFreqBand_sma_de[3]_iqr2-3 numeric
@attribute logMelFreqBand_sma_de[3]_iqr1-3 numeric
@attribute logMelFreqBand_sma_de[3]_percentile1.0 numeric
@attribute logMelFreqBand_sma_de[3]_percentile99.0 numeric
@attribute logMelFreqBand_sma_de[3]_pctlrange0-1 numeric
@attribute logMelFreqBand_sma_de[3]_upleveltime75 numeric
@attribute logMelFreqBand_sma_de[3]_upleveltime90 numeric
@attribute logMelFreqBand_sma_de[4]_maxPos numeric
@attribute logMelFreqBand_sma_de[4]_minPos numeric
@attribute logMelFreqBand_sma_de[4]_amean numeric
@attribute logMelFreqBand_sma_de[4]_linregc1 numeric
@attribute logMelFreqBand_sma_de[4]_linregc2 numeric
@attribute logMelFreqBand_sma_de[4]_linregerrA numeric
@attribute logMelFreqBand_sma_de[4]_linregerrQ numeric
@attribute logMelFreqBand_sma_de[4]_stddev numeric
@attribute logMelFreqBand_sma_de[4]_skewness numeric
@attribute logMelFreqBand_sma_de[4]_kurtosis numeric
@attribute logMelFreqBand_sma_de[4]_quartile1 numeric
@attribute logMelFreqBand_sma_de[4]_quartile2 numeric
@attribute logMelFreqBand_sma_de[4]_quartile3 numeric
@attribute logMelFreqBand_sma_de[4]_iqr1-2 numeric
@attribute logMelFreqBand_sma_de[4]_iqr2-3 numeric
@attribute logMelFreqBand_sma_de[4]_iqr1-3 numeric
@attribute logMelFreqBand_sma_de[4]_percentile1.0 numeric
@attribute logMelFreqBand_sma_de[4]_percentile99.0 numeric
@attribute logMelFreqBand_sma_de[4]_pctlrange0-1 numeric
@attribute logMelFreqBand_sma_de[4]_upleveltime75 numeric
@attribute logMelFreqBand_sma_de[4]_upleveltime90 numeric
@attribute logMelFreqBand_sma_de[5]_maxPos numeric
@attribute logMelFreqBand_sma_de[5]_minPos numeric
@attribute logMelFreqBand_sma_de[5]_amean numeric
@attribute logMelFreqBand_sma_de[5]_linregc1 numeric
@attribute logMelFreqBand_sma_de[5]_linregc2 numeric
@attribute logMelFreqBand_sma_de[5]_linregerrA numeric
@attribute logMelFreqBand_sma_de[5]_linregerrQ numeric
@attribute logMelFreqBand_sma_de[5]_stddev numeric
@attribute logMelFreqBand_sma_de[5]_skewness numeric
@attribute logMelFreqBand_sma_de[5]_kurtosis numeric
@attribute logMelFreqBand_sma_de[5]_quartile1 numeric
@attribute logMelFreqBand_sma_de[5]_quartile2 numeric
@attribute logMelFreqBand_sma_de[5]_quartile3 numeric
@attribute logMelFreqBand_sma_de[5]_iqr1-2 numeric
@attribute logMelFreqBand_sma_de[5]_iqr2-3 numeric
@attribute logMelFreqBand_sma_de[5]_iqr1-3 numeric
@attribute logMelFreqBand_sma_de[5]_percentile1.0 numeric
@attribute logMelFreqBand_sma_de[5]_percentile99.0 numeric
@attribute logMelFreqBand_sma_de[5]_pctlrange0-1 numeric
@attribute logMelFreqBand_sma_de[5]_upleveltime75 numeric
@attribute logMelFreqBand_sma_de[5]_upleveltime90 numeric
@attribute logMelFreqBand_sma_de[6]_maxPos numeric
@attribute logMelFreqBand_sma_de[6]_minPos numeric
@attribute logMelFreqBand_sma_de[6]_amean numeric
@attribute logMelFreqBand_sma_de[6]_linregc1 numeric
@attribute logMelFreqBand_sma_de[6]_linregc2 numeric
@attribute logMelFreqBand_sma_de[6]_linregerrA numeric
@attribute logMelFreqBand_sma_de[6]_linregerrQ numeric
@attribute logMelFreqBand_sma_de[6]_stddev numeric
@attribute logMelFreqBand_sma_de[6]_skewness numeric
@attribute logMelFreqBand_sma_de[6]_kurtosis numeric
@attribute logMelFreqBand_sma_de[6]_quartile1 numeric
@attribute logMelFreqBand_sma_de[6]_quartile2 numeric
@attribute logMelFreqBand_sma_de[6]_quartile3 numeric
@attribute logMelFreqBand_sma_de[6]_iqr1-2 numeric
@attribute logMelFreqBand_sma_de[6]_iqr2-3 numeric
@attribute logMelFreqBand_sma_de[6]_iqr1-3 numeric
@attribute logMelFreqBand_sma_de[6]_percentile1.0 numeric
@attribute logMelFreqBand_sma_de[6]_percentile99.0 numeric
@attribute logMelFreqBand_sma_de[6]_pctlrange0-1 numeric
@attribute logMelFreqBand_sma_de[6]_upleveltime75 numeric
@attribute logMelFreqBand_sma_de[6]_upleveltime90 numeric
@attribute logMelFreqBand_sma_de[7]_maxPos numeric
@attribute logMelFreqBand_sma_de[7]_minPos numeric
@attribute logMelFreqBand_sma_de[7]_amean numeric
@attribute logMelFreqBand_sma_de[7]_linregc1 numeric
@attribute logMelFreqBand_sma_de[7]_linregc2 numeric
@attribute logMelFreqBand_sma_de[7]_linregerrA numeric
@attribute logMelFreqBand_sma_de[7]_linregerrQ numeric
@attribute logMelFreqBand_sma_de[7]_stddev numeric
@attribute logMelFreqBand_sma_de[7]_skewness numeric
@attribute logMelFreqBand_sma_de[7]_kurtosis numeric
@attribute logMelFreqBand_sma_de[7]_quartile1 numeric
@attribute logMelFreqBand_sma_de[7]_quartile2 numeric
@attribute logMelFreqBand_sma_de[7]_quartile3 numeric
@attribute logMelFreqBand_sma_de[7]_iqr1-2 numeric
@attribute logMelFreqBand_sma_de[7]_iqr2-3 numeric
@attribute logMelFreqBand_sma_de[7]_iqr1-3 numeric
@attribute logMelFreqBand_sma_de[7]_percentile1.0 numeric
@attribute logMelFreqBand_sma_de[7]_percentile99.0 numeric
@attribute logMelFreqBand_sma_de[7]_pctlrange0-1 numeric
@attribute logMelFreqBand_sma_de[7]_upleveltime75 numeric
@attribute logMelFreqBand_sma_de[7]_upleveltime90 numeric
@attribute lspFreq_sma_de[0]_maxPos numeric
@attribute lspFreq_sma_de[0]_minPos numeric
@attribute lspFreq_sma_de[0]_amean numeric
@attribute lspFreq_sma_de[0]_linregc1 numeric
@attribute lspFreq_sma_de[0]_linregc2 numeric
@attribute lspFreq_sma_de[0]_linregerrA numeric
@attribute lspFreq_sma_de[0]_linregerrQ numeric
@attribute lspFreq_sma_de[0]_stddev numeric
@attribute lspFreq_sma_de[0]_skewness numeric
@attribute lspFreq_sma_de[0]_kurtosis numeric
@attribute lspFreq_sma_de[0]_quartile1 numeric
@attribute lspFreq_sma_de[0]_quartile2 numeric
@attribute lspFreq_sma_de[0]_quartile3 numeric
@attribute lspFreq_sma_de[0]_iqr1-2 numeric
@attribute lspFreq_sma_de[0]_iqr2-3 numeric
@attribute lspFreq_sma_de[0]_iqr1-3 numeric
@attribute lspFreq_sma_de[0]_percentile1.0 numeric
@attribute lspFreq_sma_de[0]_percentile99.0 numeric
@attribute lspFreq_sma_de[0]_pctlrange0-1 numeric
@attribute lspFreq_sma_de[0]_upleveltime75 numeric
@attribute lspFreq_sma_de[0]_upleveltime90 numeric
@attribute lspFreq_sma_de[1]_maxPos numeric
@attribute lspFreq_sma_de[1]_minPos numeric
@attribute lspFreq_sma_de[1]_amean numeric
@attribute lspFreq_sma_de[1]_linregc1 numeric
@attribute lspFreq_sma_de[1]_linregc2 numeric
@attribute lspFreq_sma_de[1]_linregerrA numeric
@attribute lspFreq_sma_de[1]_linregerrQ numeric
@attribute lspFreq_sma_de[1]_stddev numeric
@attribute lspFreq_sma_de[1]_skewness numeric
@attribute lspFreq_sma_de[1]_kurtosis numeric
@attribute lspFreq_sma_de[1]_quartile1 numeric
@attribute lspFreq_sma_de[1]_quartile2 numeric
@attribute lspFreq_sma_de[1]_quartile3 numeric
@attribute lspFreq_sma_de[1]_iqr1-2 numeric
@attribute lspFreq_sma_de[1]_iqr2-3 numeric
@attribute lspFreq_sma_de[1]_iqr1-3 numeric
@attribute lspFreq_sma_de[1]_percentile1.0 numeric
@attribute lspFreq_sma_de[1]_percentile99.0 numeric
@attribute lspFreq_sma_de[1]_pctlrange0-1 numeric
@attribute lspFreq_sma_de[1]_upleveltime75 numeric
@attribute lspFreq_sma_de[1]_upleveltime90 numeric
@attribute lspFreq_sma_de[2]_maxPos numeric
@attribute lspFreq_sma_de[2]_minPos numeric
@attribute lspFreq_sma_de[2]_amean numeric
@attribute lspFreq_sma_de[2]_linregc1 numeric
@attribute lspFreq_sma_de[2]_linregc2 numeric
@attribute lspFreq_sma_de[2]_linregerrA numeric
@attribute lspFreq_sma_de[2]_linregerrQ numeric
@attribute lspFreq_sma_de[2]_stddev numeric
@attribute lspFreq_sma_de[2]_skewness numeric
@attribute lspFreq_sma_de[2]_kurtosis numeric
@attribute lspFreq_sma_de[2]_quartile1 numeric
@attribute lspFreq_sma_de[2]_quartile2 numeric
@attribute lspFreq_sma_de[2]_quartile3 numeric
@attribute lspFreq_sma_de[2]_iqr1-2 numeric
@attribute lspFreq_sma_de[2]_iqr2-3 numeric
@attribute lspFreq_sma_de[2]_iqr1-3 numeric
@attribute lspFreq_sma_de[2]_percentile1.0 numeric
@attribute lspFreq_sma_de[2]_percentile99.0 numeric
@attribute lspFreq_sma_de[2]_pctlrange0-1 numeric
@attribute lspFreq_sma_de[2]_upleveltime75 numeric
@attribute lspFreq_sma_de[2]_upleveltime90 numeric
@attribute lspFreq_sma_de[3]_maxPos numeric
@attribute lspFreq_sma_de[3]_minPos numeric
@attribute lspFreq_sma_de[3]_amean numeric
@attribute lspFreq_sma_de[3]_linregc1 numeric
@attribute lspFreq_sma_de[3]_linregc2 numeric
@attribute lspFreq_sma_de[3]_linregerrA numeric
@attribute lspFreq_sma_de[3]_linregerrQ numeric
@attribute lspFreq_sma_de[3]_stddev numeric
@attribute lspFreq_sma_de[3]_skewness numeric
@attribute lspFreq_sma_de[3]_kurtosis numeric
@attribute lspFreq_sma_de[3]_quartile1 numeric
@attribute lspFreq_sma_de[3]_quartile2 numeric
@attribute lspFreq_sma_de[3]_quartile3 numeric
@attribute lspFreq_sma_de[3]_iqr1-2 numeric
@attribute lspFreq_sma_de[3]_iqr2-3 numeric
@attribute lspFreq_sma_de[3]_iqr1-3 numeric
@attribute lspFreq_sma_de[3]_percentile1.0 numeric
@attribute lspFreq_sma_de[3]_percentile99.0 numeric
@attribute lspFreq_sma_de[3]_pctlrange0-1 numeric
@attribute lspFreq_sma_de[3]_upleveltime75 numeric
@attribute lspFreq_sma_de[3]_upleveltime90 numeric
@attribute lspFreq_sma_de[4]_maxPos numeric
@attribute lspFreq_sma_de[4]_minPos numeric
@attribute lspFreq_sma_de[4]_amean numeric
@attribute lspFreq_sma_de[4]_linregc1 numeric
@attribute lspFreq_sma_de[4]_linregc2 numeric
@attribute lspFreq_sma_de[4]_linregerrA numeric
@attribute lspFreq_sma_de[4]_linregerrQ numeric
@attribute lspFreq_sma_de[4]_stddev numeric
@attribute lspFreq_sma_de[4]_skewness numeric
@attribute lspFreq_sma_de[4]_kurtosis numeric
@attribute lspFreq_sma_de[4]_quartile1 numeric
@attribute lspFreq_sma_de[4]_quartile2 numeric
@attribute lspFreq_sma_de[4]_quartile3 numeric
@attribute lspFreq_sma_de[4]_iqr1-2 numeric
@attribute lspFreq_sma_de[4]_iqr2-3 numeric
@attribute lspFreq_sma_de[4]_iqr1-3 numeric
@attribute lspFreq_sma_de[4]_percentile1.0 numeric
@attribute lspFreq_sma_de[4]_percentile99.0 numeric
@attribute lspFreq_sma_de[4]_pctlrange0-1 numeric
@attribute lspFreq_sma_de[4]_upleveltime75 numeric
@attribute lspFreq_sma_de[4]_upleveltime90 numeric
@attribute lspFreq_sma_de[5]_maxPos numeric
@attribute lspFreq_sma_de[5]_minPos numeric
@attribute lspFreq_sma_de[5]_amean numeric
@attribute lspFreq_sma_de[5]_linregc1 numeric
@attribute lspFreq_sma_de[5]_linregc2 numeric
@attribute lspFreq_sma_de[5]_linregerrA numeric
@attribute lspFreq_sma_de[5]_linregerrQ numeric
@attribute lspFreq_sma_de[5]_stddev numeric
@attribute lspFreq_sma_de[5]_skewness numeric
@attribute lspFreq_sma_de[5]_kurtosis numeric
@attribute lspFreq_sma_de[5]_quartile1 numeric
@attribute lspFreq_sma_de[5]_quartile2 numeric
@attribute lspFreq_sma_de[5]_quartile3 numeric
@attribute lspFreq_sma_de[5]_iqr1-2 numeric
@attribute lspFreq_sma_de[5]_iqr2-3 numeric
@attribute lspFreq_sma_de[5]_iqr1-3 numeric
@attribute lspFreq_sma_de[5]_percentile1.0 numeric
@attribute lspFreq_sma_de[5]_percentile99.0 numeric
@attribute lspFreq_sma_de[5]_pctlrange0-1 numeric
@attribute lspFreq_sma_de[5]_upleveltime75 numeric
@attribute lspFreq_sma_de[5]_upleveltime90 numeric
@attribute lspFreq_sma_de[6]_maxPos numeric
@attribute lspFreq_sma_de[6]_minPos numeric
@attribute lspFreq_sma_de[6]_amean numeric
@attribute lspFreq_sma_de[6]_linregc1 numeric
@attribute lspFreq_sma_de[6]_linregc2 numeric
@attribute lspFreq_sma_de[6]_linregerrA numeric
@attribute lspFreq_sma_de[6]_linregerrQ numeric
@attribute lspFreq_sma_de[6]_stddev numeric
@attribute lspFreq_sma_de[6]_skewness numeric
@attribute lspFreq_sma_de[6]_kurtosis numeric
@attribute lspFreq_sma_de[6]_quartile1 numeric
@attribute lspFreq_sma_de[6]_quartile2 numeric
@attribute lspFreq_sma_de[6]_quartile3 numeric
@attribute lspFreq_sma_de[6]_iqr1-2 numeric
@attribute lspFreq_sma_de[6]_iqr2-3 numeric
@attribute lspFreq_sma_de[6]_iqr1-3 numeric
@attribute lspFreq_sma_de[6]_percentile1.0 numeric
@attribute lspFreq_sma_de[6]_percentile99.0 numeric
@attribute lspFreq_sma_de[6]_pctlrange0-1 numeric
@attribute lspFreq_sma_de[6]_upleveltime75 numeric
@attribute lspFreq_sma_de[6]_upleveltime90 numeric
@attribute lspFreq_sma_de[7]_maxPos numeric
@attribute lspFreq_sma_de[7]_minPos numeric
@attribute lspFreq_sma_de[7]_amean numeric
@attribute lspFreq_sma_de[7]_linregc1 numeric
@attribute lspFreq_sma_de[7]_linregc2 numeric
@attribute lspFreq_sma_de[7]_linregerrA numeric
@attribute lspFreq_sma_de[7]_linregerrQ numeric
@attribute lspFreq_sma_de[7]_stddev numeric
@attribute lspFreq_sma_de[7]_skewness numeric
@attribute lspFreq_sma_de[7]_kurtosis numeric
@attribute lspFreq_sma_de[7]_quartile1 numeric
@attribute lspFreq_sma_de[7]_quartile2 numeric
@attribute lspFreq_sma_de[7]_quartile3 numeric
@attribute lspFreq_sma_de[7]_iqr1-2 numeric
@attribute lspFreq_sma_de[7]_iqr2-3 numeric
@attribute lspFreq_sma_de[7]_iqr1-3 numeric
@attribute lspFreq_sma_de[7]_percentile1.0 numeric
@attribute lspFreq_sma_de[7]_percentile99.0 numeric
@attribute lspFreq_sma_de[7]_pctlrange0-1 numeric
@attribute lspFreq_sma_de[7]_upleveltime75 numeric
@attribute lspFreq_sma_de[7]_upleveltime90 numeric
@attribute F0finEnv_sma_de_maxPos numeric
@attribute F0finEnv_sma_de_minPos numeric
@attribute F0finEnv_sma_de_amean numeric
@attribute F0finEnv_sma_de_linregc1 numeric
@attribute F0finEnv_sma_de_linregc2 numeric
@attribute F0finEnv_sma_de_linregerrA numeric
@attribute F0finEnv_sma_de_linregerrQ numeric
@attribute F0finEnv_sma_de_stddev numeric
@attribute F0finEnv_sma_de_skewness numeric
@attribute F0finEnv_sma_de_kurtosis numeric
@attribute F0finEnv_sma_de_quartile1 numeric
@attribute F0finEnv_sma_de_quartile2 numeric
@attribute F0finEnv_sma_de_quartile3 numeric
@attribute F0finEnv_sma_de_iqr1-2 numeric
@attribute F0finEnv_sma_de_iqr2-3 numeric
@attribute F0finEnv_sma_de_iqr1-3 numeric
@attribute F0finEnv_sma_de_percentile1.0 numeric
@attribute F0finEnv_sma_de_percentile99.0 numeric
@attribute F0finEnv_sma_de_pctlrange0-1 numeric
@attribute F0finEnv_sma_de_upleveltime75 numeric
@attribute F0finEnv_sma_de_upleveltime90 numeric
@attribute voicingFinalUnclipped_sma_de_maxPos numeric
@attribute voicingFinalUnclipped_sma_de_minPos numeric
@attribute voicingFinalUnclipped_sma_de_amean numeric
@attribute voicingFinalUnclipped_sma_de_linregc1 numeric
@attribute voicingFinalUnclipped_sma_de_linregc2 numeric
@attribute voicingFinalUnclipped_sma_de_linregerrA numeric
@attribute voicingFinalUnclipped_sma_de_linregerrQ numeric
@attribute voicingFinalUnclipped_sma_de_stddev numeric
@attribute voicingFinalUnclipped_sma_de_skewness numeric
@attribute voicingFinalUnclipped_sma_de_kurtosis numeric
@attribute voicingFinalUnclipped_sma_de_quartile1 numeric
@attribute voicingFinalUnclipped_sma_de_quartile2 numeric
@attribute voicingFinalUnclipped_sma_de_quartile3 numeric
@attribute voicingFinalUnclipped_sma_de_iqr1-2 numeric
@attribute voicingFinalUnclipped_sma_de_iqr2-3 numeric
@attribute voicingFinalUnclipped_sma_de_iqr1-3 numeric
@attribute voicingFinalUnclipped_sma_de_percentile1.0 numeric
@attribute voicingFinalUnclipped_sma_de_percentile99.0 numeric
@attribute voicingFinalUnclipped_sma_de_pctlrange0-1 numeric
@attribute voicingFinalUnclipped_sma_de_upleveltime75 numeric
@attribute voicingFinalUnclipped_sma_de_upleveltime90 numeric
@attribute F0final_sma_maxPos numeric
@attribute F0final_sma_minPos numeric
@attribute F0final_sma_amean numeric
@attribute F0final_sma_linregc1 numeric
@attribute F0final_sma_linregc2 numeric
@attribute F0final_sma_linregerrA numeric
@attribute F0final_sma_linregerrQ numeric
@attribute F0final_sma_stddev numeric
@attribute F0final_sma_skewness numeric
@attribute F0final_sma_kurtosis numeric
@attribute F0final_sma_quartile1 numeric
@attribute F0final_sma_quartile2 numeric
@attribute F0final_sma_quartile3 numeric
@attribute F0final_sma_iqr1-2 numeric
@attribute F0final_sma_iqr2-3 numeric
@attribute F0final_sma_iqr1-3 numeric
@attribute F0final_sma_percentile99.0 numeric
@attribute F0final_sma_upleveltime75 numeric
@attribute F0final_sma_upleveltime90 numeric
@attribute jitterLocal_sma_maxPos numeric
@attribute jitterLocal_sma_minPos numeric
@attribute jitterLocal_sma_amean numeric
@attribute jitterLocal_sma_linregc1 numeric
@attribute jitterLocal_sma_linregc2 numeric
@attribute jitterLocal_sma_linregerrA numeric
@attribute jitterLocal_sma_linregerrQ numeric
@attribute jitterLocal_sma_stddev numeric
@attribute jitterLocal_sma_skewness numeric
@attribute jitterLocal_sma_kurtosis numeric
@attribute jitterLocal_sma_quartile1 numeric
@attribute jitterLocal_sma_quartile2 numeric
@attribute jitterLocal_sma_quartile3 numeric
@attribute jitterLocal_sma_iqr1-2 numeric
@attribute jitterLocal_sma_iqr2-3 numeric
@attribute jitterLocal_sma_iqr1-3 numeric
@attribute jitterLocal_sma_percentile99.0 numeric
@attribute jitterLocal_sma_upleveltime75 numeric
@attribute jitterLocal_sma_upleveltime90 numeric
@attribute jitterDDP_sma_maxPos numeric
@attribute jitterDDP_sma_minPos numeric
@attribute jitterDDP_sma_amean numeric
@attribute jitterDDP_sma_linregc1 numeric
@attribute jitterDDP_sma_linregc2 numeric
@attribute jitterDDP_sma_linregerrA numeric
@attribute jitterDDP_sma_linregerrQ numeric
@attribute jitterDDP_sma_stddev numeric
@attribute jitterDDP_sma_skewness numeric
@attribute jitterDDP_sma_kurtosis numeric
@attribute jitterDDP_sma_quartile1 numeric
@attribute jitterDDP_sma_quartile2 numeric
@attribute jitterDDP_sma_quartile3 numeric
@attribute jitterDDP_sma_iqr1-2 numeric
@attribute jitterDDP_sma_iqr2-3 numeric
@attribute jitterDDP_sma_iqr1-3 numeric
@attribute jitterDDP_sma_percentile99.0 numeric
@attribute jitterDDP_sma_upleveltime75 numeric
@attribute jitterDDP_sma_upleveltime90 numeric
@attribute shimmerLocal_sma_maxPos numeric
@attribute shimmerLocal_sma_minPos numeric
@attribute shimmerLocal_sma_amean numeric
@attribute shimmerLocal_sma_linregc1 numeric
@attribute shimmerLocal_sma_linregc2 numeric
@attribute shimmerLocal_sma_linregerrA numeric
@attribute shimmerLocal_sma_linregerrQ numeric
@attribute shimmerLocal_sma_stddev numeric
@attribute shimmerLocal_sma_skewness numeric
@attribute shimmerLocal_sma_kurtosis numeric
@attribute shimmerLocal_sma_quartile1 numeric
@attribute shimmerLocal_sma_quartile2 numeric
@attribute shimmerLocal_sma_quartile3 numeric
@attribute shimmerLocal_sma_iqr1-2 numeric
@attribute shimmerLocal_sma_iqr2-3 numeric
@attribute shimmerLocal_sma_iqr1-3 numeric
@attribute shimmerLocal_sma_percentile99.0 numeric
@attribute shimmerLocal_sma_upleveltime75 numeric
@attribute shimmerLocal_sma_upleveltime90 numeric
@attribute F0final_sma_de_maxPos numeric
@attribute F0final_sma_de_minPos numeric
@attribute F0final_sma_de_amean numeric
@attribute F0final_sma_de_linregc1 numeric
@attribute F0final_sma_de_linregc2 numeric
@attribute F0final_sma_de_linregerrA numeric
@attribute F0final_sma_de_linregerrQ numeric
@attribute F0final_sma_de_stddev numeric
@attribute F0final_sma_de_skewness numeric
@attribute F0final_sma_de_kurtosis numeric
@attribute F0final_sma_de_quartile1 numeric
@attribute F0final_sma_de_quartile2 numeric
@attribute F0final_sma_de_quartile3 numeric
@attribute F0final_sma_de_iqr1-2 numeric
@attribute F0final_sma_de_iqr2-3 numeric
@attribute F0final_sma_de_iqr1-3 numeric
@attribute F0final_sma_de_percentile99.0 numeric
@attribute F0final_sma_de_upleveltime75 numeric
@attribute F0final_sma_de_upleveltime90 numeric
@attribute jitterLocal_sma_de_maxPos numeric
@attribute jitterLocal_sma_de_minPos numeric
@attribute jitterLocal_sma_de_amean numeric
@attribute jitterLocal_sma_de_linregc1 numeric
@attribute jitterLocal_sma_de_linregc2 numeric
@attribute jitterLocal_sma_de_linregerrA numeric
@attribute jitterLocal_sma_de_linregerrQ numeric
@attribute jitterLocal_sma_de_stddev numeric
@attribute jitterLocal_sma_de_skewness numeric
@attribute jitterLocal_sma_de_kurtosis numeric
@attribute jitterLocal_sma_de_quartile1 numeric
@attribute jitterLocal_sma_de_quartile2 numeric
@attribute jitterLocal_sma_de_quartile3 numeric
@attribute jitterLocal_sma_de_iqr1-2 numeric
@attribute jitterLocal_sma_de_iqr2-3 numeric
@attribute jitterLocal_sma_de_iqr1-3 numeric
@attribute jitterLocal_sma_de_percentile99.0 numeric
@attribute jitterLocal_sma_de_upleveltime75 numeric
@attribute jitterLocal_sma_de_upleveltime90 numeric
@attribute jitterDDP_sma_de_maxPos numeric
@attribute jitterDDP_sma_de_minPos numeric
@attribute jitterDDP_sma_de_amean numeric
@attribute jitterDDP_sma_de_linregc1 numeric
@attribute jitterDDP_sma_de_linregc2 numeric
@attribute jitterDDP_sma_de_linregerrA numeric
@attribute jitterDDP_sma_de_linregerrQ numeric
@attribute jitterDDP_sma_de_stddev numeric
@attribute jitterDDP_sma_de_skewness numeric
@attribute jitterDDP_sma_de_kurtosis numeric
@attribute jitterDDP_sma_de_quartile1 numeric
@attribute jitterDDP_sma_de_quartile2 numeric
@attribute jitterDDP_sma_de_quartile3 numeric
@attribute jitterDDP_sma_de_iqr1-2 numeric
@attribute jitterDDP_sma_de_iqr2-3 numeric
@attribute jitterDDP_sma_de_iqr1-3 numeric
@attribute jitterDDP_sma_de_percentile99.0 numeric
@attribute jitterDDP_sma_de_upleveltime75 numeric
@attribute jitterDDP_sma_de_upleveltime90 numeric
@attribute shimmerLocal_sma_de_maxPos numeric
@attribute shimmerLocal_sma_de_minPos numeric
@attribute shimmerLocal_sma_de_amean numeric
@attribute shimmerLocal_sma_de_linregc1 numeric
@attribute shimmerLocal_sma_de_linregc2 numeric
@attribute shimmerLocal_sma_de_linregerrA numeric
@attribute shimmerLocal_sma_de_linregerrQ numeric
@attribute shimmerLocal_sma_de_stddev numeric
@attribute shimmerLocal_sma_de_skewness numeric
@attribute shimmerLocal_sma_de_kurtosis numeric
@attribute shimmerLocal_sma_de_quartile1 numeric
@attribute shimmerLocal_sma_de_quartile2 numeric
@attribute shimmerLocal_sma_de_quartile3 numeric
@attribute shimmerLocal_sma_de_iqr1-2 numeric
@attribute shimmerLocal_sma_de_iqr2-3 numeric
@attribute shimmerLocal_sma_de_iqr1-3 numeric
@attribute shimmerLocal_sma_de_percentile99.0 numeric
@attribute shimmerLocal_sma_de_upleveltime75 numeric
@attribute shimmerLocal_sma_de_upleveltime90 numeric
@attribute F0final__Turn_numOnsets numeric
@attribute F0final__Turn_duration numeric
@attribute numeric_class numeric

@data

'noname',2.600000e+001,1.210000e+002,1.517683e+000,-3.357322e-003,1.994422e+000,5.803781e-001,5.475057e-001,7.898098e-001,1.214313e+000,5.263820e+000,9.052153e-001,1.375692e+000,1.936913e+000,4.704766e-001,5.612216e-001,1.031698e+000,4.269435e-001,4.087088e+000,3.660144e+000,1.403509e-002,7.017544e-003,3.900000e+001,2.270000e+002,-9.844460e+000,-3.192189e-002,-5.311553e+000,7.036749e+000,6.828114e+001,8.670551e+000,-1.253349e-001,2.092540e+000,-1.628214e+001,-9.821197e+000,-2.223138e+000,6.460948e+000,7.598059e+000,1.405901e+001,-2.754579e+001,4.960972e+000,3.250676e+001,2.666667e-001,7.719298e-002,2.200000e+001,1.490000e+002,6.151595e+000,-3.369187e-002,1.093584e+001,7.291558e+000,9.084808e+001,9.926302e+000,-1.254046e+000,4.730682e+000,1.022595e+000,8.985311e+000,1.299451e+001,7.962716e+000,4.009199e+000,1.197191e+001,-2.730042e+001,2.165290e+001,4.895333e+001,4.561403e-001,4.561403e-002,1.460000e+002,2.200000e+001,1.588474e+000,-1.267615e-002,3.388488e+000,7.836463e+000,9.749971e+001,9.929115e+000,-2.523331e-001,2.648107e+000,-4.739510e+000,2.501233e+000,8.195187e+000,7.240743e+000,5.693954e+000,1.293470e+001,-2.093876e+001,2.086177e+001,4.180052e+001,1.508772e-001,4.912281e-002,2.620000e+002,9.000000e+000,1.062973e+001,2.722939e-002,6.763154e+000,1.117637e+001,2.114480e+002,1.471280e+001,1.045843e+000,3.706543e+000,-8.737984e-001,7.959631e+000,1.606893e+001,8.833429e+000,8.109299e+000,1.694273e+001,-1.276924e+001,5.239359e+001,6.516283e+001,8.421053e-002,2.807018e-002,2.420000e+002,1.030000e+002,-8.455927e+000,2.123912e-002,-1.147188e+001,8.825897e+000,1.167609e+002,1.094597e+001,-2.481121e-001,2.421291e+000,-1.657712e+001,-7.113866e+000,-7.269837e-001,9.463253e+000,6.386883e+000,1.585014e+001,-3.189481e+001,1.256550e+001,4.446031e+001,1.122807e-001,2.807018e-002,4.000000e+000,9.000000e+001,-1.711153e+001,2.425531e-002,-2.055579e+001,1.418550e+001,2.979648e+002,1.737662e+001,-3.496183e-001,2.246387e+000,-2.754049e+001,-1.604640e+001,-3.643243e+000,1.149409e+001,1.240315e+001,2.389724e+001,-5.606072e+001,1.317253e+001,6.923325e+001,2.421053e-001,6.666667e-002,2.000000e+001,1.490000e+002,2.221513e+000,-2.214607e-002,5.366254e+000,8.575227e+000,1.180302e+002,1.101589e+001,6.506348e-001,3.166182e+000,-5.558135e+000,1.325568e+000,7.536609e+000,6.883702e+000,6.211041e+000,1.309474e+001,-1.601168e+001,3.228658e+001,4.829825e+001,4.561403e-002,1.403509e-002,2.310000e+002,4.000000e+000,-6.993817e+000,8.370072e-002,-1.887932e+001,9.004797e+000,1.247607e+002,1.312176e+001,-3.353705e-001,2.713944e+000,-1.587051e+001,-5.174625e+000,2.045324e+000,1.069588e+001,7.219949e+000,1.791583e+001,-3.665319e+001,1.819234e+001,5.484554e+001,1.508772e-001,3.157895e-002,2.840000e+002,1.780000e+002,-1.320341e+001,-2.871006e-003,-1.279573e+001,9.840330e+000,1.521351e+002,1.233657e+001,-3.537828e-001,3.309804e+000,-2.212499e+001,-1.218731e+001,-4.716471e+000,9.937681e+000,7.470839e+000,1.740852e+001,-4.890497e+001,1.386391e+001,6.276888e+001,1.508772e-001,2.105263e-002,1.270000e+002,2.640000e+002,1.001638e+001,-2.576264e-002,1.367467e+001,1.225764e+001,2.148493e+002,1.481019e+001,1.693800e-001,2.456884e+000,-1.584018e+000,1.034892e+001,1.947782e+001,1.193294e+001,9.128903e+000,2.106184e+001,-1.911739e+001,4.325643e+001,6.237382e+001,1.298246e-001,4.210526e-002,2.730000e+002,6.400000e+001,1.037614e+001,7.353643e-002,-6.603158e-002,8.088765e+000,9.784409e+001,1.159510e+001,3.934148e-002,2.468971e+000,2.113360e+000,1.028259e+001,1.918851e+001,8.169225e+000,8.905930e+000,1.707516e+001,-1.352059e+001,3.674974e+001,5.027034e+001,1.192982e-001,2.456140e-002,2.760000e+002,1.280000e+002,-5.825804e-001,2.984435e-002,-4.820478e+000,9.720494e+000,1.562030e+002,1.273702e+001,-7.630289e-001,2.986992e+000,-7.622391e+000,2.331199e+000,8.182449e+000,9.953590e+000,5.851250e+000,1.580484e+001,-3.265084e+001,2.031129e+001,5.296212e+001,2.596491e-001,5.614035e-002,1.350000e+002,3.400000e+001,-5.715846e+000,2.849406e-002,-9.762002e+000,7.857303e+000,9.751675e+001,1.014950e+001,-4.155284e-001,2.861064e+000,-1.235660e+001,-4.579251e+000,1.565801e+000,7.777350e+000,6.145052e+000,1.392240e+001,-3.047993e+001,1.380524e+001,4.428517e+001,2.701754e-001,6.315789e-002,2.200000e+002,2.460000e+002,-7.820064e-001,1.753980e-002,-3.272658e+000,6.396431e+000,6.347513e+001,8.096757e+000,-1.927015e-001,2.869134e+000,-5.689082e+000,-4.205784e-001,4.872195e+000,5.268503e+000,5.292774e+000,1.056128e+001,-2.046544e+001,1.674003e+001,3.720547e+001,1.017544e-001,2.105263e-002,2.150000e+002,4.200000e+001,-5.343457e+000,4.604552e-002,-1.188192e+001,6.853292e+000,7.520938e+001,9.463627e+000,-6.744550e-001,3.611709e+000,-1.225654e+001,-3.667485e+000,2.206074e+000,8.589056e+000,5.873559e+000,1.446262e+001,-3.490368e+001,1.167336e+001,4.657704e+001,3.017544e-001,4.210526e-002,6.000000e+001,1.500000e+002,7.833242e-001,-9.443697e-003,2.124329e+000,1.385896e+000,2.739702e+000,1.828484e+000,-7.372310e-001,2.577494e+000,-3.581028e-001,1.231331e+000,2.057094e+000,1.589434e+000,8.257624e-001,2.415196e+000,-3.320043e+000,3.452046e+000,6.772089e+000,2.947368e-001,1.017544e-001,9.300000e+001,2.280000e+002,1.360986e+000,-8.725040e-003,2.599941e+000,1.835136e+000,4.563550e+000,2.253625e+000,-2.627704e-001,1.898929e+000,-4.723782e-001,1.524110e+000,3.182676e+000,1.996488e+000,1.658566e+000,3.655055e+000,-2.841804e+000,4.832707e+000,7.674511e+000,3.087719e-001,1.192982e-001,2.100000e+001,1.570000e+002,-5.083043e-002,-9.476499e-003,1.294832e+000,1.758482e+000,4.241235e+000,2.202065e+000,2.682196e-001,1.762121e+000,-2.000629e+000,-3.485839e-001,1.882857e+000,1.652045e+000,2.231441e+000,3.883486e+000,-3.322516e+000,4.093135e+000,7.415650e+000,2.070175e-001,5.614035e-002,2.460000e+002,7.600000e+001,-4.801275e-001,-5.843086e-003,3.495907e-001,1.542920e+000,3.367912e+000,1.897104e+000,2.686379e-001,2.010052e+000,-2.083340e+000,-6.452679e-001,1.069248e+000,1.438072e+000,1.714515e+000,3.152588e+000,-3.527458e+000,3.601030e+000,7.128489e+000,1.298246e-001,3.157895e-002,2.470000e+002,1.160000e+002,-3.809766e-001,-7.915932e-004,-2.685703e-001,1.489029e+000,2.976354e+000,1.726440e+000,1.276225e-002,1.813233e+000,-1.831003e+000,-4.846354e-001,1.166271e+000,1.346368e+000,1.650907e+000,2.997274e+000,-3.402550e+000,2.327924e+000,5.730474e+000,2.631579e-001,1.087719e-001,6.100000e+001,1.170000e+002,8.326561e-001,-1.600327e-003,1.059903e+000,1.694819e+000,4.053106e+000,2.017533e+000,5.634133e-002,2.020941e+000,-8.088254e-001,7.990501e-001,2.502646e+000,1.607876e+000,1.703596e+000,3.311472e+000,-2.830134e+000,4.500432e+000,7.330566e+000,2.245614e-001,9.122807e-002,6.100000e+001,2.270000e+002,1.497486e-001,-4.137272e-003,7.372412e-001,1.425229e+000,2.772684e+000,1.699572e+000,6.487296e-002,2.095687e+000,-1.257887e+000,1.675094e-001,1.448575e+000,1.425396e+000,1.281066e+000,2.706462e+000,-2.886099e+000,3.678887e+000,6.564987e+000,1.368421e-001,2.456140e-002,1.490000e+002,2.040000e+002,-9.524369e-001,2.020806e-004,-9.811324e-001,9.594234e-001,1.482922e+000,1.217867e+000,9.522982e-001,4.091812e+000,-1.856232e+000,-1.187525e+000,-3.021460e-001,6.687070e-001,8.853786e-001,1.554086e+000,-2.892074e+000,2.987706e+000,5.879781e+000,2.456140e-002,1.403509e-002,1.700000e+002,5.300000e+001,2.438337e-001,-2.415046e-005,2.472630e-001,4.616840e-002,2.884952e-003,5.374849e-002,6.711069e-002,1.896051e+000,1.960391e-001,2.408566e-001,2.863667e-001,4.481755e-002,4.551007e-002,9.032762e-002,1.498324e-001,3.396865e-001,1.898542e-001,1.824561e-001,6.666667e-002,1.490000e+002,4.800000e+001,4.373477e-001,3.952436e-004,3.812231e-001,8.474547e-002,1.101304e-002,1.098655e-001,9.735295e-001,3.597884e+000,3.527966e-001,4.113545e-001,5.008038e-001,5.855796e-002,8.944926e-002,1.480072e-001,2.689213e-001,7.600731e-001,4.911519e-001,3.508772e-002,1.052632e-002,8.600000e+001,1.500000e+001,9.104760e-001,5.755486e-004,8.287480e-001,1.338004e-001,2.865379e-002,1.757724e-001,8.025158e-001,2.924973e+000,7.937312e-001,8.733518e-001,1.002019e+000,7.962060e-002,1.286668e-001,2.082874e-001,6.456692e-001,1.353516e+000,7.078465e-001,1.017544e-001,3.859649e-002,2.840000e+002,5.000000e+000,1.215120e+000,5.087057e-004,1.142884e+000,1.269003e-001,2.389921e-002,1.601587e-001,-4.295951e-001,2.288917e+000,1.091287e+000,1.250707e+000,1.327041e+000,1.594206e-001,7.633388e-002,2.357545e-001,8.662330e-001,1.483019e+000,6.167856e-001,2.526316e-001,7.368421e-002,2.830000e+002,2.060000e+002,1.572721e+000,-2.307452e-004,1.605487e+000,5.610704e-002,5.866243e-003,7.890900e-002,5.164505e-001,4.701418e+000,1.532029e+000,1.572343e+000,1.615427e+000,4.031408e-002,4.308379e-002,8.339787e-002,1.405923e+000,1.798007e+000,3.920836e-001,1.754386e-002,7.017544e-003,2.830000e+002,2.420000e+002,1.711353e+000,-9.650360e-005,1.725056e+000,7.139248e-002,8.809058e-003,9.419179e-002,9.175756e-001,4.281924e+000,1.646338e+000,1.703794e+000,1.757951e+000,5.745697e-002,5.415642e-002,1.116134e-001,1.554079e+000,2.010826e+000,4.567467e-001,2.807018e-002,1.052632e-002,1.450000e+002,1.770000e+002,2.110300e+000,1.599315e-004,2.087590e+000,1.002763e-001,1.595814e-002,1.270090e-001,-5.627648e-001,2.871504e+000,2.051139e+000,2.129689e+000,2.199751e+000,7.855034e-002,7.006121e-002,1.486115e-001,1.792245e+000,2.350902e+000,5.586566e-001,1.859649e-001,2.807018e-002,1.450000e+002,2.200000e+001,2.217860e+000,1.266721e-004,2.199873e+000,7.924120e-002,8.884843e-003,9.483379e-002,-6.516657e-001,2.880308e+000,2.144565e+000,2.243603e+000,2.292571e+000,9.903717e-002,4.896808e-002,1.480052e-001,1.961488e+000,2.378973e+000,4.174855e-001,3.298246e-001,3.508772e-002,4.500000e+001,0.000000e+000,1.603393e+002,6.327055e-002,1.513549e+002,2.495833e+001,1.845408e+003,4.327244e+001,-2.731085e+000,1.082788e+001,1.618286e+002,1.618286e+002,1.774602e+002,0.000000e+000,1.563159e+001,1.563159e+001,0.000000e+000,2.059387e+002,2.059387e+002,7.684211e-001,2.421053e-001,3.700000e+001,6.000000e+000,4.974703e-001,-1.052999e-003,6.469961e-001,2.299901e-001,6.937099e-002,2.772655e-001,-4.666150e-001,1.751066e+000,2.324262e-001,4.861666e-001,7.537526e-001,2.537404e-001,2.675861e-001,5.213264e-001,0.000000e+000,8.012763e-001,8.012763e-001,4.807017e-001,3.929825e-001,3.500000e+001,2.900000e+001,1.474328e-004,-1.227523e-004,1.757826e-002,1.843404e-001,6.408794e-002,2.533573e-001,-6.635231e-002,5.676870e+000,-1.397103e-001,-7.841015e-003,1.463579e-001,1.318693e-001,1.541989e-001,2.860682e-001,-6.188576e-001,7.620249e-001,1.380883e+000,3.859649e-002,1.403509e-002,5.600000e+001,2.530000e+002,2.447543e-002,-8.280720e-004,1.420617e-001,1.682628e+000,4.303577e+000,2.075625e+000,-4.140731e-002,2.569426e+000,-1.517679e+000,9.590928e-002,1.273733e+000,1.613588e+000,1.177824e+000,2.791412e+000,-4.478336e+000,4.549888e+000,9.028224e+000,1.157895e-001,2.105263e-002,1.210000e+002,2.800000e+002,-1.021947e-001,-2.052210e-003,1.892191e-001,1.670690e+000,5.240369e+000,2.295403e+000,-3.168558e-001,4.126006e+000,-1.156273e+000,5.855160e-002,1.025210e+000,1.214824e+000,9.666585e-001,2.181483e+000,-6.185663e+000,5.100206e+000,1.128587e+001,1.087719e-001,2.105263e-002,2.520000e+002,1.670000e+002,-2.837247e-002,1.494091e-003,-2.405333e-001,1.995969e+000,6.194732e+000,2.491956e+000,-1.751358e-001,2.902804e+000,-1.739171e+000,1.427961e-001,1.629555e+000,1.881967e+000,1.486759e+000,3.368727e+000,-6.058215e+000,5.184642e+000,1.124286e+001,1.052632e-001,1.754386e-002,2.600000e+002,2.190000e+002,-3.429201e-002,-1.649189e-004,-1.087352e-002,2.614159e+000,1.331330e+001,3.648764e+000,5.941820e-001,5.456039e+000,-1.913348e+000,-2.069686e-001,1.685914e+000,1.706380e+000,1.892882e+000,3.599262e+000,-9.390061e+000,1.194622e+001,2.133628e+001,2.807018e-002,1.052632e-002,6.000000e+000,1.970000e+002,-4.879170e-002,-1.285533e-006,-4.860915e-002,2.276402e+000,8.811776e+000,2.968464e+000,-1.883292e-001,3.116300e+000,-1.526777e+000,1.408056e-001,1.825373e+000,1.667582e+000,1.684568e+000,3.352150e+000,-7.376509e+000,7.020292e+000,1.439680e+001,1.017544e-001,3.157895e-002,2.190000e+002,5.700000e+001,2.173602e-002,3.519128e-003,-4.779801e-001,3.237999e+000,1.708861e+001,4.143964e+000,-9.610618e-002,3.295386e+000,-2.381810e+000,-1.534837e-001,2.833816e+000,2.228326e+000,2.987300e+000,5.215626e+000,-1.048702e+001,9.024200e+000,1.951122e+001,8.070175e-002,7.017544e-003,2.000000e+000,2.170000e+002,-2.589205e-002,-5.431615e-004,5.123688e-002,2.330210e+000,8.421608e+000,2.902345e+000,-7.356943e-002,2.873862e+000,-2.004592e+000,2.014776e-001,1.998113e+000,2.206070e+000,1.796635e+000,4.002706e+000,-6.907234e+000,7.030325e+000,1.393756e+001,7.719298e-002,1.754386e-002,5.000000e+001,2.330000e+002,4.596665e-002,-9.388194e-004,1.792790e-001,2.535264e+000,9.867612e+000,3.142225e+000,-3.260024e-002,2.858025e+000,-1.770475e+000,-1.981002e-001,2.436858e+000,1.572374e+000,2.634959e+000,4.207333e+000,-7.508422e+000,7.007574e+000,1.451600e+001,1.087719e-001,2.456140e-002,5.000000e+001,1.970000e+002,6.948132e-002,2.957478e-003,-3.504806e-001,2.933625e+000,1.284117e+001,3.591709e+000,-6.263426e-002,2.544339e+000,-2.333930e+000,3.021107e-002,2.616373e+000,2.364141e+000,2.586162e+000,4.950302e+000,-7.252210e+000,7.644803e+000,1.489701e+001,1.649123e-001,2.105263e-002,1.660000e+002,1.740000e+002,2.864978e-002,-8.022846e-005,4.004223e-002,2.836823e+000,1.288302e+001,3.589299e+000,1.354899e-002,3.068634e+000,-2.296055e+000,6.004410e-002,2.172728e+000,2.356099e+000,2.112684e+000,4.468783e+000,-8.773551e+000,8.427746e+000,1.720130e+001,8.421053e-002,1.403509e-002,2.380000e+002,2.790000e+002,2.289076e-002,-1.814065e-003,2.804879e-001,2.140751e+000,7.566234e+000,2.754725e+000,1.361817e-001,3.263604e+000,-1.703402e+000,-1.022109e-001,1.926460e+000,1.601191e+000,2.028671e+000,3.629862e+000,-6.241107e+000,7.429881e+000,1.367099e+001,5.263158e-002,1.403509e-002,2.570000e+002,9.500000e+001,7.794299e-002,2.014335e-004,4.933943e-002,2.418006e+000,9.858480e+000,3.139865e+000,-7.177595e-001,3.872001e+000,-1.632085e+000,1.539856e-001,2.369881e+000,1.786071e+000,2.215896e+000,4.001967e+000,-9.070411e+000,5.912958e+000,1.498337e+001,2.140351e-001,2.105263e-002,1.000000e+001,3.200000e+001,4.514178e-002,1.399276e-004,2.527205e-002,2.132230e+000,7.245015e+000,2.691681e+000,-3.479959e-001,3.239627e+000,-1.621096e+000,1.822542e-001,1.945420e+000,1.803350e+000,1.763166e+000,3.566516e+000,-6.525531e+000,5.572367e+000,1.209790e+001,2.280702e-001,3.508772e-002,2.180000e+002,2.440000e+002,2.359574e-002,5.648063e-004,-5.660675e-002,1.909675e+000,5.736088e+000,2.395464e+000,1.388804e-001,2.821543e+000,-1.510329e+000,-1.389378e-001,1.772072e+000,1.371391e+000,1.911010e+000,3.282401e+000,-5.211487e+000,5.421253e+000,1.063274e+001,1.052632e-001,2.807018e-002,1.300000e+001,3.600000e+001,-2.023514e-002,-2.074730e-004,9.226023e-003,1.650387e+000,4.790625e+000,2.188816e+000,-5.774433e-001,4.396623e+000,-1.211842e+000,4.829769e-002,1.408748e+000,1.260139e+000,1.360450e+000,2.620590e+000,-5.877673e+000,5.050735e+000,1.092841e+001,2.315789e-001,2.456140e-002,1.960000e+002,2.210000e+002,-1.271918e-002,-2.455449e-004,2.214820e-002,2.823777e-001,1.666713e-001,4.087534e-001,2.551195e-001,3.704605e+000,-2.098420e-001,-4.929137e-003,1.152865e-001,2.049129e-001,1.202156e-001,3.251285e-001,-9.121501e-001,1.068614e+000,1.980764e+000,9.122807e-002,4.210526e-002,5.700000e+001,5.000000e+001,-3.729005e-003,-3.624164e-004,4.773413e-002,3.897266e-001,2.493404e-001,5.002294e-001,1.003455e-001,3.093969e+000,-3.118004e-001,-8.088319e-003,2.972871e-001,3.037121e-001,3.053754e-001,6.090875e-001,-1.082980e+000,1.239776e+000,2.322756e+000,5.614035e-002,1.403509e-002,2.430000e+002,2.520000e+002,-1.730124e-004,-3.100810e-004,4.385849e-002,3.691137e-001,2.189130e-001,4.685763e-001,2.493798e-001,2.794710e+000,-3.155272e-001,-4.744124e-002,2.972759e-001,2.680860e-001,3.447172e-001,6.128031e-001,-9.430925e-001,1.122473e+000,2.065565e+000,9.122807e-002,3.157895e-002,2.000000e+000,1.140000e+002,9.191902e-004,-2.097208e-004,3.069955e-002,3.530213e-001,1.997759e-001,4.472958e-001,9.044234e-002,2.788594e+000,-2.926362e-001,-1.447401e-002,3.035808e-001,2.781622e-001,3.180548e-001,5.962169e-001,-1.010141e+000,1.023801e+000,2.033942e+000,1.017544e-001,2.105263e-002,5.700000e+001,2.650000e+002,5.220050e-003,-2.229691e-004,3.688166e-002,3.534676e-001,1.891411e-001,4.352902e-001,-8.183659e-002,2.749422e+000,-3.201442e-001,1.102548e-002,3.397260e-001,3.311697e-001,3.287005e-001,6.598703e-001,-1.052042e+000,9.718992e-001,2.023941e+000,9.824561e-002,2.105263e-002,5.700000e+001,2.530000e+002,5.841658e-003,-2.609593e-004,4.289788e-002,4.179060e-001,2.705925e-001,5.206279e-001,-4.785555e-002,2.721922e+000,-3.605032e-001,2.630872e-002,3.599253e-001,3.868119e-001,3.336166e-001,7.204285e-001,-1.110849e+000,1.094964e+000,2.205812e+000,7.719298e-002,1.052632e-002,5.600000e+001,2.380000e+002,1.205359e-002,5.218439e-005,4.643403e-003,3.849739e-001,2.216812e-001,4.708499e-001,1.083550e-001,2.306752e+000,-3.431315e-001,6.763172e-003,3.479757e-001,3.498947e-001,3.412125e-001,6.911072e-001,-9.067494e-001,9.840019e-001,1.890751e+000,1.298246e-001,3.508772e-002,2.570000e+002,1.510000e+002,1.366532e-002,1.601418e-004,-9.074818e-003,2.338832e-001,1.024727e-001,3.203846e-001,6.412462e-001,4.684013e+000,-1.739713e-001,-3.256500e-002,1.575721e-001,1.414063e-001,1.901371e-001,3.315434e-001,-6.870036e-001,1.000716e+000,1.687720e+000,6.666667e-002,1.754386e-002,1.670000e+002,8.200000e+001,5.405964e-004,-2.175107e-006,8.494616e-004,1.198402e-002,2.348809e-004,1.532687e-002,2.867373e-001,3.286321e+000,-9.770420e-003,-4.027039e-005,9.517500e-003,9.730150e-003,9.557771e-003,1.928792e-002,-3.488706e-002,4.220563e-002,7.709269e-002,8.771930e-002,2.105263e-002,7.800000e+001,8.200000e+001,1.145516e-003,1.739882e-005,-1.325117e-003,2.131196e-002,8.069181e-004,2.844235e-002,-2.754348e-001,3.617664e+000,-1.321656e-002,2.015194e-003,1.781094e-002,1.523175e-002,1.579574e-002,3.102749e-002,-7.745768e-002,6.676759e-002,1.442253e-001,1.263158e-001,2.807018e-002,8.300000e+001,2.190000e+002,9.506470e-004,8.029948e-006,-1.896056e-004,2.969699e-002,1.496029e-003,3.868417e-002,3.662817e-002,3.435414e+000,-2.570118e-002,2.385140e-004,2.357550e-002,2.593969e-002,2.333699e-002,4.927668e-002,-8.830716e-002,9.759197e-002,1.858991e-001,1.052632e-001,2.807018e-002,2.800000e+002,1.800000e+002,1.033231e-003,1.508012e-005,-1.108146e-003,2.790440e-002,1.371575e-003,3.705555e-002,5.999022e-002,3.988993e+000,-2.108275e-002,9.983063e-004,2.227401e-002,2.208105e-002,2.127570e-002,4.335675e-002,-8.793633e-002,8.909740e-002,1.770337e-001,2.456140e-002,7.017544e-003,2.810000e+002,2.010000e+002,6.884215e-004,3.122949e-005,-3.746166e-003,1.548755e-002,3.862569e-004,1.982065e-002,5.246547e-001,4.144369e+000,-1.444979e-002,7.250905e-004,1.317304e-002,1.517488e-002,1.244795e-002,2.762283e-002,-3.764113e-002,5.319049e-002,9.083162e-002,1.052632e-002,7.017544e-003,2.800000e+002,1.520000e+002,8.430883e-004,3.119853e-005,-3.587103e-003,1.935434e-002,6.192407e-004,2.501657e-002,7.020603e-001,4.414573e+000,-1.702029e-002,-3.472566e-005,1.408393e-002,1.698556e-002,1.411866e-002,3.110422e-002,-4.962530e-002,7.280958e-002,1.224349e-001,1.754386e-002,7.017544e-003,1.830000e+002,1.960000e+002,1.396306e-004,1.845560e-005,-2.481065e-003,2.245603e-002,8.185291e-004,2.865021e-002,5.759209e-002,3.281066e+000,-1.762943e-002,4.129648e-004,1.788139e-002,1.804240e-002,1.746843e-002,3.551083e-002,-6.681783e-002,7.013900e-002,1.369568e-001,4.561403e-002,7.017544e-003,2.800000e+001,2.440000e+002,1.498604e-004,1.127487e-005,-1.451171e-003,1.941535e-002,5.811274e-004,2.412442e-002,6.047413e-002,2.802037e+000,-1.556220e-002,-6.776571e-004,1.659532e-002,1.488454e-002,1.727297e-002,3.215752e-002,-4.851959e-002,5.649414e-002,1.050137e-001,4.210526e-002,7.017544e-003,1.700000e+001,8.700000e+001,5.774810e-001,-1.153082e-002,2.214858e+000,1.706869e+000,2.595440e+001,5.182119e+000,8.016865e+000,7.160593e+001,0.000000e+000,0.000000e+000,0.000000e+000,0.000000e+000,0.000000e+000,0.000000e+000,-3.661538e+000,3.175633e+001,3.541787e+001,7.017544e-003,7.017544e-003,5.700000e+001,4.700000e+001,-2.123845e-004,-3.545597e-005,4.822363e-003,5.747526e-002,6.792438e-003,8.246785e-002,-1.923755e-003,3.460081e+000,-4.720087e-002,6.127000e-004,4.640013e-002,4.781357e-002,4.578743e-002,9.360100e-002,-1.968940e-001,1.934869e-001,3.903810e-001,1.122807e-001,3.508772e-002,2.800000e+001,8.000000e+001,1.567356e+002,-1.010239e+000,2.016912e+002,3.045644e+001,1.628336e+003,4.813673e+001,-9.691629e-001,2.779693e+000,1.293206e+002,1.726440e+002,1.971231e+002,4.332336e+001,2.447913e+001,6.780249e+001,2.067020e+002,5.666667e-001,3.111111e-001,1.900000e+001,8.500000e+001,6.779490e-003,-1.499689e-005,7.446852e-003,3.183437e-003,1.668313e-005,4.103038e-003,1.125361e+000,3.840018e+000,3.686120e-003,5.758675e-003,8.291006e-003,2.072556e-003,2.532331e-003,4.604886e-003,1.879138e-002,7.777778e-002,2.222222e-002,1.800000e+001,8.000000e+001,4.992545e-003,-1.440187e-005,5.590222e-003,2.407209e-003,8.839026e-006,2.993488e-003,8.901549e-001,3.416803e+000,2.566434e-003,4.478336e-003,6.949947e-003,1.911902e-003,2.471611e-003,4.383513e-003,1.321673e-002,4.761905e-002,2.380952e-002,8.300000e+001,0.000000e+000,9.581438e-002,6.982808e-004,6.474088e-002,2.835844e-002,1.285796e-003,4.018560e-002,2.150061e-001,3.417592e+000,6.668232e-002,9.607205e-002,1.219325e-001,2.938972e-002,2.586041e-002,5.525013e-002,1.833530e-001,1.111111e-002,1.111111e-002,3.000000e+000,3.300000e+001,9.194768e-009,-1.142642e-001,6.455928e+000,1.668962e+001,5.549771e+002,2.385615e+001,-7.039769e-002,3.075093e+000,-1.092000e+001,2.354248e-001,1.066011e+001,1.115543e+001,1.042468e+001,2.158010e+001,5.084803e+001,1.754386e-001,7.017544e-002,2.000000e+000,2.300000e+001,-2.114176e-012,-4.942420e-006,2.792467e-004,1.474655e-003,3.870550e-006,1.974083e-003,2.247717e-001,3.043741e+000,-9.579301e-004,-2.117288e-004,1.065714e-003,7.462014e-004,1.277443e-003,2.023644e-003,4.707952e-003,1.315790e-001,4.385965e-002,2.700000e+001,2.200000e+001,4.436974e-012,-4.092476e-006,2.169012e-004,1.001223e-003,1.728419e-006,1.320756e-003,7.156902e-003,3.083631e+000,-7.869153e-004,-4.044700e-005,7.936397e-004,7.464683e-004,8.340867e-004,1.580555e-003,2.912996e-003,1.308411e-001,5.607476e-002,9.900000e+001,1.030000e+002,1.725806e-010,-6.985111e-005,3.946588e-003,1.648625e-002,4.643931e-004,2.167203e-002,2.530260e-002,3.173208e+000,-1.206176e-002,1.328481e-003,1.243500e-002,1.339024e-002,1.110652e-002,2.449675e-002,4.844436e-002,7.894737e-002,8.771930e-003,6.000000e+000,2.870000e+000,0.0
