@relation SMILEfeatures

@attribute name string
@attribute pcm_loudness_sma_maxPos numeric
@attribute pcm_loudness_sma_minPos numeric
@attribute pcm_loudness_sma_amean numeric
@attribute pcm_loudness_sma_linregc1 numeric
@attribute pcm_loudness_sma_linregc2 numeric
@attribute pcm_loudness_sma_linregerrA numeric
@attribute pcm_loudness_sma_linregerrQ numeric
@attribute pcm_loudness_sma_stddev numeric
@attribute pcm_loudness_sma_skewness numeric
@attribute pcm_loudness_sma_kurtosis numeric
@attribute pcm_loudness_sma_quartile1 numeric
@attribute pcm_loudness_sma_quartile2 numeric
@attribute pcm_loudness_sma_quartile3 numeric
@attribute pcm_loudness_sma_iqr1-2 numeric
@attribute pcm_loudness_sma_iqr2-3 numeric
@attribute pcm_loudness_sma_iqr1-3 numeric
@attribute pcm_loudness_sma_percentile1.0 numeric
@attribute pcm_loudness_sma_percentile99.0 numeric
@attribute pcm_loudness_sma_pctlrange0-1 numeric
@attribute pcm_loudness_sma_upleveltime75 numeric
@attribute pcm_loudness_sma_upleveltime90 numeric
@attribute mfcc_sma[0]_maxPos numeric
@attribute mfcc_sma[0]_minPos numeric
@attribute mfcc_sma[0]_amean numeric
@attribute mfcc_sma[0]_linregc1 numeric
@attribute mfcc_sma[0]_linregc2 numeric
@attribute mfcc_sma[0]_linregerrA numeric
@attribute mfcc_sma[0]_linregerrQ numeric
@attribute mfcc_sma[0]_stddev numeric
@attribute mfcc_sma[0]_skewness numeric
@attribute mfcc_sma[0]_kurtosis numeric
@attribute mfcc_sma[0]_quartile1 numeric
@attribute mfcc_sma[0]_quartile2 numeric
@attribute mfcc_sma[0]_quartile3 numeric
@attribute mfcc_sma[0]_iqr1-2 numeric
@attribute mfcc_sma[0]_iqr2-3 numeric
@attribute mfcc_sma[0]_iqr1-3 numeric
@attribute mfcc_sma[0]_percentile1.0 numeric
@attribute mfcc_sma[0]_percentile99.0 numeric
@attribute mfcc_sma[0]_pctlrange0-1 numeric
@attribute mfcc_sma[0]_upleveltime75 numeric
@attribute mfcc_sma[0]_upleveltime90 numeric
@attribute mfcc_sma[1]_maxPos numeric
@attribute mfcc_sma[1]_minPos numeric
@attribute mfcc_sma[1]_amean numeric
@attribute mfcc_sma[1]_linregc1 numeric
@attribute mfcc_sma[1]_linregc2 numeric
@attribute mfcc_sma[1]_linregerrA numeric
@attribute mfcc_sma[1]_linregerrQ numeric
@attribute mfcc_sma[1]_stddev numeric
@attribute mfcc_sma[1]_skewness numeric
@attribute mfcc_sma[1]_kurtosis numeric
@attribute mfcc_sma[1]_quartile1 numeric
@attribute mfcc_sma[1]_quartile2 numeric
@attribute mfcc_sma[1]_quartile3 numeric
@attribute mfcc_sma[1]_iqr1-2 numeric
@attribute mfcc_sma[1]_iqr2-3 numeric
@attribute mfcc_sma[1]_iqr1-3 numeric
@attribute mfcc_sma[1]_percentile1.0 numeric
@attribute mfcc_sma[1]_percentile99.0 numeric
@attribute mfcc_sma[1]_pctlrange0-1 numeric
@attribute mfcc_sma[1]_upleveltime75 numeric
@attribute mfcc_sma[1]_upleveltime90 numeric
@attribute mfcc_sma[2]_maxPos numeric
@attribute mfcc_sma[2]_minPos numeric
@attribute mfcc_sma[2]_amean numeric
@attribute mfcc_sma[2]_linregc1 numeric
@attribute mfcc_sma[2]_linregc2 numeric
@attribute mfcc_sma[2]_linregerrA numeric
@attribute mfcc_sma[2]_linregerrQ numeric
@attribute mfcc_sma[2]_stddev numeric
@attribute mfcc_sma[2]_skewness numeric
@attribute mfcc_sma[2]_kurtosis numeric
@attribute mfcc_sma[2]_quartile1 numeric
@attribute mfcc_sma[2]_quartile2 numeric
@attribute mfcc_sma[2]_quartile3 numeric
@attribute mfcc_sma[2]_iqr1-2 numeric
@attribute mfcc_sma[2]_iqr2-3 numeric
@attribute mfcc_sma[2]_iqr1-3 numeric
@attribute mfcc_sma[2]_percentile1.0 numeric
@attribute mfcc_sma[2]_percentile99.0 numeric
@attribute mfcc_sma[2]_pctlrange0-1 numeric
@attribute mfcc_sma[2]_upleveltime75 numeric
@attribute mfcc_sma[2]_upleveltime90 numeric
@attribute mfcc_sma[3]_maxPos numeric
@attribute mfcc_sma[3]_minPos numeric
@attribute mfcc_sma[3]_amean numeric
@attribute mfcc_sma[3]_linregc1 numeric
@attribute mfcc_sma[3]_linregc2 numeric
@attribute mfcc_sma[3]_linregerrA numeric
@attribute mfcc_sma[3]_linregerrQ numeric
@attribute mfcc_sma[3]_stddev numeric
@attribute mfcc_sma[3]_skewness numeric
@attribute mfcc_sma[3]_kurtosis numeric
@attribute mfcc_sma[3]_quartile1 numeric
@attribute mfcc_sma[3]_quartile2 numeric
@attribute mfcc_sma[3]_quartile3 numeric
@attribute mfcc_sma[3]_iqr1-2 numeric
@attribute mfcc_sma[3]_iqr2-3 numeric
@attribute mfcc_sma[3]_iqr1-3 numeric
@attribute mfcc_sma[3]_percentile1.0 numeric
@attribute mfcc_sma[3]_percentile99.0 numeric
@attribute mfcc_sma[3]_pctlrange0-1 numeric
@attribute mfcc_sma[3]_upleveltime75 numeric
@attribute mfcc_sma[3]_upleveltime90 numeric
@attribute mfcc_sma[4]_maxPos numeric
@attribute mfcc_sma[4]_minPos numeric
@attribute mfcc_sma[4]_amean numeric
@attribute mfcc_sma[4]_linregc1 numeric
@attribute mfcc_sma[4]_linregc2 numeric
@attribute mfcc_sma[4]_linregerrA numeric
@attribute mfcc_sma[4]_linregerrQ numeric
@attribute mfcc_sma[4]_stddev numeric
@attribute mfcc_sma[4]_skewness numeric
@attribute mfcc_sma[4]_kurtosis numeric
@attribute mfcc_sma[4]_quartile1 numeric
@attribute mfcc_sma[4]_quartile2 numeric
@attribute mfcc_sma[4]_quartile3 numeric
@attribute mfcc_sma[4]_iqr1-2 numeric
@attribute mfcc_sma[4]_iqr2-3 numeric
@attribute mfcc_sma[4]_iqr1-3 numeric
@attribute mfcc_sma[4]_percentile1.0 numeric
@attribute mfcc_sma[4]_percentile99.0 numeric
@attribute mfcc_sma[4]_pctlrange0-1 numeric
@attribute mfcc_sma[4]_upleveltime75 numeric
@attribute mfcc_sma[4]_upleveltime90 numeric
@attribute mfcc_sma[5]_maxPos numeric
@attribute mfcc_sma[5]_minPos numeric
@attribute mfcc_sma[5]_amean numeric
@attribute mfcc_sma[5]_linregc1 numeric
@attribute mfcc_sma[5]_linregc2 numeric
@attribute mfcc_sma[5]_linregerrA numeric
@attribute mfcc_sma[5]_linregerrQ numeric
@attribute mfcc_sma[5]_stddev numeric
@attribute mfcc_sma[5]_skewness numeric
@attribute mfcc_sma[5]_kurtosis numeric
@attribute mfcc_sma[5]_quartile1 numeric
@attribute mfcc_sma[5]_quartile2 numeric
@attribute mfcc_sma[5]_quartile3 numeric
@attribute mfcc_sma[5]_iqr1-2 numeric
@attribute mfcc_sma[5]_iqr2-3 numeric
@attribute mfcc_sma[5]_iqr1-3 numeric
@attribute mfcc_sma[5]_percentile1.0 numeric
@attribute mfcc_sma[5]_percentile99.0 numeric
@attribute mfcc_sma[5]_pctlrange0-1 numeric
@attribute mfcc_sma[5]_upleveltime75 numeric
@attribute mfcc_sma[5]_upleveltime90 numeric
@attribute mfcc_sma[6]_maxPos numeric
@attribute mfcc_sma[6]_minPos numeric
@attribute mfcc_sma[6]_amean numeric
@attribute mfcc_sma[6]_linregc1 numeric
@attribute mfcc_sma[6]_linregc2 numeric
@attribute mfcc_sma[6]_linregerrA numeric
@attribute mfcc_sma[6]_linregerrQ numeric
@attribute mfcc_sma[6]_stddev numeric
@attribute mfcc_sma[6]_skewness numeric
@attribute mfcc_sma[6]_kurtosis numeric
@attribute mfcc_sma[6]_quartile1 numeric
@attribute mfcc_sma[6]_quartile2 numeric
@attribute mfcc_sma[6]_quartile3 numeric
@attribute mfcc_sma[6]_iqr1-2 numeric
@attribute mfcc_sma[6]_iqr2-3 numeric
@attribute mfcc_sma[6]_iqr1-3 numeric
@attribute mfcc_sma[6]_percentile1.0 numeric
@attribute mfcc_sma[6]_percentile99.0 numeric
@attribute mfcc_sma[6]_pctlrange0-1 numeric
@attribute mfcc_sma[6]_upleveltime75 numeric
@attribute mfcc_sma[6]_upleveltime90 numeric
@attribute mfcc_sma[7]_maxPos numeric
@attribute mfcc_sma[7]_minPos numeric
@attribute mfcc_sma[7]_amean numeric
@attribute mfcc_sma[7]_linregc1 numeric
@attribute mfcc_sma[7]_linregc2 numeric
@attribute mfcc_sma[7]_linregerrA numeric
@attribute mfcc_sma[7]_linregerrQ numeric
@attribute mfcc_sma[7]_stddev numeric
@attribute mfcc_sma[7]_skewness numeric
@attribute mfcc_sma[7]_kurtosis numeric
@attribute mfcc_sma[7]_quartile1 numeric
@attribute mfcc_sma[7]_quartile2 numeric
@attribute mfcc_sma[7]_quartile3 numeric
@attribute mfcc_sma[7]_iqr1-2 numeric
@attribute mfcc_sma[7]_iqr2-3 numeric
@attribute mfcc_sma[7]_iqr1-3 numeric
@attribute mfcc_sma[7]_percentile1.0 numeric
@attribute mfcc_sma[7]_percentile99.0 numeric
@attribute mfcc_sma[7]_pctlrange0-1 numeric
@attribute mfcc_sma[7]_upleveltime75 numeric
@attribute mfcc_sma[7]_upleveltime90 numeric
@attribute mfcc_sma[8]_maxPos numeric
@attribute mfcc_sma[8]_minPos numeric
@attribute mfcc_sma[8]_amean numeric
@attribute mfcc_sma[8]_linregc1 numeric
@attribute mfcc_sma[8]_linregc2 numeric
@attribute mfcc_sma[8]_linregerrA numeric
@attribute mfcc_sma[8]_linregerrQ numeric
@attribute mfcc_sma[8]_stddev numeric
@attribute mfcc_sma[8]_skewness numeric
@attribute mfcc_sma[8]_kurtosis numeric
@attribute mfcc_sma[8]_quartile1 numeric
@attribute mfcc_sma[8]_quartile2 numeric
@attribute mfcc_sma[8]_quartile3 numeric
@attribute mfcc_sma[8]_iqr1-2 numeric
@attribute mfcc_sma[8]_iqr2-3 numeric
@attribute mfcc_sma[8]_iqr1-3 numeric
@attribute mfcc_sma[8]_percentile1.0 numeric
@attribute mfcc_sma[8]_percentile99.0 numeric
@attribute mfcc_sma[8]_pctlrange0-1 numeric
@attribute mfcc_sma[8]_upleveltime75 numeric
@attribute mfcc_sma[8]_upleveltime90 numeric
@attribute mfcc_sma[9]_maxPos numeric
@attribute mfcc_sma[9]_minPos numeric
@attribute mfcc_sma[9]_amean numeric
@attribute mfcc_sma[9]_linregc1 numeric
@attribute mfcc_sma[9]_linregc2 numeric
@attribute mfcc_sma[9]_linregerrA numeric
@attribute mfcc_sma[9]_linregerrQ numeric
@attribute mfcc_sma[9]_stddev numeric
@attribute mfcc_sma[9]_skewness numeric
@attribute mfcc_sma[9]_kurtosis numeric
@attribute mfcc_sma[9]_quartile1 numeric
@attribute mfcc_sma[9]_quartile2 numeric
@attribute mfcc_sma[9]_quartile3 numeric
@attribute mfcc_sma[9]_iqr1-2 numeric
@attribute mfcc_sma[9]_iqr2-3 numeric
@attribute mfcc_sma[9]_iqr1-3 numeric
@attribute mfcc_sma[9]_percentile1.0 numeric
@attribute mfcc_sma[9]_percentile99.0 numeric
@attribute mfcc_sma[9]_pctlrange0-1 numeric
@attribute mfcc_sma[9]_upleveltime75 numeric
@attribute mfcc_sma[9]_upleveltime90 numeric
@attribute mfcc_sma[10]_maxPos numeric
@attribute mfcc_sma[10]_minPos numeric
@attribute mfcc_sma[10]_amean numeric
@attribute mfcc_sma[10]_linregc1 numeric
@attribute mfcc_sma[10]_linregc2 numeric
@attribute mfcc_sma[10]_linregerrA numeric
@attribute mfcc_sma[10]_linregerrQ numeric
@attribute mfcc_sma[10]_stddev numeric
@attribute mfcc_sma[10]_skewness numeric
@attribute mfcc_sma[10]_kurtosis numeric
@attribute mfcc_sma[10]_quartile1 numeric
@attribute mfcc_sma[10]_quartile2 numeric
@attribute mfcc_sma[10]_quartile3 numeric
@attribute mfcc_sma[10]_iqr1-2 numeric
@attribute mfcc_sma[10]_iqr2-3 numeric
@attribute mfcc_sma[10]_iqr1-3 numeric
@attribute mfcc_sma[10]_percentile1.0 numeric
@attribute mfcc_sma[10]_percentile99.0 numeric
@attribute mfcc_sma[10]_pctlrange0-1 numeric
@attribute mfcc_sma[10]_upleveltime75 numeric
@attribute mfcc_sma[10]_upleveltime90 numeric
@attribute mfcc_sma[11]_maxPos numeric
@attribute mfcc_sma[11]_minPos numeric
@attribute mfcc_sma[11]_amean numeric
@attribute mfcc_sma[11]_linregc1 numeric
@attribute mfcc_sma[11]_linregc2 numeric
@attribute mfcc_sma[11]_linregerrA numeric
@attribute mfcc_sma[11]_linregerrQ numeric
@attribute mfcc_sma[11]_stddev numeric
@attribute mfcc_sma[11]_skewness numeric
@attribute mfcc_sma[11]_kurtosis numeric
@attribute mfcc_sma[11]_quartile1 numeric
@attribute mfcc_sma[11]_quartile2 numeric
@attribute mfcc_sma[11]_quartile3 numeric
@attribute mfcc_sma[11]_iqr1-2 numeric
@attribute mfcc_sma[11]_iqr2-3 numeric
@attribute mfcc_sma[11]_iqr1-3 numeric
@attribute mfcc_sma[11]_percentile1.0 numeric
@attribute mfcc_sma[11]_percentile99.0 numeric
@attribute mfcc_sma[11]_pctlrange0-1 numeric
@attribute mfcc_sma[11]_upleveltime75 numeric
@attribute mfcc_sma[11]_upleveltime90 numeric
@attribute mfcc_sma[12]_maxPos numeric
@attribute mfcc_sma[12]_minPos numeric
@attribute mfcc_sma[12]_amean numeric
@attribute mfcc_sma[12]_linregc1 numeric
@attribute mfcc_sma[12]_linregc2 numeric
@attribute mfcc_sma[12]_linregerrA numeric
@attribute mfcc_sma[12]_linregerrQ numeric
@attribute mfcc_sma[12]_stddev numeric
@attribute mfcc_sma[12]_skewness numeric
@attribute mfcc_sma[12]_kurtosis numeric
@attribute mfcc_sma[12]_quartile1 numeric
@attribute mfcc_sma[12]_quartile2 numeric
@attribute mfcc_sma[12]_quartile3 numeric
@attribute mfcc_sma[12]_iqr1-2 numeric
@attribute mfcc_sma[12]_iqr2-3 numeric
@attribute mfcc_sma[12]_iqr1-3 numeric
@attribute mfcc_sma[12]_percentile1.0 numeric
@attribute mfcc_sma[12]_percentile99.0 numeric
@attribute mfcc_sma[12]_pctlrange0-1 numeric
@attribute mfcc_sma[12]_upleveltime75 numeric
@attribute mfcc_sma[12]_upleveltime90 numeric
@attribute mfcc_sma[13]_maxPos numeric
@attribute mfcc_sma[13]_minPos numeric
@attribute mfcc_sma[13]_amean numeric
@attribute mfcc_sma[13]_linregc1 numeric
@attribute mfcc_sma[13]_linregc2 numeric
@attribute mfcc_sma[13]_linregerrA numeric
@attribute mfcc_sma[13]_linregerrQ numeric
@attribute mfcc_sma[13]_stddev numeric
@attribute mfcc_sma[13]_skewness numeric
@attribute mfcc_sma[13]_kurtosis numeric
@attribute mfcc_sma[13]_quartile1 numeric
@attribute mfcc_sma[13]_quartile2 numeric
@attribute mfcc_sma[13]_quartile3 numeric
@attribute mfcc_sma[13]_iqr1-2 numeric
@attribute mfcc_sma[13]_iqr2-3 numeric
@attribute mfcc_sma[13]_iqr1-3 numeric
@attribute mfcc_sma[13]_percentile1.0 numeric
@attribute mfcc_sma[13]_percentile99.0 numeric
@attribute mfcc_sma[13]_pctlrange0-1 numeric
@attribute mfcc_sma[13]_upleveltime75 numeric
@attribute mfcc_sma[13]_upleveltime90 numeric
@attribute mfcc_sma[14]_maxPos numeric
@attribute mfcc_sma[14]_minPos numeric
@attribute mfcc_sma[14]_amean numeric
@attribute mfcc_sma[14]_linregc1 numeric
@attribute mfcc_sma[14]_linregc2 numeric
@attribute mfcc_sma[14]_linregerrA numeric
@attribute mfcc_sma[14]_linregerrQ numeric
@attribute mfcc_sma[14]_stddev numeric
@attribute mfcc_sma[14]_skewness numeric
@attribute mfcc_sma[14]_kurtosis numeric
@attribute mfcc_sma[14]_quartile1 numeric
@attribute mfcc_sma[14]_quartile2 numeric
@attribute mfcc_sma[14]_quartile3 numeric
@attribute mfcc_sma[14]_iqr1-2 numeric
@attribute mfcc_sma[14]_iqr2-3 numeric
@attribute mfcc_sma[14]_iqr1-3 numeric
@attribute mfcc_sma[14]_percentile1.0 numeric
@attribute mfcc_sma[14]_percentile99.0 numeric
@attribute mfcc_sma[14]_pctlrange0-1 numeric
@attribute mfcc_sma[14]_upleveltime75 numeric
@attribute mfcc_sma[14]_upleveltime90 numeric
@attribute logMelFreqBand_sma[0]_maxPos numeric
@attribute logMelFreqBand_sma[0]_minPos numeric
@attribute logMelFreqBand_sma[0]_amean numeric
@attribute logMelFreqBand_sma[0]_linregc1 numeric
@attribute logMelFreqBand_sma[0]_linregc2 numeric
@attribute logMelFreqBand_sma[0]_linregerrA numeric
@attribute logMelFreqBand_sma[0]_linregerrQ numeric
@attribute logMelFreqBand_sma[0]_stddev numeric
@attribute logMelFreqBand_sma[0]_skewness numeric
@attribute logMelFreqBand_sma[0]_kurtosis numeric
@attribute logMelFreqBand_sma[0]_quartile1 numeric
@attribute logMelFreqBand_sma[0]_quartile2 numeric
@attribute logMelFreqBand_sma[0]_quartile3 numeric
@attribute logMelFreqBand_sma[0]_iqr1-2 numeric
@attribute logMelFreqBand_sma[0]_iqr2-3 numeric
@attribute logMelFreqBand_sma[0]_iqr1-3 numeric
@attribute logMelFreqBand_sma[0]_percentile1.0 numeric
@attribute logMelFreqBand_sma[0]_percentile99.0 numeric
@attribute logMelFreqBand_sma[0]_pctlrange0-1 numeric
@attribute logMelFreqBand_sma[0]_upleveltime75 numeric
@attribute logMelFreqBand_sma[0]_upleveltime90 numeric
@attribute logMelFreqBand_sma[1]_maxPos numeric
@attribute logMelFreqBand_sma[1]_minPos numeric
@attribute logMelFreqBand_sma[1]_amean numeric
@attribute logMelFreqBand_sma[1]_linregc1 numeric
@attribute logMelFreqBand_sma[1]_linregc2 numeric
@attribute logMelFreqBand_sma[1]_linregerrA numeric
@attribute logMelFreqBand_sma[1]_linregerrQ numeric
@attribute logMelFreqBand_sma[1]_stddev numeric
@attribute logMelFreqBand_sma[1]_skewness numeric
@attribute logMelFreqBand_sma[1]_kurtosis numeric
@attribute logMelFreqBand_sma[1]_quartile1 numeric
@attribute logMelFreqBand_sma[1]_quartile2 numeric
@attribute logMelFreqBand_sma[1]_quartile3 numeric
@attribute logMelFreqBand_sma[1]_iqr1-2 numeric
@attribute logMelFreqBand_sma[1]_iqr2-3 numeric
@attribute logMelFreqBand_sma[1]_iqr1-3 numeric
@attribute logMelFreqBand_sma[1]_percentile1.0 numeric
@attribute logMelFreqBand_sma[1]_percentile99.0 numeric
@attribute logMelFreqBand_sma[1]_pctlrange0-1 numeric
@attribute logMelFreqBand_sma[1]_upleveltime75 numeric
@attribute logMelFreqBand_sma[1]_upleveltime90 numeric
@attribute logMelFreqBand_sma[2]_maxPos numeric
@attribute logMelFreqBand_sma[2]_minPos numeric
@attribute logMelFreqBand_sma[2]_amean numeric
@attribute logMelFreqBand_sma[2]_linregc1 numeric
@attribute logMelFreqBand_sma[2]_linregc2 numeric
@attribute logMelFreqBand_sma[2]_linregerrA numeric
@attribute logMelFreqBand_sma[2]_linregerrQ numeric
@attribute logMelFreqBand_sma[2]_stddev numeric
@attribute logMelFreqBand_sma[2]_skewness numeric
@attribute logMelFreqBand_sma[2]_kurtosis numeric
@attribute logMelFreqBand_sma[2]_quartile1 numeric
@attribute logMelFreqBand_sma[2]_quartile2 numeric
@attribute logMelFreqBand_sma[2]_quartile3 numeric
@attribute logMelFreqBand_sma[2]_iqr1-2 numeric
@attribute logMelFreqBand_sma[2]_iqr2-3 numeric
@attribute logMelFreqBand_sma[2]_iqr1-3 numeric
@attribute logMelFreqBand_sma[2]_percentile1.0 numeric
@attribute logMelFreqBand_sma[2]_percentile99.0 numeric
@attribute logMelFreqBand_sma[2]_pctlrange0-1 numeric
@attribute logMelFreqBand_sma[2]_upleveltime75 numeric
@attribute logMelFreqBand_sma[2]_upleveltime90 numeric
@attribute logMelFreqBand_sma[3]_maxPos numeric
@attribute logMelFreqBand_sma[3]_minPos numeric
@attribute logMelFreqBand_sma[3]_amean numeric
@attribute logMelFreqBand_sma[3]_linregc1 numeric
@attribute logMelFreqBand_sma[3]_linregc2 numeric
@attribute logMelFreqBand_sma[3]_linregerrA numeric
@attribute logMelFreqBand_sma[3]_linregerrQ numeric
@attribute logMelFreqBand_sma[3]_stddev numeric
@attribute logMelFreqBand_sma[3]_skewness numeric
@attribute logMelFreqBand_sma[3]_kurtosis numeric
@attribute logMelFreqBand_sma[3]_quartile1 numeric
@attribute logMelFreqBand_sma[3]_quartile2 numeric
@attribute logMelFreqBand_sma[3]_quartile3 numeric
@attribute logMelFreqBand_sma[3]_iqr1-2 numeric
@attribute logMelFreqBand_sma[3]_iqr2-3 numeric
@attribute logMelFreqBand_sma[3]_iqr1-3 numeric
@attribute logMelFreqBand_sma[3]_percentile1.0 numeric
@attribute logMelFreqBand_sma[3]_percentile99.0 numeric
@attribute logMelFreqBand_sma[3]_pctlrange0-1 numeric
@attribute logMelFreqBand_sma[3]_upleveltime75 numeric
@attribute logMelFreqBand_sma[3]_upleveltime90 numeric
@attribute logMelFreqBand_sma[4]_maxPos numeric
@attribute logMelFreqBand_sma[4]_minPos numeric
@attribute logMelFreqBand_sma[4]_amean numeric
@attribute logMelFreqBand_sma[4]_linregc1 numeric
@attribute logMelFreqBand_sma[4]_linregc2 numeric
@attribute logMelFreqBand_sma[4]_linregerrA numeric
@attribute logMelFreqBand_sma[4]_linregerrQ numeric
@attribute logMelFreqBand_sma[4]_stddev numeric
@attribute logMelFreqBand_sma[4]_skewness numeric
@attribute logMelFreqBand_sma[4]_kurtosis numeric
@attribute logMelFreqBand_sma[4]_quartile1 numeric
@attribute logMelFreqBand_sma[4]_quartile2 numeric
@attribute logMelFreqBand_sma[4]_quartile3 numeric
@attribute logMelFreqBand_sma[4]_iqr1-2 numeric
@attribute logMelFreqBand_sma[4]_iqr2-3 numeric
@attribute logMelFreqBand_sma[4]_iqr1-3 numeric
@attribute logMelFreqBand_sma[4]_percentile1.0 numeric
@attribute logMelFreqBand_sma[4]_percentile99.0 numeric
@attribute logMelFreqBand_sma[4]_pctlrange0-1 numeric
@attribute logMelFreqBand_sma[4]_upleveltime75 numeric
@attribute logMelFreqBand_sma[4]_upleveltime90 numeric
@attribute logMelFreqBand_sma[5]_maxPos numeric
@attribute logMelFreqBand_sma[5]_minPos numeric
@attribute logMelFreqBand_sma[5]_amean numeric
@attribute logMelFreqBand_sma[5]_linregc1 numeric
@attribute logMelFreqBand_sma[5]_linregc2 numeric
@attribute logMelFreqBand_sma[5]_linregerrA numeric
@attribute logMelFreqBand_sma[5]_linregerrQ numeric
@attribute logMelFreqBand_sma[5]_stddev numeric
@attribute logMelFreqBand_sma[5]_skewness numeric
@attribute logMelFreqBand_sma[5]_kurtosis numeric
@attribute logMelFreqBand_sma[5]_quartile1 numeric
@attribute logMelFreqBand_sma[5]_quartile2 numeric
@attribute logMelFreqBand_sma[5]_quartile3 numeric
@attribute logMelFreqBand_sma[5]_iqr1-2 numeric
@attribute logMelFreqBand_sma[5]_iqr2-3 numeric
@attribute logMelFreqBand_sma[5]_iqr1-3 numeric
@attribute logMelFreqBand_sma[5]_percentile1.0 numeric
@attribute logMelFreqBand_sma[5]_percentile99.0 numeric
@attribute logMelFreqBand_sma[5]_pctlrange0-1 numeric
@attribute logMelFreqBand_sma[5]_upleveltime75 numeric
@attribute logMelFreqBand_sma[5]_upleveltime90 numeric
@attribute logMelFreqBand_sma[6]_maxPos numeric
@attribute logMelFreqBand_sma[6]_minPos numeric
@attribute logMelFreqBand_sma[6]_amean numeric
@attribute logMelFreqBand_sma[6]_linregc1 numeric
@attribute logMelFreqBand_sma[6]_linregc2 numeric
@attribute logMelFreqBand_sma[6]_linregerrA numeric
@attribute logMelFreqBand_sma[6]_linregerrQ numeric
@attribute logMelFreqBand_sma[6]_stddev numeric
@attribute logMelFreqBand_sma[6]_skewness numeric
@attribute logMelFreqBand_sma[6]_kurtosis numeric
@attribute logMelFreqBand_sma[6]_quartile1 numeric
@attribute logMelFreqBand_sma[6]_quartile2 numeric
@attribute logMelFreqBand_sma[6]_quartile3 numeric
@attribute logMelFreqBand_sma[6]_iqr1-2 numeric
@attribute logMelFreqBand_sma[6]_iqr2-3 numeric
@attribute logMelFreqBand_sma[6]_iqr1-3 numeric
@attribute logMelFreqBand_sma[6]_percentile1.0 numeric
@attribute logMelFreqBand_sma[6]_percentile99.0 numeric
@attribute logMelFreqBand_sma[6]_pctlrange0-1 numeric
@attribute logMelFreqBand_sma[6]_upleveltime75 numeric
@attribute logMelFreqBand_sma[6]_upleveltime90 numeric
@attribute logMelFreqBand_sma[7]_maxPos numeric
@attribute logMelFreqBand_sma[7]_minPos numeric
@attribute logMelFreqBand_sma[7]_amean numeric
@attribute logMelFreqBand_sma[7]_linregc1 numeric
@attribute logMelFreqBand_sma[7]_linregc2 numeric
@attribute logMelFreqBand_sma[7]_linregerrA numeric
@attribute logMelFreqBand_sma[7]_linregerrQ numeric
@attribute logMelFreqBand_sma[7]_stddev numeric
@attribute logMelFreqBand_sma[7]_skewness numeric
@attribute logMelFreqBand_sma[7]_kurtosis numeric
@attribute logMelFreqBand_sma[7]_quartile1 numeric
@attribute logMelFreqBand_sma[7]_quartile2 numeric
@attribute logMelFreqBand_sma[7]_quartile3 numeric
@attribute logMelFreqBand_sma[7]_iqr1-2 numeric
@attribute logMelFreqBand_sma[7]_iqr2-3 numeric
@attribute logMelFreqBand_sma[7]_iqr1-3 numeric
@attribute logMelFreqBand_sma[7]_percentile1.0 numeric
@attribute logMelFreqBand_sma[7]_percentile99.0 numeric
@attribute logMelFreqBand_sma[7]_pctlrange0-1 numeric
@attribute logMelFreqBand_sma[7]_upleveltime75 numeric
@attribute logMelFreqBand_sma[7]_upleveltime90 numeric
@attribute lspFreq_sma[0]_maxPos numeric
@attribute lspFreq_sma[0]_minPos numeric
@attribute lspFreq_sma[0]_amean numeric
@attribute lspFreq_sma[0]_linregc1 numeric
@attribute lspFreq_sma[0]_linregc2 numeric
@attribute lspFreq_sma[0]_linregerrA numeric
@attribute lspFreq_sma[0]_linregerrQ numeric
@attribute lspFreq_sma[0]_stddev numeric
@attribute lspFreq_sma[0]_skewness numeric
@attribute lspFreq_sma[0]_kurtosis numeric
@attribute lspFreq_sma[0]_quartile1 numeric
@attribute lspFreq_sma[0]_quartile2 numeric
@attribute lspFreq_sma[0]_quartile3 numeric
@attribute lspFreq_sma[0]_iqr1-2 numeric
@attribute lspFreq_sma[0]_iqr2-3 numeric
@attribute lspFreq_sma[0]_iqr1-3 numeric
@attribute lspFreq_sma[0]_percentile1.0 numeric
@attribute lspFreq_sma[0]_percentile99.0 numeric
@attribute lspFreq_sma[0]_pctlrange0-1 numeric
@attribute lspFreq_sma[0]_upleveltime75 numeric
@attribute lspFreq_sma[0]_upleveltime90 numeric
@attribute lspFreq_sma[1]_maxPos numeric
@attribute lspFreq_sma[1]_minPos numeric
@attribute lspFreq_sma[1]_amean numeric
@attribute lspFreq_sma[1]_linregc1 numeric
@attribute lspFreq_sma[1]_linregc2 numeric
@attribute lspFreq_sma[1]_linregerrA numeric
@attribute lspFreq_sma[1]_linregerrQ numeric
@attribute lspFreq_sma[1]_stddev numeric
@attribute lspFreq_sma[1]_skewness numeric
@attribute lspFreq_sma[1]_kurtosis numeric
@attribute lspFreq_sma[1]_quartile1 numeric
@attribute lspFreq_sma[1]_quartile2 numeric
@attribute lspFreq_sma[1]_quartile3 numeric
@attribute lspFreq_sma[1]_iqr1-2 numeric
@attribute lspFreq_sma[1]_iqr2-3 numeric
@attribute lspFreq_sma[1]_iqr1-3 numeric
@attribute lspFreq_sma[1]_percentile1.0 numeric
@attribute lspFreq_sma[1]_percentile99.0 numeric
@attribute lspFreq_sma[1]_pctlrange0-1 numeric
@attribute lspFreq_sma[1]_upleveltime75 numeric
@attribute lspFreq_sma[1]_upleveltime90 numeric
@attribute lspFreq_sma[2]_maxPos numeric
@attribute lspFreq_sma[2]_minPos numeric
@attribute lspFreq_sma[2]_amean numeric
@attribute lspFreq_sma[2]_linregc1 numeric
@attribute lspFreq_sma[2]_linregc2 numeric
@attribute lspFreq_sma[2]_linregerrA numeric
@attribute lspFreq_sma[2]_linregerrQ numeric
@attribute lspFreq_sma[2]_stddev numeric
@attribute lspFreq_sma[2]_skewness numeric
@attribute lspFreq_sma[2]_kurtosis numeric
@attribute lspFreq_sma[2]_quartile1 numeric
@attribute lspFreq_sma[2]_quartile2 numeric
@attribute lspFreq_sma[2]_quartile3 numeric
@attribute lspFreq_sma[2]_iqr1-2 numeric
@attribute lspFreq_sma[2]_iqr2-3 numeric
@attribute lspFreq_sma[2]_iqr1-3 numeric
@attribute lspFreq_sma[2]_percentile1.0 numeric
@attribute lspFreq_sma[2]_percentile99.0 numeric
@attribute lspFreq_sma[2]_pctlrange0-1 numeric
@attribute lspFreq_sma[2]_upleveltime75 numeric
@attribute lspFreq_sma[2]_upleveltime90 numeric
@attribute lspFreq_sma[3]_maxPos numeric
@attribute lspFreq_sma[3]_minPos numeric
@attribute lspFreq_sma[3]_amean numeric
@attribute lspFreq_sma[3]_linregc1 numeric
@attribute lspFreq_sma[3]_linregc2 numeric
@attribute lspFreq_sma[3]_linregerrA numeric
@attribute lspFreq_sma[3]_linregerrQ numeric
@attribute lspFreq_sma[3]_stddev numeric
@attribute lspFreq_sma[3]_skewness numeric
@attribute lspFreq_sma[3]_kurtosis numeric
@attribute lspFreq_sma[3]_quartile1 numeric
@attribute lspFreq_sma[3]_quartile2 numeric
@attribute lspFreq_sma[3]_quartile3 numeric
@attribute lspFreq_sma[3]_iqr1-2 numeric
@attribute lspFreq_sma[3]_iqr2-3 numeric
@attribute lspFreq_sma[3]_iqr1-3 numeric
@attribute lspFreq_sma[3]_percentile1.0 numeric
@attribute lspFreq_sma[3]_percentile99.0 numeric
@attribute lspFreq_sma[3]_pctlrange0-1 numeric
@attribute lspFreq_sma[3]_upleveltime75 numeric
@attribute lspFreq_sma[3]_upleveltime90 numeric
@attribute lspFreq_sma[4]_maxPos numeric
@attribute lspFreq_sma[4]_minPos numeric
@attribute lspFreq_sma[4]_amean numeric
@attribute lspFreq_sma[4]_linregc1 numeric
@attribute lspFreq_sma[4]_linregc2 numeric
@attribute lspFreq_sma[4]_linregerrA numeric
@attribute lspFreq_sma[4]_linregerrQ numeric
@attribute lspFreq_sma[4]_stddev numeric
@attribute lspFreq_sma[4]_skewness numeric
@attribute lspFreq_sma[4]_kurtosis numeric
@attribute lspFreq_sma[4]_quartile1 numeric
@attribute lspFreq_sma[4]_quartile2 numeric
@attribute lspFreq_sma[4]_quartile3 numeric
@attribute lspFreq_sma[4]_iqr1-2 numeric
@attribute lspFreq_sma[4]_iqr2-3 numeric
@attribute lspFreq_sma[4]_iqr1-3 numeric
@attribute lspFreq_sma[4]_percentile1.0 numeric
@attribute lspFreq_sma[4]_percentile99.0 numeric
@attribute lspFreq_sma[4]_pctlrange0-1 numeric
@attribute lspFreq_sma[4]_upleveltime75 numeric
@attribute lspFreq_sma[4]_upleveltime90 numeric
@attribute lspFreq_sma[5]_maxPos numeric
@attribute lspFreq_sma[5]_minPos numeric
@attribute lspFreq_sma[5]_amean numeric
@attribute lspFreq_sma[5]_linregc1 numeric
@attribute lspFreq_sma[5]_linregc2 numeric
@attribute lspFreq_sma[5]_linregerrA numeric
@attribute lspFreq_sma[5]_linregerrQ numeric
@attribute lspFreq_sma[5]_stddev numeric
@attribute lspFreq_sma[5]_skewness numeric
@attribute lspFreq_sma[5]_kurtosis numeric
@attribute lspFreq_sma[5]_quartile1 numeric
@attribute lspFreq_sma[5]_quartile2 numeric
@attribute lspFreq_sma[5]_quartile3 numeric
@attribute lspFreq_sma[5]_iqr1-2 numeric
@attribute lspFreq_sma[5]_iqr2-3 numeric
@attribute lspFreq_sma[5]_iqr1-3 numeric
@attribute lspFreq_sma[5]_percentile1.0 numeric
@attribute lspFreq_sma[5]_percentile99.0 numeric
@attribute lspFreq_sma[5]_pctlrange0-1 numeric
@attribute lspFreq_sma[5]_upleveltime75 numeric
@attribute lspFreq_sma[5]_upleveltime90 numeric
@attribute lspFreq_sma[6]_maxPos numeric
@attribute lspFreq_sma[6]_minPos numeric
@attribute lspFreq_sma[6]_amean numeric
@attribute lspFreq_sma[6]_linregc1 numeric
@attribute lspFreq_sma[6]_linregc2 numeric
@attribute lspFreq_sma[6]_linregerrA numeric
@attribute lspFreq_sma[6]_linregerrQ numeric
@attribute lspFreq_sma[6]_stddev numeric
@attribute lspFreq_sma[6]_skewness numeric
@attribute lspFreq_sma[6]_kurtosis numeric
@attribute lspFreq_sma[6]_quartile1 numeric
@attribute lspFreq_sma[6]_quartile2 numeric
@attribute lspFreq_sma[6]_quartile3 numeric
@attribute lspFreq_sma[6]_iqr1-2 numeric
@attribute lspFreq_sma[6]_iqr2-3 numeric
@attribute lspFreq_sma[6]_iqr1-3 numeric
@attribute lspFreq_sma[6]_percentile1.0 numeric
@attribute lspFreq_sma[6]_percentile99.0 numeric
@attribute lspFreq_sma[6]_pctlrange0-1 numeric
@attribute lspFreq_sma[6]_upleveltime75 numeric
@attribute lspFreq_sma[6]_upleveltime90 numeric
@attribute lspFreq_sma[7]_maxPos numeric
@attribute lspFreq_sma[7]_minPos numeric
@attribute lspFreq_sma[7]_amean numeric
@attribute lspFreq_sma[7]_linregc1 numeric
@attribute lspFreq_sma[7]_linregc2 numeric
@attribute lspFreq_sma[7]_linregerrA numeric
@attribute lspFreq_sma[7]_linregerrQ numeric
@attribute lspFreq_sma[7]_stddev numeric
@attribute lspFreq_sma[7]_skewness numeric
@attribute lspFreq_sma[7]_kurtosis numeric
@attribute lspFreq_sma[7]_quartile1 numeric
@attribute lspFreq_sma[7]_quartile2 numeric
@attribute lspFreq_sma[7]_quartile3 numeric
@attribute lspFreq_sma[7]_iqr1-2 numeric
@attribute lspFreq_sma[7]_iqr2-3 numeric
@attribute lspFreq_sma[7]_iqr1-3 numeric
@attribute lspFreq_sma[7]_percentile1.0 numeric
@attribute lspFreq_sma[7]_percentile99.0 numeric
@attribute lspFreq_sma[7]_pctlrange0-1 numeric
@attribute lspFreq_sma[7]_upleveltime75 numeric
@attribute lspFreq_sma[7]_upleveltime90 numeric
@attribute F0finEnv_sma_maxPos numeric
@attribute F0finEnv_sma_minPos numeric
@attribute F0finEnv_sma_amean numeric
@attribute F0finEnv_sma_linregc1 numeric
@attribute F0finEnv_sma_linregc2 numeric
@attribute F0finEnv_sma_linregerrA numeric
@attribute F0finEnv_sma_linregerrQ numeric
@attribute F0finEnv_sma_stddev numeric
@attribute F0finEnv_sma_skewness numeric
@attribute F0finEnv_sma_kurtosis numeric
@attribute F0finEnv_sma_quartile1 numeric
@attribute F0finEnv_sma_quartile2 numeric
@attribute F0finEnv_sma_quartile3 numeric
@attribute F0finEnv_sma_iqr1-2 numeric
@attribute F0finEnv_sma_iqr2-3 numeric
@attribute F0finEnv_sma_iqr1-3 numeric
@attribute F0finEnv_sma_percentile1.0 numeric
@attribute F0finEnv_sma_percentile99.0 numeric
@attribute F0finEnv_sma_pctlrange0-1 numeric
@attribute F0finEnv_sma_upleveltime75 numeric
@attribute F0finEnv_sma_upleveltime90 numeric
@attribute voicingFinalUnclipped_sma_maxPos numeric
@attribute voicingFinalUnclipped_sma_minPos numeric
@attribute voicingFinalUnclipped_sma_amean numeric
@attribute voicingFinalUnclipped_sma_linregc1 numeric
@attribute voicingFinalUnclipped_sma_linregc2 numeric
@attribute voicingFinalUnclipped_sma_linregerrA numeric
@attribute voicingFinalUnclipped_sma_linregerrQ numeric
@attribute voicingFinalUnclipped_sma_stddev numeric
@attribute voicingFinalUnclipped_sma_skewness numeric
@attribute voicingFinalUnclipped_sma_kurtosis numeric
@attribute voicingFinalUnclipped_sma_quartile1 numeric
@attribute voicingFinalUnclipped_sma_quartile2 numeric
@attribute voicingFinalUnclipped_sma_quartile3 numeric
@attribute voicingFinalUnclipped_sma_iqr1-2 numeric
@attribute voicingFinalUnclipped_sma_iqr2-3 numeric
@attribute voicingFinalUnclipped_sma_iqr1-3 numeric
@attribute voicingFinalUnclipped_sma_percentile1.0 numeric
@attribute voicingFinalUnclipped_sma_percentile99.0 numeric
@attribute voicingFinalUnclipped_sma_pctlrange0-1 numeric
@attribute voicingFinalUnclipped_sma_upleveltime75 numeric
@attribute voicingFinalUnclipped_sma_upleveltime90 numeric
@attribute pcm_loudness_sma_de_maxPos numeric
@attribute pcm_loudness_sma_de_minPos numeric
@attribute pcm_loudness_sma_de_amean numeric
@attribute pcm_loudness_sma_de_linregc1 numeric
@attribute pcm_loudness_sma_de_linregc2 numeric
@attribute pcm_loudness_sma_de_linregerrA numeric
@attribute pcm_loudness_sma_de_linregerrQ numeric
@attribute pcm_loudness_sma_de_stddev numeric
@attribute pcm_loudness_sma_de_skewness numeric
@attribute pcm_loudness_sma_de_kurtosis numeric
@attribute pcm_loudness_sma_de_quartile1 numeric
@attribute pcm_loudness_sma_de_quartile2 numeric
@attribute pcm_loudness_sma_de_quartile3 numeric
@attribute pcm_loudness_sma_de_iqr1-2 numeric
@attribute pcm_loudness_sma_de_iqr2-3 numeric
@attribute pcm_loudness_sma_de_iqr1-3 numeric
@attribute pcm_loudness_sma_de_percentile1.0 numeric
@attribute pcm_loudness_sma_de_percentile99.0 numeric
@attribute pcm_loudness_sma_de_pctlrange0-1 numeric
@attribute pcm_loudness_sma_de_upleveltime75 numeric
@attribute pcm_loudness_sma_de_upleveltime90 numeric
@attribute mfcc_sma_de[0]_maxPos numeric
@attribute mfcc_sma_de[0]_minPos numeric
@attribute mfcc_sma_de[0]_amean numeric
@attribute mfcc_sma_de[0]_linregc1 numeric
@attribute mfcc_sma_de[0]_linregc2 numeric
@attribute mfcc_sma_de[0]_linregerrA numeric
@attribute mfcc_sma_de[0]_linregerrQ numeric
@attribute mfcc_sma_de[0]_stddev numeric
@attribute mfcc_sma_de[0]_skewness numeric
@attribute mfcc_sma_de[0]_kurtosis numeric
@attribute mfcc_sma_de[0]_quartile1 numeric
@attribute mfcc_sma_de[0]_quartile2 numeric
@attribute mfcc_sma_de[0]_quartile3 numeric
@attribute mfcc_sma_de[0]_iqr1-2 numeric
@attribute mfcc_sma_de[0]_iqr2-3 numeric
@attribute mfcc_sma_de[0]_iqr1-3 numeric
@attribute mfcc_sma_de[0]_percentile1.0 numeric
@attribute mfcc_sma_de[0]_percentile99.0 numeric
@attribute mfcc_sma_de[0]_pctlrange0-1 numeric
@attribute mfcc_sma_de[0]_upleveltime75 numeric
@attribute mfcc_sma_de[0]_upleveltime90 numeric
@attribute mfcc_sma_de[1]_maxPos numeric
@attribute mfcc_sma_de[1]_minPos numeric
@attribute mfcc_sma_de[1]_amean numeric
@attribute mfcc_sma_de[1]_linregc1 numeric
@attribute mfcc_sma_de[1]_linregc2 numeric
@attribute mfcc_sma_de[1]_linregerrA numeric
@attribute mfcc_sma_de[1]_linregerrQ numeric
@attribute mfcc_sma_de[1]_stddev numeric
@attribute mfcc_sma_de[1]_skewness numeric
@attribute mfcc_sma_de[1]_kurtosis numeric
@attribute mfcc_sma_de[1]_quartile1 numeric
@attribute mfcc_sma_de[1]_quartile2 numeric
@attribute mfcc_sma_de[1]_quartile3 numeric
@attribute mfcc_sma_de[1]_iqr1-2 numeric
@attribute mfcc_sma_de[1]_iqr2-3 numeric
@attribute mfcc_sma_de[1]_iqr1-3 numeric
@attribute mfcc_sma_de[1]_percentile1.0 numeric
@attribute mfcc_sma_de[1]_percentile99.0 numeric
@attribute mfcc_sma_de[1]_pctlrange0-1 numeric
@attribute mfcc_sma_de[1]_upleveltime75 numeric
@attribute mfcc_sma_de[1]_upleveltime90 numeric
@attribute mfcc_sma_de[2]_maxPos numeric
@attribute mfcc_sma_de[2]_minPos numeric
@attribute mfcc_sma_de[2]_amean numeric
@attribute mfcc_sma_de[2]_linregc1 numeric
@attribute mfcc_sma_de[2]_linregc2 numeric
@attribute mfcc_sma_de[2]_linregerrA numeric
@attribute mfcc_sma_de[2]_linregerrQ numeric
@attribute mfcc_sma_de[2]_stddev numeric
@attribute mfcc_sma_de[2]_skewness numeric
@attribute mfcc_sma_de[2]_kurtosis numeric
@attribute mfcc_sma_de[2]_quartile1 numeric
@attribute mfcc_sma_de[2]_quartile2 numeric
@attribute mfcc_sma_de[2]_quartile3 numeric
@attribute mfcc_sma_de[2]_iqr1-2 numeric
@attribute mfcc_sma_de[2]_iqr2-3 numeric
@attribute mfcc_sma_de[2]_iqr1-3 numeric
@attribute mfcc_sma_de[2]_percentile1.0 numeric
@attribute mfcc_sma_de[2]_percentile99.0 numeric
@attribute mfcc_sma_de[2]_pctlrange0-1 numeric
@attribute mfcc_sma_de[2]_upleveltime75 numeric
@attribute mfcc_sma_de[2]_upleveltime90 numeric
@attribute mfcc_sma_de[3]_maxPos numeric
@attribute mfcc_sma_de[3]_minPos numeric
@attribute mfcc_sma_de[3]_amean numeric
@attribute mfcc_sma_de[3]_linregc1 numeric
@attribute mfcc_sma_de[3]_linregc2 numeric
@attribute mfcc_sma_de[3]_linregerrA numeric
@attribute mfcc_sma_de[3]_linregerrQ numeric
@attribute mfcc_sma_de[3]_stddev numeric
@attribute mfcc_sma_de[3]_skewness numeric
@attribute mfcc_sma_de[3]_kurtosis numeric
@attribute mfcc_sma_de[3]_quartile1 numeric
@attribute mfcc_sma_de[3]_quartile2 numeric
@attribute mfcc_sma_de[3]_quartile3 numeric
@attribute mfcc_sma_de[3]_iqr1-2 numeric
@attribute mfcc_sma_de[3]_iqr2-3 numeric
@attribute mfcc_sma_de[3]_iqr1-3 numeric
@attribute mfcc_sma_de[3]_percentile1.0 numeric
@attribute mfcc_sma_de[3]_percentile99.0 numeric
@attribute mfcc_sma_de[3]_pctlrange0-1 numeric
@attribute mfcc_sma_de[3]_upleveltime75 numeric
@attribute mfcc_sma_de[3]_upleveltime90 numeric
@attribute mfcc_sma_de[4]_maxPos numeric
@attribute mfcc_sma_de[4]_minPos numeric
@attribute mfcc_sma_de[4]_amean numeric
@attribute mfcc_sma_de[4]_linregc1 numeric
@attribute mfcc_sma_de[4]_linregc2 numeric
@attribute mfcc_sma_de[4]_linregerrA numeric
@attribute mfcc_sma_de[4]_linregerrQ numeric
@attribute mfcc_sma_de[4]_stddev numeric
@attribute mfcc_sma_de[4]_skewness numeric
@attribute mfcc_sma_de[4]_kurtosis numeric
@attribute mfcc_sma_de[4]_quartile1 numeric
@attribute mfcc_sma_de[4]_quartile2 numeric
@attribute mfcc_sma_de[4]_quartile3 numeric
@attribute mfcc_sma_de[4]_iqr1-2 numeric
@attribute mfcc_sma_de[4]_iqr2-3 numeric
@attribute mfcc_sma_de[4]_iqr1-3 numeric
@attribute mfcc_sma_de[4]_percentile1.0 numeric
@attribute mfcc_sma_de[4]_percentile99.0 numeric
@attribute mfcc_sma_de[4]_pctlrange0-1 numeric
@attribute mfcc_sma_de[4]_upleveltime75 numeric
@attribute mfcc_sma_de[4]_upleveltime90 numeric
@attribute mfcc_sma_de[5]_maxPos numeric
@attribute mfcc_sma_de[5]_minPos numeric
@attribute mfcc_sma_de[5]_amean numeric
@attribute mfcc_sma_de[5]_linregc1 numeric
@attribute mfcc_sma_de[5]_linregc2 numeric
@attribute mfcc_sma_de[5]_linregerrA numeric
@attribute mfcc_sma_de[5]_linregerrQ numeric
@attribute mfcc_sma_de[5]_stddev numeric
@attribute mfcc_sma_de[5]_skewness numeric
@attribute mfcc_sma_de[5]_kurtosis numeric
@attribute mfcc_sma_de[5]_quartile1 numeric
@attribute mfcc_sma_de[5]_quartile2 numeric
@attribute mfcc_sma_de[5]_quartile3 numeric
@attribute mfcc_sma_de[5]_iqr1-2 numeric
@attribute mfcc_sma_de[5]_iqr2-3 numeric
@attribute mfcc_sma_de[5]_iqr1-3 numeric
@attribute mfcc_sma_de[5]_percentile1.0 numeric
@attribute mfcc_sma_de[5]_percentile99.0 numeric
@attribute mfcc_sma_de[5]_pctlrange0-1 numeric
@attribute mfcc_sma_de[5]_upleveltime75 numeric
@attribute mfcc_sma_de[5]_upleveltime90 numeric
@attribute mfcc_sma_de[6]_maxPos numeric
@attribute mfcc_sma_de[6]_minPos numeric
@attribute mfcc_sma_de[6]_amean numeric
@attribute mfcc_sma_de[6]_linregc1 numeric
@attribute mfcc_sma_de[6]_linregc2 numeric
@attribute mfcc_sma_de[6]_linregerrA numeric
@attribute mfcc_sma_de[6]_linregerrQ numeric
@attribute mfcc_sma_de[6]_stddev numeric
@attribute mfcc_sma_de[6]_skewness numeric
@attribute mfcc_sma_de[6]_kurtosis numeric
@attribute mfcc_sma_de[6]_quartile1 numeric
@attribute mfcc_sma_de[6]_quartile2 numeric
@attribute mfcc_sma_de[6]_quartile3 numeric
@attribute mfcc_sma_de[6]_iqr1-2 numeric
@attribute mfcc_sma_de[6]_iqr2-3 numeric
@attribute mfcc_sma_de[6]_iqr1-3 numeric
@attribute mfcc_sma_de[6]_percentile1.0 numeric
@attribute mfcc_sma_de[6]_percentile99.0 numeric
@attribute mfcc_sma_de[6]_pctlrange0-1 numeric
@attribute mfcc_sma_de[6]_upleveltime75 numeric
@attribute mfcc_sma_de[6]_upleveltime90 numeric
@attribute mfcc_sma_de[7]_maxPos numeric
@attribute mfcc_sma_de[7]_minPos numeric
@attribute mfcc_sma_de[7]_amean numeric
@attribute mfcc_sma_de[7]_linregc1 numeric
@attribute mfcc_sma_de[7]_linregc2 numeric
@attribute mfcc_sma_de[7]_linregerrA numeric
@attribute mfcc_sma_de[7]_linregerrQ numeric
@attribute mfcc_sma_de[7]_stddev numeric
@attribute mfcc_sma_de[7]_skewness numeric
@attribute mfcc_sma_de[7]_kurtosis numeric
@attribute mfcc_sma_de[7]_quartile1 numeric
@attribute mfcc_sma_de[7]_quartile2 numeric
@attribute mfcc_sma_de[7]_quartile3 numeric
@attribute mfcc_sma_de[7]_iqr1-2 numeric
@attribute mfcc_sma_de[7]_iqr2-3 numeric
@attribute mfcc_sma_de[7]_iqr1-3 numeric
@attribute mfcc_sma_de[7]_percentile1.0 numeric
@attribute mfcc_sma_de[7]_percentile99.0 numeric
@attribute mfcc_sma_de[7]_pctlrange0-1 numeric
@attribute mfcc_sma_de[7]_upleveltime75 numeric
@attribute mfcc_sma_de[7]_upleveltime90 numeric
@attribute mfcc_sma_de[8]_maxPos numeric
@attribute mfcc_sma_de[8]_minPos numeric
@attribute mfcc_sma_de[8]_amean numeric
@attribute mfcc_sma_de[8]_linregc1 numeric
@attribute mfcc_sma_de[8]_linregc2 numeric
@attribute mfcc_sma_de[8]_linregerrA numeric
@attribute mfcc_sma_de[8]_linregerrQ numeric
@attribute mfcc_sma_de[8]_stddev numeric
@attribute mfcc_sma_de[8]_skewness numeric
@attribute mfcc_sma_de[8]_kurtosis numeric
@attribute mfcc_sma_de[8]_quartile1 numeric
@attribute mfcc_sma_de[8]_quartile2 numeric
@attribute mfcc_sma_de[8]_quartile3 numeric
@attribute mfcc_sma_de[8]_iqr1-2 numeric
@attribute mfcc_sma_de[8]_iqr2-3 numeric
@attribute mfcc_sma_de[8]_iqr1-3 numeric
@attribute mfcc_sma_de[8]_percentile1.0 numeric
@attribute mfcc_sma_de[8]_percentile99.0 numeric
@attribute mfcc_sma_de[8]_pctlrange0-1 numeric
@attribute mfcc_sma_de[8]_upleveltime75 numeric
@attribute mfcc_sma_de[8]_upleveltime90 numeric
@attribute mfcc_sma_de[9]_maxPos numeric
@attribute mfcc_sma_de[9]_minPos numeric
@attribute mfcc_sma_de[9]_amean numeric
@attribute mfcc_sma_de[9]_linregc1 numeric
@attribute mfcc_sma_de[9]_linregc2 numeric
@attribute mfcc_sma_de[9]_linregerrA numeric
@attribute mfcc_sma_de[9]_linregerrQ numeric
@attribute mfcc_sma_de[9]_stddev numeric
@attribute mfcc_sma_de[9]_skewness numeric
@attribute mfcc_sma_de[9]_kurtosis numeric
@attribute mfcc_sma_de[9]_quartile1 numeric
@attribute mfcc_sma_de[9]_quartile2 numeric
@attribute mfcc_sma_de[9]_quartile3 numeric
@attribute mfcc_sma_de[9]_iqr1-2 numeric
@attribute mfcc_sma_de[9]_iqr2-3 numeric
@attribute mfcc_sma_de[9]_iqr1-3 numeric
@attribute mfcc_sma_de[9]_percentile1.0 numeric
@attribute mfcc_sma_de[9]_percentile99.0 numeric
@attribute mfcc_sma_de[9]_pctlrange0-1 numeric
@attribute mfcc_sma_de[9]_upleveltime75 numeric
@attribute mfcc_sma_de[9]_upleveltime90 numeric
@attribute mfcc_sma_de[10]_maxPos numeric
@attribute mfcc_sma_de[10]_minPos numeric
@attribute mfcc_sma_de[10]_amean numeric
@attribute mfcc_sma_de[10]_linregc1 numeric
@attribute mfcc_sma_de[10]_linregc2 numeric
@attribute mfcc_sma_de[10]_linregerrA numeric
@attribute mfcc_sma_de[10]_linregerrQ numeric
@attribute mfcc_sma_de[10]_stddev numeric
@attribute mfcc_sma_de[10]_skewness numeric
@attribute mfcc_sma_de[10]_kurtosis numeric
@attribute mfcc_sma_de[10]_quartile1 numeric
@attribute mfcc_sma_de[10]_quartile2 numeric
@attribute mfcc_sma_de[10]_quartile3 numeric
@attribute mfcc_sma_de[10]_iqr1-2 numeric
@attribute mfcc_sma_de[10]_iqr2-3 numeric
@attribute mfcc_sma_de[10]_iqr1-3 numeric
@attribute mfcc_sma_de[10]_percentile1.0 numeric
@attribute mfcc_sma_de[10]_percentile99.0 numeric
@attribute mfcc_sma_de[10]_pctlrange0-1 numeric
@attribute mfcc_sma_de[10]_upleveltime75 numeric
@attribute mfcc_sma_de[10]_upleveltime90 numeric
@attribute mfcc_sma_de[11]_maxPos numeric
@attribute mfcc_sma_de[11]_minPos numeric
@attribute mfcc_sma_de[11]_amean numeric
@attribute mfcc_sma_de[11]_linregc1 numeric
@attribute mfcc_sma_de[11]_linregc2 numeric
@attribute mfcc_sma_de[11]_linregerrA numeric
@attribute mfcc_sma_de[11]_linregerrQ numeric
@attribute mfcc_sma_de[11]_stddev numeric
@attribute mfcc_sma_de[11]_skewness numeric
@attribute mfcc_sma_de[11]_kurtosis numeric
@attribute mfcc_sma_de[11]_quartile1 numeric
@attribute mfcc_sma_de[11]_quartile2 numeric
@attribute mfcc_sma_de[11]_quartile3 numeric
@attribute mfcc_sma_de[11]_iqr1-2 numeric
@attribute mfcc_sma_de[11]_iqr2-3 numeric
@attribute mfcc_sma_de[11]_iqr1-3 numeric
@attribute mfcc_sma_de[11]_percentile1.0 numeric
@attribute mfcc_sma_de[11]_percentile99.0 numeric
@attribute mfcc_sma_de[11]_pctlrange0-1 numeric
@attribute mfcc_sma_de[11]_upleveltime75 numeric
@attribute mfcc_sma_de[11]_upleveltime90 numeric
@attribute mfcc_sma_de[12]_maxPos numeric
@attribute mfcc_sma_de[12]_minPos numeric
@attribute mfcc_sma_de[12]_amean numeric
@attribute mfcc_sma_de[12]_linregc1 numeric
@attribute mfcc_sma_de[12]_linregc2 numeric
@attribute mfcc_sma_de[12]_linregerrA numeric
@attribute mfcc_sma_de[12]_linregerrQ numeric
@attribute mfcc_sma_de[12]_stddev numeric
@attribute mfcc_sma_de[12]_skewness numeric
@attribute mfcc_sma_de[12]_kurtosis numeric
@attribute mfcc_sma_de[12]_quartile1 numeric
@attribute mfcc_sma_de[12]_quartile2 numeric
@attribute mfcc_sma_de[12]_quartile3 numeric
@attribute mfcc_sma_de[12]_iqr1-2 numeric
@attribute mfcc_sma_de[12]_iqr2-3 numeric
@attribute mfcc_sma_de[12]_iqr1-3 numeric
@attribute mfcc_sma_de[12]_percentile1.0 numeric
@attribute mfcc_sma_de[12]_percentile99.0 numeric
@attribute mfcc_sma_de[12]_pctlrange0-1 numeric
@attribute mfcc_sma_de[12]_upleveltime75 numeric
@attribute mfcc_sma_de[12]_upleveltime90 numeric
@attribute mfcc_sma_de[13]_maxPos numeric
@attribute mfcc_sma_de[13]_minPos numeric
@attribute mfcc_sma_de[13]_amean numeric
@attribute mfcc_sma_de[13]_linregc1 numeric
@attribute mfcc_sma_de[13]_linregc2 numeric
@attribute mfcc_sma_de[13]_linregerrA numeric
@attribute mfcc_sma_de[13]_linregerrQ numeric
@attribute mfcc_sma_de[13]_stddev numeric
@attribute mfcc_sma_de[13]_skewness numeric
@attribute mfcc_sma_de[13]_kurtosis numeric
@attribute mfcc_sma_de[13]_quartile1 numeric
@attribute mfcc_sma_de[13]_quartile2 numeric
@attribute mfcc_sma_de[13]_quartile3 numeric
@attribute mfcc_sma_de[13]_iqr1-2 numeric
@attribute mfcc_sma_de[13]_iqr2-3 numeric
@attribute mfcc_sma_de[13]_iqr1-3 numeric
@attribute mfcc_sma_de[13]_percentile1.0 numeric
@attribute mfcc_sma_de[13]_percentile99.0 numeric
@attribute mfcc_sma_de[13]_pctlrange0-1 numeric
@attribute mfcc_sma_de[13]_upleveltime75 numeric
@attribute mfcc_sma_de[13]_upleveltime90 numeric
@attribute mfcc_sma_de[14]_maxPos numeric
@attribute mfcc_sma_de[14]_minPos numeric
@attribute mfcc_sma_de[14]_amean numeric
@attribute mfcc_sma_de[14]_linregc1 numeric
@attribute mfcc_sma_de[14]_linregc2 numeric
@attribute mfcc_sma_de[14]_linregerrA numeric
@attribute mfcc_sma_de[14]_linregerrQ numeric
@attribute mfcc_sma_de[14]_stddev numeric
@attribute mfcc_sma_de[14]_skewness numeric
@attribute mfcc_sma_de[14]_kurtosis numeric
@attribute mfcc_sma_de[14]_quartile1 numeric
@attribute mfcc_sma_de[14]_quartile2 numeric
@attribute mfcc_sma_de[14]_quartile3 numeric
@attribute mfcc_sma_de[14]_iqr1-2 numeric
@attribute mfcc_sma_de[14]_iqr2-3 numeric
@attribute mfcc_sma_de[14]_iqr1-3 numeric
@attribute mfcc_sma_de[14]_percentile1.0 numeric
@attribute mfcc_sma_de[14]_percentile99.0 numeric
@attribute mfcc_sma_de[14]_pctlrange0-1 numeric
@attribute mfcc_sma_de[14]_upleveltime75 numeric
@attribute mfcc_sma_de[14]_upleveltime90 numeric
@attribute logMelFreqBand_sma_de[0]_maxPos numeric
@attribute logMelFreqBand_sma_de[0]_minPos numeric
@attribute logMelFreqBand_sma_de[0]_amean numeric
@attribute logMelFreqBand_sma_de[0]_linregc1 numeric
@attribute logMelFreqBand_sma_de[0]_linregc2 numeric
@attribute logMelFreqBand_sma_de[0]_linregerrA numeric
@attribute logMelFreqBand_sma_de[0]_linregerrQ numeric
@attribute logMelFreqBand_sma_de[0]_stddev numeric
@attribute logMelFreqBand_sma_de[0]_skewness numeric
@attribute logMelFreqBand_sma_de[0]_kurtosis numeric
@attribute logMelFreqBand_sma_de[0]_quartile1 numeric
@attribute logMelFreqBand_sma_de[0]_quartile2 numeric
@attribute logMelFreqBand_sma_de[0]_quartile3 numeric
@attribute logMelFreqBand_sma_de[0]_iqr1-2 numeric
@attribute logMelFreqBand_sma_de[0]_iqr2-3 numeric
@attribute logMelFreqBand_sma_de[0]_iqr1-3 numeric
@attribute logMelFreqBand_sma_de[0]_percentile1.0 numeric
@attribute logMelFreqBand_sma_de[0]_percentile99.0 numeric
@attribute logMelFreqBand_sma_de[0]_pctlrange0-1 numeric
@attribute logMelFreqBand_sma_de[0]_upleveltime75 numeric
@attribute logMelFreqBand_sma_de[0]_upleveltime90 numeric
@attribute logMelFreqBand_sma_de[1]_maxPos numeric
@attribute logMelFreqBand_sma_de[1]_minPos numeric
@attribute logMelFreqBand_sma_de[1]_amean numeric
@attribute logMelFreqBand_sma_de[1]_linregc1 numeric
@attribute logMelFreqBand_sma_de[1]_linregc2 numeric
@attribute logMelFreqBand_sma_de[1]_linregerrA numeric
@attribute logMelFreqBand_sma_de[1]_linregerrQ numeric
@attribute logMelFreqBand_sma_de[1]_stddev numeric
@attribute logMelFreqBand_sma_de[1]_skewness numeric
@attribute logMelFreqBand_sma_de[1]_kurtosis numeric
@attribute logMelFreqBand_sma_de[1]_quartile1 numeric
@attribute logMelFreqBand_sma_de[1]_quartile2 numeric
@attribute logMelFreqBand_sma_de[1]_quartile3 numeric
@attribute logMelFreqBand_sma_de[1]_iqr1-2 numeric
@attribute logMelFreqBand_sma_de[1]_iqr2-3 numeric
@attribute logMelFreqBand_sma_de[1]_iqr1-3 numeric
@attribute logMelFreqBand_sma_de[1]_percentile1.0 numeric
@attribute logMelFreqBand_sma_de[1]_percentile99.0 numeric
@attribute logMelFreqBand_sma_de[1]_pctlrange0-1 numeric
@attribute logMelFreqBand_sma_de[1]_upleveltime75 numeric
@attribute logMelFreqBand_sma_de[1]_upleveltime90 numeric
@attribute logMelFreqBand_sma_de[2]_maxPos numeric
@attribute logMelFreqBand_sma_de[2]_minPos numeric
@attribute logMelFreqBand_sma_de[2]_amean numeric
@attribute logMelFreqBand_sma_de[2]_linregc1 numeric
@attribute logMelFreqBand_sma_de[2]_linregc2 numeric
@attribute logMelFreqBand_sma_de[2]_linregerrA numeric
@attribute logMelFreqBand_sma_de[2]_linregerrQ numeric
@attribute logMelFreqBand_sma_de[2]_stddev numeric
@attribute logMelFreqBand_sma_de[2]_skewness numeric
@attribute logMelFreqBand_sma_de[2]_kurtosis numeric
@attribute logMelFreqBand_sma_de[2]_quartile1 numeric
@attribute logMelFreqBand_sma_de[2]_quartile2 numeric
@attribute logMelFreqBand_sma_de[2]_quartile3 numeric
@attribute logMelFreqBand_sma_de[2]_iqr1-2 numeric
@attribute logMelFreqBand_sma_de[2]_iqr2-3 numeric
@attribute logMelFreqBand_sma_de[2]_iqr1-3 numeric
@attribute logMelFreqBand_sma_de[2]_percentile1.0 numeric
@attribute logMelFreqBand_sma_de[2]_percentile99.0 numeric
@attribute logMelFreqBand_sma_de[2]_pctlrange0-1 numeric
@attribute logMelFreqBand_sma_de[2]_upleveltime75 numeric
@attribute logMelFreqBand_sma_de[2]_upleveltime90 numeric
@attribute logMelFreqBand_sma_de[3]_maxPos numeric
@attribute logMelFreqBand_sma_de[3]_minPos numeric
@attribute logMelFreqBand_sma_de[3]_amean numeric
@attribute logMelFreqBand_sma_de[3]_linregc1 numeric
@attribute logMelFreqBand_sma_de[3]_linregc2 numeric
@attribute logMelFreqBand_sma_de[3]_linregerrA numeric
@attribute logMelFreqBand_sma_de[3]_linregerrQ numeric
@attribute logMelFreqBand_sma_de[3]_stddev numeric
@attribute logMelFreqBand_sma_de[3]_skewness numeric
@attribute logMelFreqBand_sma_de[3]_kurtosis numeric
@attribute logMelFreqBand_sma_de[3]_quartile1 numeric
@attribute logMelFreqBand_sma_de[3]_quartile2 numeric
@attribute logMelFreqBand_sma_de[3]_quartile3 numeric
@attribute logMelFreqBand_sma_de[3]_iqr1-2 numeric
@attribute logMelFreqBand_sma_de[3]_iqr2-3 numeric
@attribute logMelFreqBand_sma_de[3]_iqr1-3 numeric
@attribute logMelFreqBand_sma_de[3]_percentile1.0 numeric
@attribute logMelFreqBand_sma_de[3]_percentile99.0 numeric
@attribute logMelFreqBand_sma_de[3]_pctlrange0-1 numeric
@attribute logMelFreqBand_sma_de[3]_upleveltime75 numeric
@attribute logMelFreqBand_sma_de[3]_upleveltime90 numeric
@attribute logMelFreqBand_sma_de[4]_maxPos numeric
@attribute logMelFreqBand_sma_de[4]_minPos numeric
@attribute logMelFreqBand_sma_de[4]_amean numeric
@attribute logMelFreqBand_sma_de[4]_linregc1 numeric
@attribute logMelFreqBand_sma_de[4]_linregc2 numeric
@attribute logMelFreqBand_sma_de[4]_linregerrA numeric
@attribute logMelFreqBand_sma_de[4]_linregerrQ numeric
@attribute logMelFreqBand_sma_de[4]_stddev numeric
@attribute logMelFreqBand_sma_de[4]_skewness numeric
@attribute logMelFreqBand_sma_de[4]_kurtosis numeric
@attribute logMelFreqBand_sma_de[4]_quartile1 numeric
@attribute logMelFreqBand_sma_de[4]_quartile2 numeric
@attribute logMelFreqBand_sma_de[4]_quartile3 numeric
@attribute logMelFreqBand_sma_de[4]_iqr1-2 numeric
@attribute logMelFreqBand_sma_de[4]_iqr2-3 numeric
@attribute logMelFreqBand_sma_de[4]_iqr1-3 numeric
@attribute logMelFreqBand_sma_de[4]_percentile1.0 numeric
@attribute logMelFreqBand_sma_de[4]_percentile99.0 numeric
@attribute logMelFreqBand_sma_de[4]_pctlrange0-1 numeric
@attribute logMelFreqBand_sma_de[4]_upleveltime75 numeric
@attribute logMelFreqBand_sma_de[4]_upleveltime90 numeric
@attribute logMelFreqBand_sma_de[5]_maxPos numeric
@attribute logMelFreqBand_sma_de[5]_minPos numeric
@attribute logMelFreqBand_sma_de[5]_amean numeric
@attribute logMelFreqBand_sma_de[5]_linregc1 numeric
@attribute logMelFreqBand_sma_de[5]_linregc2 numeric
@attribute logMelFreqBand_sma_de[5]_linregerrA numeric
@attribute logMelFreqBand_sma_de[5]_linregerrQ numeric
@attribute logMelFreqBand_sma_de[5]_stddev numeric
@attribute logMelFreqBand_sma_de[5]_skewness numeric
@attribute logMelFreqBand_sma_de[5]_kurtosis numeric
@attribute logMelFreqBand_sma_de[5]_quartile1 numeric
@attribute logMelFreqBand_sma_de[5]_quartile2 numeric
@attribute logMelFreqBand_sma_de[5]_quartile3 numeric
@attribute logMelFreqBand_sma_de[5]_iqr1-2 numeric
@attribute logMelFreqBand_sma_de[5]_iqr2-3 numeric
@attribute logMelFreqBand_sma_de[5]_iqr1-3 numeric
@attribute logMelFreqBand_sma_de[5]_percentile1.0 numeric
@attribute logMelFreqBand_sma_de[5]_percentile99.0 numeric
@attribute logMelFreqBand_sma_de[5]_pctlrange0-1 numeric
@attribute logMelFreqBand_sma_de[5]_upleveltime75 numeric
@attribute logMelFreqBand_sma_de[5]_upleveltime90 numeric
@attribute logMelFreqBand_sma_de[6]_maxPos numeric
@attribute logMelFreqBand_sma_de[6]_minPos numeric
@attribute logMelFreqBand_sma_de[6]_amean numeric
@attribute logMelFreqBand_sma_de[6]_linregc1 numeric
@attribute logMelFreqBand_sma_de[6]_linregc2 numeric
@attribute logMelFreqBand_sma_de[6]_linregerrA numeric
@attribute logMelFreqBand_sma_de[6]_linregerrQ numeric
@attribute logMelFreqBand_sma_de[6]_stddev numeric
@attribute logMelFreqBand_sma_de[6]_skewness numeric
@attribute logMelFreqBand_sma_de[6]_kurtosis numeric
@attribute logMelFreqBand_sma_de[6]_quartile1 numeric
@attribute logMelFreqBand_sma_de[6]_quartile2 numeric
@attribute logMelFreqBand_sma_de[6]_quartile3 numeric
@attribute logMelFreqBand_sma_de[6]_iqr1-2 numeric
@attribute logMelFreqBand_sma_de[6]_iqr2-3 numeric
@attribute logMelFreqBand_sma_de[6]_iqr1-3 numeric
@attribute logMelFreqBand_sma_de[6]_percentile1.0 numeric
@attribute logMelFreqBand_sma_de[6]_percentile99.0 numeric
@attribute logMelFreqBand_sma_de[6]_pctlrange0-1 numeric
@attribute logMelFreqBand_sma_de[6]_upleveltime75 numeric
@attribute logMelFreqBand_sma_de[6]_upleveltime90 numeric
@attribute logMelFreqBand_sma_de[7]_maxPos numeric
@attribute logMelFreqBand_sma_de[7]_minPos numeric
@attribute logMelFreqBand_sma_de[7]_amean numeric
@attribute logMelFreqBand_sma_de[7]_linregc1 numeric
@attribute logMelFreqBand_sma_de[7]_linregc2 numeric
@attribute logMelFreqBand_sma_de[7]_linregerrA numeric
@attribute logMelFreqBand_sma_de[7]_linregerrQ numeric
@attribute logMelFreqBand_sma_de[7]_stddev numeric
@attribute logMelFreqBand_sma_de[7]_skewness numeric
@attribute logMelFreqBand_sma_de[7]_kurtosis numeric
@attribute logMelFreqBand_sma_de[7]_quartile1 numeric
@attribute logMelFreqBand_sma_de[7]_quartile2 numeric
@attribute logMelFreqBand_sma_de[7]_quartile3 numeric
@attribute logMelFreqBand_sma_de[7]_iqr1-2 numeric
@attribute logMelFreqBand_sma_de[7]_iqr2-3 numeric
@attribute logMelFreqBand_sma_de[7]_iqr1-3 numeric
@attribute logMelFreqBand_sma_de[7]_percentile1.0 numeric
@attribute logMelFreqBand_sma_de[7]_percentile99.0 numeric
@attribute logMelFreqBand_sma_de[7]_pctlrange0-1 numeric
@attribute logMelFreqBand_sma_de[7]_upleveltime75 numeric
@attribute logMelFreqBand_sma_de[7]_upleveltime90 numeric
@attribute lspFreq_sma_de[0]_maxPos numeric
@attribute lspFreq_sma_de[0]_minPos numeric
@attribute lspFreq_sma_de[0]_amean numeric
@attribute lspFreq_sma_de[0]_linregc1 numeric
@attribute lspFreq_sma_de[0]_linregc2 numeric
@attribute lspFreq_sma_de[0]_linregerrA numeric
@attribute lspFreq_sma_de[0]_linregerrQ numeric
@attribute lspFreq_sma_de[0]_stddev numeric
@attribute lspFreq_sma_de[0]_skewness numeric
@attribute lspFreq_sma_de[0]_kurtosis numeric
@attribute lspFreq_sma_de[0]_quartile1 numeric
@attribute lspFreq_sma_de[0]_quartile2 numeric
@attribute lspFreq_sma_de[0]_quartile3 numeric
@attribute lspFreq_sma_de[0]_iqr1-2 numeric
@attribute lspFreq_sma_de[0]_iqr2-3 numeric
@attribute lspFreq_sma_de[0]_iqr1-3 numeric
@attribute lspFreq_sma_de[0]_percentile1.0 numeric
@attribute lspFreq_sma_de[0]_percentile99.0 numeric
@attribute lspFreq_sma_de[0]_pctlrange0-1 numeric
@attribute lspFreq_sma_de[0]_upleveltime75 numeric
@attribute lspFreq_sma_de[0]_upleveltime90 numeric
@attribute lspFreq_sma_de[1]_maxPos numeric
@attribute lspFreq_sma_de[1]_minPos numeric
@attribute lspFreq_sma_de[1]_amean numeric
@attribute lspFreq_sma_de[1]_linregc1 numeric
@attribute lspFreq_sma_de[1]_linregc2 numeric
@attribute lspFreq_sma_de[1]_linregerrA numeric
@attribute lspFreq_sma_de[1]_linregerrQ numeric
@attribute lspFreq_sma_de[1]_stddev numeric
@attribute lspFreq_sma_de[1]_skewness numeric
@attribute lspFreq_sma_de[1]_kurtosis numeric
@attribute lspFreq_sma_de[1]_quartile1 numeric
@attribute lspFreq_sma_de[1]_quartile2 numeric
@attribute lspFreq_sma_de[1]_quartile3 numeric
@attribute lspFreq_sma_de[1]_iqr1-2 numeric
@attribute lspFreq_sma_de[1]_iqr2-3 numeric
@attribute lspFreq_sma_de[1]_iqr1-3 numeric
@attribute lspFreq_sma_de[1]_percentile1.0 numeric
@attribute lspFreq_sma_de[1]_percentile99.0 numeric
@attribute lspFreq_sma_de[1]_pctlrange0-1 numeric
@attribute lspFreq_sma_de[1]_upleveltime75 numeric
@attribute lspFreq_sma_de[1]_upleveltime90 numeric
@attribute lspFreq_sma_de[2]_maxPos numeric
@attribute lspFreq_sma_de[2]_minPos numeric
@attribute lspFreq_sma_de[2]_amean numeric
@attribute lspFreq_sma_de[2]_linregc1 numeric
@attribute lspFreq_sma_de[2]_linregc2 numeric
@attribute lspFreq_sma_de[2]_linregerrA numeric
@attribute lspFreq_sma_de[2]_linregerrQ numeric
@attribute lspFreq_sma_de[2]_stddev numeric
@attribute lspFreq_sma_de[2]_skewness numeric
@attribute lspFreq_sma_de[2]_kurtosis numeric
@attribute lspFreq_sma_de[2]_quartile1 numeric
@attribute lspFreq_sma_de[2]_quartile2 numeric
@attribute lspFreq_sma_de[2]_quartile3 numeric
@attribute lspFreq_sma_de[2]_iqr1-2 numeric
@attribute lspFreq_sma_de[2]_iqr2-3 numeric
@attribute lspFreq_sma_de[2]_iqr1-3 numeric
@attribute lspFreq_sma_de[2]_percentile1.0 numeric
@attribute lspFreq_sma_de[2]_percentile99.0 numeric
@attribute lspFreq_sma_de[2]_pctlrange0-1 numeric
@attribute lspFreq_sma_de[2]_upleveltime75 numeric
@attribute lspFreq_sma_de[2]_upleveltime90 numeric
@attribute lspFreq_sma_de[3]_maxPos numeric
@attribute lspFreq_sma_de[3]_minPos numeric
@attribute lspFreq_sma_de[3]_amean numeric
@attribute lspFreq_sma_de[3]_linregc1 numeric
@attribute lspFreq_sma_de[3]_linregc2 numeric
@attribute lspFreq_sma_de[3]_linregerrA numeric
@attribute lspFreq_sma_de[3]_linregerrQ numeric
@attribute lspFreq_sma_de[3]_stddev numeric
@attribute lspFreq_sma_de[3]_skewness numeric
@attribute lspFreq_sma_de[3]_kurtosis numeric
@attribute lspFreq_sma_de[3]_quartile1 numeric
@attribute lspFreq_sma_de[3]_quartile2 numeric
@attribute lspFreq_sma_de[3]_quartile3 numeric
@attribute lspFreq_sma_de[3]_iqr1-2 numeric
@attribute lspFreq_sma_de[3]_iqr2-3 numeric
@attribute lspFreq_sma_de[3]_iqr1-3 numeric
@attribute lspFreq_sma_de[3]_percentile1.0 numeric
@attribute lspFreq_sma_de[3]_percentile99.0 numeric
@attribute lspFreq_sma_de[3]_pctlrange0-1 numeric
@attribute lspFreq_sma_de[3]_upleveltime75 numeric
@attribute lspFreq_sma_de[3]_upleveltime90 numeric
@attribute lspFreq_sma_de[4]_maxPos numeric
@attribute lspFreq_sma_de[4]_minPos numeric
@attribute lspFreq_sma_de[4]_amean numeric
@attribute lspFreq_sma_de[4]_linregc1 numeric
@attribute lspFreq_sma_de[4]_linregc2 numeric
@attribute lspFreq_sma_de[4]_linregerrA numeric
@attribute lspFreq_sma_de[4]_linregerrQ numeric
@attribute lspFreq_sma_de[4]_stddev numeric
@attribute lspFreq_sma_de[4]_skewness numeric
@attribute lspFreq_sma_de[4]_kurtosis numeric
@attribute lspFreq_sma_de[4]_quartile1 numeric
@attribute lspFreq_sma_de[4]_quartile2 numeric
@attribute lspFreq_sma_de[4]_quartile3 numeric
@attribute lspFreq_sma_de[4]_iqr1-2 numeric
@attribute lspFreq_sma_de[4]_iqr2-3 numeric
@attribute lspFreq_sma_de[4]_iqr1-3 numeric
@attribute lspFreq_sma_de[4]_percentile1.0 numeric
@attribute lspFreq_sma_de[4]_percentile99.0 numeric
@attribute lspFreq_sma_de[4]_pctlrange0-1 numeric
@attribute lspFreq_sma_de[4]_upleveltime75 numeric
@attribute lspFreq_sma_de[4]_upleveltime90 numeric
@attribute lspFreq_sma_de[5]_maxPos numeric
@attribute lspFreq_sma_de[5]_minPos numeric
@attribute lspFreq_sma_de[5]_amean numeric
@attribute lspFreq_sma_de[5]_linregc1 numeric
@attribute lspFreq_sma_de[5]_linregc2 numeric
@attribute lspFreq_sma_de[5]_linregerrA numeric
@attribute lspFreq_sma_de[5]_linregerrQ numeric
@attribute lspFreq_sma_de[5]_stddev numeric
@attribute lspFreq_sma_de[5]_skewness numeric
@attribute lspFreq_sma_de[5]_kurtosis numeric
@attribute lspFreq_sma_de[5]_quartile1 numeric
@attribute lspFreq_sma_de[5]_quartile2 numeric
@attribute lspFreq_sma_de[5]_quartile3 numeric
@attribute lspFreq_sma_de[5]_iqr1-2 numeric
@attribute lspFreq_sma_de[5]_iqr2-3 numeric
@attribute lspFreq_sma_de[5]_iqr1-3 numeric
@attribute lspFreq_sma_de[5]_percentile1.0 numeric
@attribute lspFreq_sma_de[5]_percentile99.0 numeric
@attribute lspFreq_sma_de[5]_pctlrange0-1 numeric
@attribute lspFreq_sma_de[5]_upleveltime75 numeric
@attribute lspFreq_sma_de[5]_upleveltime90 numeric
@attribute lspFreq_sma_de[6]_maxPos numeric
@attribute lspFreq_sma_de[6]_minPos numeric
@attribute lspFreq_sma_de[6]_amean numeric
@attribute lspFreq_sma_de[6]_linregc1 numeric
@attribute lspFreq_sma_de[6]_linregc2 numeric
@attribute lspFreq_sma_de[6]_linregerrA numeric
@attribute lspFreq_sma_de[6]_linregerrQ numeric
@attribute lspFreq_sma_de[6]_stddev numeric
@attribute lspFreq_sma_de[6]_skewness numeric
@attribute lspFreq_sma_de[6]_kurtosis numeric
@attribute lspFreq_sma_de[6]_quartile1 numeric
@attribute lspFreq_sma_de[6]_quartile2 numeric
@attribute lspFreq_sma_de[6]_quartile3 numeric
@attribute lspFreq_sma_de[6]_iqr1-2 numeric
@attribute lspFreq_sma_de[6]_iqr2-3 numeric
@attribute lspFreq_sma_de[6]_iqr1-3 numeric
@attribute lspFreq_sma_de[6]_percentile1.0 numeric
@attribute lspFreq_sma_de[6]_percentile99.0 numeric
@attribute lspFreq_sma_de[6]_pctlrange0-1 numeric
@attribute lspFreq_sma_de[6]_upleveltime75 numeric
@attribute lspFreq_sma_de[6]_upleveltime90 numeric
@attribute lspFreq_sma_de[7]_maxPos numeric
@attribute lspFreq_sma_de[7]_minPos numeric
@attribute lspFreq_sma_de[7]_amean numeric
@attribute lspFreq_sma_de[7]_linregc1 numeric
@attribute lspFreq_sma_de[7]_linregc2 numeric
@attribute lspFreq_sma_de[7]_linregerrA numeric
@attribute lspFreq_sma_de[7]_linregerrQ numeric
@attribute lspFreq_sma_de[7]_stddev numeric
@attribute lspFreq_sma_de[7]_skewness numeric
@attribute lspFreq_sma_de[7]_kurtosis numeric
@attribute lspFreq_sma_de[7]_quartile1 numeric
@attribute lspFreq_sma_de[7]_quartile2 numeric
@attribute lspFreq_sma_de[7]_quartile3 numeric
@attribute lspFreq_sma_de[7]_iqr1-2 numeric
@attribute lspFreq_sma_de[7]_iqr2-3 numeric
@attribute lspFreq_sma_de[7]_iqr1-3 numeric
@attribute lspFreq_sma_de[7]_percentile1.0 numeric
@attribute lspFreq_sma_de[7]_percentile99.0 numeric
@attribute lspFreq_sma_de[7]_pctlrange0-1 numeric
@attribute lspFreq_sma_de[7]_upleveltime75 numeric
@attribute lspFreq_sma_de[7]_upleveltime90 numeric
@attribute F0finEnv_sma_de_maxPos numeric
@attribute F0finEnv_sma_de_minPos numeric
@attribute F0finEnv_sma_de_amean numeric
@attribute F0finEnv_sma_de_linregc1 numeric
@attribute F0finEnv_sma_de_linregc2 numeric
@attribute F0finEnv_sma_de_linregerrA numeric
@attribute F0finEnv_sma_de_linregerrQ numeric
@attribute F0finEnv_sma_de_stddev numeric
@attribute F0finEnv_sma_de_skewness numeric
@attribute F0finEnv_sma_de_kurtosis numeric
@attribute F0finEnv_sma_de_quartile1 numeric
@attribute F0finEnv_sma_de_quartile2 numeric
@attribute F0finEnv_sma_de_quartile3 numeric
@attribute F0finEnv_sma_de_iqr1-2 numeric
@attribute F0finEnv_sma_de_iqr2-3 numeric
@attribute F0finEnv_sma_de_iqr1-3 numeric
@attribute F0finEnv_sma_de_percentile1.0 numeric
@attribute F0finEnv_sma_de_percentile99.0 numeric
@attribute F0finEnv_sma_de_pctlrange0-1 numeric
@attribute F0finEnv_sma_de_upleveltime75 numeric
@attribute F0finEnv_sma_de_upleveltime90 numeric
@attribute voicingFinalUnclipped_sma_de_maxPos numeric
@attribute voicingFinalUnclipped_sma_de_minPos numeric
@attribute voicingFinalUnclipped_sma_de_amean numeric
@attribute voicingFinalUnclipped_sma_de_linregc1 numeric
@attribute voicingFinalUnclipped_sma_de_linregc2 numeric
@attribute voicingFinalUnclipped_sma_de_linregerrA numeric
@attribute voicingFinalUnclipped_sma_de_linregerrQ numeric
@attribute voicingFinalUnclipped_sma_de_stddev numeric
@attribute voicingFinalUnclipped_sma_de_skewness numeric
@attribute voicingFinalUnclipped_sma_de_kurtosis numeric
@attribute voicingFinalUnclipped_sma_de_quartile1 numeric
@attribute voicingFinalUnclipped_sma_de_quartile2 numeric
@attribute voicingFinalUnclipped_sma_de_quartile3 numeric
@attribute voicingFinalUnclipped_sma_de_iqr1-2 numeric
@attribute voicingFinalUnclipped_sma_de_iqr2-3 numeric
@attribute voicingFinalUnclipped_sma_de_iqr1-3 numeric
@attribute voicingFinalUnclipped_sma_de_percentile1.0 numeric
@attribute voicingFinalUnclipped_sma_de_percentile99.0 numeric
@attribute voicingFinalUnclipped_sma_de_pctlrange0-1 numeric
@attribute voicingFinalUnclipped_sma_de_upleveltime75 numeric
@attribute voicingFinalUnclipped_sma_de_upleveltime90 numeric
@attribute F0final_sma_maxPos numeric
@attribute F0final_sma_minPos numeric
@attribute F0final_sma_amean numeric
@attribute F0final_sma_linregc1 numeric
@attribute F0final_sma_linregc2 numeric
@attribute F0final_sma_linregerrA numeric
@attribute F0final_sma_linregerrQ numeric
@attribute F0final_sma_stddev numeric
@attribute F0final_sma_skewness numeric
@attribute F0final_sma_kurtosis numeric
@attribute F0final_sma_quartile1 numeric
@attribute F0final_sma_quartile2 numeric
@attribute F0final_sma_quartile3 numeric
@attribute F0final_sma_iqr1-2 numeric
@attribute F0final_sma_iqr2-3 numeric
@attribute F0final_sma_iqr1-3 numeric
@attribute F0final_sma_percentile99.0 numeric
@attribute F0final_sma_upleveltime75 numeric
@attribute F0final_sma_upleveltime90 numeric
@attribute jitterLocal_sma_maxPos numeric
@attribute jitterLocal_sma_minPos numeric
@attribute jitterLocal_sma_amean numeric
@attribute jitterLocal_sma_linregc1 numeric
@attribute jitterLocal_sma_linregc2 numeric
@attribute jitterLocal_sma_linregerrA numeric
@attribute jitterLocal_sma_linregerrQ numeric
@attribute jitterLocal_sma_stddev numeric
@attribute jitterLocal_sma_skewness numeric
@attribute jitterLocal_sma_kurtosis numeric
@attribute jitterLocal_sma_quartile1 numeric
@attribute jitterLocal_sma_quartile2 numeric
@attribute jitterLocal_sma_quartile3 numeric
@attribute jitterLocal_sma_iqr1-2 numeric
@attribute jitterLocal_sma_iqr2-3 numeric
@attribute jitterLocal_sma_iqr1-3 numeric
@attribute jitterLocal_sma_percentile99.0 numeric
@attribute jitterLocal_sma_upleveltime75 numeric
@attribute jitterLocal_sma_upleveltime90 numeric
@attribute jitterDDP_sma_maxPos numeric
@attribute jitterDDP_sma_minPos numeric
@attribute jitterDDP_sma_amean numeric
@attribute jitterDDP_sma_linregc1 numeric
@attribute jitterDDP_sma_linregc2 numeric
@attribute jitterDDP_sma_linregerrA numeric
@attribute jitterDDP_sma_linregerrQ numeric
@attribute jitterDDP_sma_stddev numeric
@attribute jitterDDP_sma_skewness numeric
@attribute jitterDDP_sma_kurtosis numeric
@attribute jitterDDP_sma_quartile1 numeric
@attribute jitterDDP_sma_quartile2 numeric
@attribute jitterDDP_sma_quartile3 numeric
@attribute jitterDDP_sma_iqr1-2 numeric
@attribute jitterDDP_sma_iqr2-3 numeric
@attribute jitterDDP_sma_iqr1-3 numeric
@attribute jitterDDP_sma_percentile99.0 numeric
@attribute jitterDDP_sma_upleveltime75 numeric
@attribute jitterDDP_sma_upleveltime90 numeric
@attribute shimmerLocal_sma_maxPos numeric
@attribute shimmerLocal_sma_minPos numeric
@attribute shimmerLocal_sma_amean numeric
@attribute shimmerLocal_sma_linregc1 numeric
@attribute shimmerLocal_sma_linregc2 numeric
@attribute shimmerLocal_sma_linregerrA numeric
@attribute shimmerLocal_sma_linregerrQ numeric
@attribute shimmerLocal_sma_stddev numeric
@attribute shimmerLocal_sma_skewness numeric
@attribute shimmerLocal_sma_kurtosis numeric
@attribute shimmerLocal_sma_quartile1 numeric
@attribute shimmerLocal_sma_quartile2 numeric
@attribute shimmerLocal_sma_quartile3 numeric
@attribute shimmerLocal_sma_iqr1-2 numeric
@attribute shimmerLocal_sma_iqr2-3 numeric
@attribute shimmerLocal_sma_iqr1-3 numeric
@attribute shimmerLocal_sma_percentile99.0 numeric
@attribute shimmerLocal_sma_upleveltime75 numeric
@attribute shimmerLocal_sma_upleveltime90 numeric
@attribute F0final_sma_de_maxPos numeric
@attribute F0final_sma_de_minPos numeric
@attribute F0final_sma_de_amean numeric
@attribute F0final_sma_de_linregc1 numeric
@attribute F0final_sma_de_linregc2 numeric
@attribute F0final_sma_de_linregerrA numeric
@attribute F0final_sma_de_linregerrQ numeric
@attribute F0final_sma_de_stddev numeric
@attribute F0final_sma_de_skewness numeric
@attribute F0final_sma_de_kurtosis numeric
@attribute F0final_sma_de_quartile1 numeric
@attribute F0final_sma_de_quartile2 numeric
@attribute F0final_sma_de_quartile3 numeric
@attribute F0final_sma_de_iqr1-2 numeric
@attribute F0final_sma_de_iqr2-3 numeric
@attribute F0final_sma_de_iqr1-3 numeric
@attribute F0final_sma_de_percentile99.0 numeric
@attribute F0final_sma_de_upleveltime75 numeric
@attribute F0final_sma_de_upleveltime90 numeric
@attribute jitterLocal_sma_de_maxPos numeric
@attribute jitterLocal_sma_de_minPos numeric
@attribute jitterLocal_sma_de_amean numeric
@attribute jitterLocal_sma_de_linregc1 numeric
@attribute jitterLocal_sma_de_linregc2 numeric
@attribute jitterLocal_sma_de_linregerrA numeric
@attribute jitterLocal_sma_de_linregerrQ numeric
@attribute jitterLocal_sma_de_stddev numeric
@attribute jitterLocal_sma_de_skewness numeric
@attribute jitterLocal_sma_de_kurtosis numeric
@attribute jitterLocal_sma_de_quartile1 numeric
@attribute jitterLocal_sma_de_quartile2 numeric
@attribute jitterLocal_sma_de_quartile3 numeric
@attribute jitterLocal_sma_de_iqr1-2 numeric
@attribute jitterLocal_sma_de_iqr2-3 numeric
@attribute jitterLocal_sma_de_iqr1-3 numeric
@attribute jitterLocal_sma_de_percentile99.0 numeric
@attribute jitterLocal_sma_de_upleveltime75 numeric
@attribute jitterLocal_sma_de_upleveltime90 numeric
@attribute jitterDDP_sma_de_maxPos numeric
@attribute jitterDDP_sma_de_minPos numeric
@attribute jitterDDP_sma_de_amean numeric
@attribute jitterDDP_sma_de_linregc1 numeric
@attribute jitterDDP_sma_de_linregc2 numeric
@attribute jitterDDP_sma_de_linregerrA numeric
@attribute jitterDDP_sma_de_linregerrQ numeric
@attribute jitterDDP_sma_de_stddev numeric
@attribute jitterDDP_sma_de_skewness numeric
@attribute jitterDDP_sma_de_kurtosis numeric
@attribute jitterDDP_sma_de_quartile1 numeric
@attribute jitterDDP_sma_de_quartile2 numeric
@attribute jitterDDP_sma_de_quartile3 numeric
@attribute jitterDDP_sma_de_iqr1-2 numeric
@attribute jitterDDP_sma_de_iqr2-3 numeric
@attribute jitterDDP_sma_de_iqr1-3 numeric
@attribute jitterDDP_sma_de_percentile99.0 numeric
@attribute jitterDDP_sma_de_upleveltime75 numeric
@attribute jitterDDP_sma_de_upleveltime90 numeric
@attribute shimmerLocal_sma_de_maxPos numeric
@attribute shimmerLocal_sma_de_minPos numeric
@attribute shimmerLocal_sma_de_amean numeric
@attribute shimmerLocal_sma_de_linregc1 numeric
@attribute shimmerLocal_sma_de_linregc2 numeric
@attribute shimmerLocal_sma_de_linregerrA numeric
@attribute shimmerLocal_sma_de_linregerrQ numeric
@attribute shimmerLocal_sma_de_stddev numeric
@attribute shimmerLocal_sma_de_skewness numeric
@attribute shimmerLocal_sma_de_kurtosis numeric
@attribute shimmerLocal_sma_de_quartile1 numeric
@attribute shimmerLocal_sma_de_quartile2 numeric
@attribute shimmerLocal_sma_de_quartile3 numeric
@attribute shimmerLocal_sma_de_iqr1-2 numeric
@attribute shimmerLocal_sma_de_iqr2-3 numeric
@attribute shimmerLocal_sma_de_iqr1-3 numeric
@attribute shimmerLocal_sma_de_percentile99.0 numeric
@attribute shimmerLocal_sma_de_upleveltime75 numeric
@attribute shimmerLocal_sma_de_upleveltime90 numeric
@attribute F0final__Turn_numOnsets numeric
@attribute F0final__Turn_duration numeric
@attribute numeric_class numeric

@data

'noname',8.400000e+001,2.600000e+002,1.350562e+000,-4.857326e-003,2.020873e+000,4.962245e-001,3.896745e-001,7.352089e-001,8.706589e-001,3.186410e+000,7.725971e-001,1.192246e+000,1.826474e+000,4.196485e-001,6.342280e-001,1.053876e+000,3.401491e-001,3.404960e+000,3.064811e+000,4.693141e-002,1.444043e-002,5.000000e+000,1.860000e+002,-1.104509e+001,-7.076878e-002,-1.279002e+000,7.765643e+000,8.448777e+001,1.079399e+001,-1.615869e-002,2.108038e+000,-1.885929e+001,-1.175908e+001,-2.790284e+000,7.100213e+000,8.968792e+000,1.606901e+001,-3.016949e+001,8.743759e+000,3.891325e+001,1.768953e-001,3.610108e-002,1.370000e+002,2.180000e+002,-1.993517e-001,-6.167570e-002,8.311895e+000,9.562797e+000,1.523118e+002,1.329037e+001,-6.836224e-001,2.750875e+000,-7.186125e+000,8.948181e-001,1.193792e+001,8.080943e+000,1.104311e+001,1.912405e+001,-3.308818e+001,1.811818e+001,5.120636e+001,4.007220e-001,1.913357e-001,1.690000e+002,1.140000e+002,2.898116e+000,3.714970e-002,-2.228544e+000,1.021444e+001,1.626024e+002,1.309301e+001,-5.656176e-001,2.844992e+000,-5.258440e+000,6.376234e+000,1.089405e+001,1.163467e+001,4.517813e+000,1.615249e+001,-2.909340e+001,2.578971e+001,5.488311e+001,2.346570e-001,7.581227e-002,1.900000e+001,1.170000e+002,-1.517926e+000,-3.814336e-002,3.745857e+000,9.303994e+000,1.352928e+002,1.202479e+001,1.052583e+000,3.801139e+000,-1.019850e+001,-4.420621e+000,5.959888e+000,5.777877e+000,1.038051e+001,1.615839e+001,-1.829688e+001,3.609402e+001,5.439090e+001,4.332130e-002,1.444043e-002,1.690000e+002,1.390000e+002,-1.237727e+001,6.600839e-002,-2.148643e+001,1.191416e+001,2.171617e+002,1.565315e+001,-6.387061e-001,2.485808e+000,-2.288596e+001,-8.498316e+000,1.023338e+000,1.438765e+001,9.521653e+000,2.390930e+001,-5.024755e+001,1.113722e+001,6.138477e+001,3.574007e-001,3.249098e-002,2.210000e+002,6.900000e+001,1.637314e+000,1.274450e-002,-1.214268e-001,1.056453e+001,1.740709e+002,1.323289e+001,-1.967229e-001,2.586560e+000,-6.618456e+000,3.284349e+000,1.063213e+001,9.902805e+000,7.347781e+000,1.725059e+001,-2.790626e+001,2.582180e+001,5.372806e+001,1.299639e-001,1.083033e-002,1.120000e+002,1.960000e+002,-5.869404e+000,2.228914e-002,-8.945305e+000,1.077125e+001,1.612777e+002,1.282397e+001,-3.860513e-001,2.107421e+000,-1.595522e+001,-1.907291e+000,4.197800e+000,1.404792e+001,6.105091e+000,2.015302e+001,-3.393152e+001,1.640184e+001,5.033337e+001,2.021661e-001,2.888087e-002,2.470000e+002,2.330000e+002,-4.972723e+000,6.749150e-002,-1.428655e+001,1.040668e+001,1.603739e+002,1.376587e+001,-2.829052e-001,2.424146e+000,-1.391338e+001,-3.671726e+000,5.780981e+000,1.024165e+001,9.452707e+000,1.969436e+001,-3.530941e+001,2.427604e+001,5.958545e+001,1.371841e-001,2.888087e-002,2.200000e+002,1.800000e+001,8.191011e-002,2.448414e-002,-3.296901e+000,8.148926e+000,1.088924e+002,1.061723e+001,-1.711344e-001,3.057516e+000,-7.022850e+000,3.637748e-001,6.731824e+000,7.386625e+000,6.368050e+000,1.375467e+001,-2.749689e+001,2.272848e+001,5.022537e+001,1.119134e-001,1.444043e-002,2.350000e+002,1.700000e+001,1.715659e+000,4.729438e-002,-4.810965e+000,8.429399e+000,1.082482e+002,1.107023e+001,-6.945532e-001,3.214705e+000,-4.978223e+000,4.525484e+000,9.248202e+000,9.503708e+000,4.722718e+000,1.422643e+001,-2.749202e+001,2.253158e+001,5.002361e+001,7.581227e-002,1.083033e-002,1.060000e+002,2.000000e+000,-2.358577e+000,3.767829e-002,-7.558180e+000,7.613607e+000,8.828020e+001,9.866989e+000,3.476056e-001,2.474507e+000,-1.033157e+001,-3.803496e+000,5.655592e+000,6.528074e+000,9.459089e+000,1.598716e+001,-2.079758e+001,1.944795e+001,4.024553e+001,3.610108e-002,7.220217e-003,2.300000e+002,7.500000e+001,-2.030882e+000,7.239387e-002,-1.202124e+001,8.320030e+000,1.041883e+002,1.173450e+001,-2.834509e-001,2.479765e+000,-1.087468e+001,-1.300550e+000,6.823370e+000,9.574126e+000,8.123920e+000,1.769805e+001,-2.853547e+001,2.099217e+001,4.952764e+001,1.335740e-001,2.527076e-002,1.620000e+002,5.400000e+001,-1.541400e-001,5.105722e-002,-7.200036e+000,6.129845e+000,6.525825e+001,9.051319e+000,-5.098818e-001,3.216542e+000,-5.701698e+000,1.561839e+000,6.172106e+000,7.263537e+000,4.610267e+000,1.187380e+001,-2.387799e+001,1.999318e+001,4.387118e+001,9.025270e-002,1.444043e-002,2.740000e+002,8.900000e+001,-4.450976e+000,3.497478e-002,-9.277496e+000,5.980345e+000,5.833882e+001,8.133891e+000,-5.944651e-001,3.384576e+000,-9.120473e+000,-3.928671e+000,1.491381e+000,5.191802e+000,5.420053e+000,1.061185e+001,-2.715029e+001,1.095915e+001,3.810943e+001,2.382672e-001,3.971119e-002,1.250000e+002,4.200000e+001,-2.725435e+000,1.248067e-002,-4.447768e+000,5.915174e+000,4.844195e+001,7.031211e+000,-1.149618e-001,2.149858e+000,-8.647212e+000,-2.461145e+000,3.409347e+000,6.186068e+000,5.870491e+000,1.205656e+001,-1.795549e+001,1.079360e+001,2.874909e+001,2.382672e-001,4.332130e-002,5.000000e+000,1.790000e+002,-1.303980e-001,-1.734529e-002,2.263251e+000,1.560714e+000,3.375106e+000,2.301912e+000,-2.071976e-001,1.411066e+000,-2.719729e+000,4.412996e-001,2.029192e+000,3.161029e+000,1.587893e+000,4.748921e+000,-3.515782e+000,3.349043e+000,6.864825e+000,3.610108e-001,5.776173e-002,1.990000e+002,2.600000e+002,2.516125e-001,-1.668404e-002,2.554009e+000,2.032698e+000,5.571956e+000,2.711415e+000,3.037322e-002,1.491994e+000,-2.468864e+000,1.559463e-001,2.679551e+000,2.624810e+000,2.523605e+000,5.148415e+000,-3.434052e+000,4.496093e+000,7.930145e+000,2.815884e-001,1.299639e-001,7.500000e+001,2.540000e+002,-8.490277e-002,-1.434321e-002,1.894460e+000,2.029908e+000,5.485551e+000,2.607867e+000,4.504846e-001,1.933228e+000,-2.302291e+000,-4.550864e-001,2.151858e+000,1.847205e+000,2.606945e+000,4.454149e+000,-3.554201e+000,5.178815e+000,8.733016e+000,1.732852e-001,6.859206e-002,1.150000e+002,1.740000e+002,-4.330841e-001,-1.221011e-002,1.251911e+000,1.763564e+000,4.388464e+000,2.311217e+000,6.143049e-001,2.300684e+000,-2.271283e+000,-1.002757e+000,1.237396e+000,1.268526e+000,2.240153e+000,3.508680e+000,-3.571842e+000,4.678130e+000,8.249972e+000,1.227437e-001,2.888087e-002,7.000000e+001,1.870000e+002,-6.710756e-001,-1.139395e-002,9.012899e-001,1.782007e+000,4.188779e+000,2.240282e+000,4.516712e-001,2.005383e+000,-2.634309e+000,-1.114336e+000,9.947567e-001,1.519972e+000,2.109093e+000,3.629065e+000,-3.683152e+000,4.004080e+000,7.687232e+000,1.552346e-001,5.054152e-002,2.000000e+001,1.800000e+002,-6.137119e-001,-1.096261e-002,8.991282e-001,1.464613e+000,2.893510e+000,1.913618e+000,3.422260e-001,2.247186e+000,-2.198800e+000,-8.253503e-001,7.168772e-001,1.373450e+000,1.542228e+000,2.915677e+000,-3.601452e+000,3.734846e+000,7.336297e+000,1.119134e-001,2.888087e-002,4.000000e+000,1.860000e+002,1.137119e-001,-1.008879e-002,1.505965e+000,1.402690e+000,2.808166e+000,1.859831e+000,5.656004e-002,2.145552e+000,-1.156527e+000,1.976392e-002,1.636624e+000,1.176291e+000,1.616860e+000,2.793150e+000,-3.154917e+000,3.862858e+000,7.017775e+000,1.841155e-001,4.693141e-002,9.700000e+001,1.540000e+002,2.020666e-001,-3.951119e-003,7.473210e-001,1.239808e+000,2.482621e+000,1.606997e+000,6.402341e-001,3.011520e+000,-9.515969e-001,4.241053e-002,1.117125e+000,9.940075e-001,1.074715e+000,2.068722e+000,-2.277711e+000,4.463437e+000,6.741148e+000,8.303249e-002,3.610108e-002,1.130000e+002,4.200000e+001,2.579961e-001,-9.766308e-005,2.714736e-001,5.596781e-002,5.192054e-003,7.247787e-002,8.412650e-001,3.812088e+000,2.039851e-001,2.470945e-001,2.971805e-001,4.310937e-002,5.008602e-002,9.319539e-002,1.280439e-001,4.866777e-001,3.586338e-001,5.054152e-002,2.166065e-002,2.180000e+002,2.700000e+001,4.991612e-001,5.608789e-004,4.217600e-001,7.484191e-002,9.498949e-003,1.072866e-001,2.701906e-001,2.696713e+000,4.201499e-001,4.896436e-001,5.726470e-001,6.949371e-002,8.300343e-002,1.524971e-001,2.916380e-001,7.717553e-001,4.801173e-001,3.971119e-002,1.444043e-002,2.000000e+001,1.370000e+002,9.001495e-001,1.004696e-004,8.862846e-001,1.270911e-001,2.467591e-002,1.572910e-001,-6.702274e-002,2.819494e+000,8.022531e-001,9.024678e-001,1.017470e+000,1.002147e-001,1.150017e-001,2.152165e-001,5.643548e-001,1.297017e+000,7.326621e-001,3.610108e-002,1.444043e-002,2.170000e+002,8.800000e+001,1.122381e+000,4.352907e-004,1.062311e+000,1.346723e-001,3.053245e-002,1.781684e-001,-1.680668e-001,2.654831e+000,9.814693e-001,1.156280e+000,1.227170e+000,1.748103e-001,7.088995e-002,2.457003e-001,7.536685e-001,1.520669e+000,7.670009e-001,7.581227e-002,3.249098e-002,2.170000e+002,1.470000e+002,1.668021e+000,7.398839e-006,1.667000e+000,8.341242e-002,1.213646e-002,1.101672e-001,9.990591e-001,4.250539e+000,1.594827e+000,1.650624e+000,1.717371e+000,5.579698e-002,6.674719e-002,1.225442e-001,1.475437e+000,2.021277e+000,5.458403e-001,5.415162e-002,1.444043e-002,2.170000e+002,1.470000e+002,1.830113e+000,9.350812e-005,1.817209e+000,7.198536e-002,9.271772e-003,9.657991e-002,7.956938e-001,4.292503e+000,1.762962e+000,1.822796e+000,1.882032e+000,5.983388e-002,5.923569e-002,1.190696e-001,1.628947e+000,2.129704e+000,5.007563e-001,5.776173e-002,1.805054e-002,2.650000e+002,6.900000e+001,2.209826e+000,2.278185e-005,2.206683e+000,4.380158e-002,3.222507e-003,5.679636e-002,-3.080623e-001,3.408363e+000,2.179077e+000,2.207710e+000,2.245493e+000,2.863312e-002,3.778267e-002,6.641579e-002,2.061051e+000,2.321541e+000,2.604904e-001,2.057762e-001,5.054152e-002,2.470000e+002,1.190000e+002,2.282243e+000,3.754073e-005,2.277063e+000,3.555561e-002,1.912976e-003,4.384047e-002,-2.456261e-001,2.852710e+000,2.251122e+000,2.283800e+000,2.313797e+000,3.267884e-002,2.999663e-002,6.267548e-002,2.168231e+000,2.366727e+000,1.984961e-001,2.166065e-001,3.249098e-002,3.600000e+001,0.000000e+000,1.952456e+002,6.009408e-003,1.944163e+002,8.216522e+000,3.964181e+002,1.991605e+001,-7.750268e+000,7.280439e+001,1.911901e+002,1.958420e+002,2.034512e+002,4.651886e+000,7.609192e+000,1.226108e+001,1.214788e+002,2.117668e+002,9.028793e+001,9.855596e-001,8.808664e-001,7.300000e+001,2.800000e+001,3.636931e-001,-2.089547e-003,6.520506e-001,2.421454e-001,7.936269e-002,3.275366e-001,1.635781e-001,1.352300e+000,0.000000e+000,2.444981e-001,7.489274e-001,2.444981e-001,5.044293e-001,7.489274e-001,0.000000e+000,8.097703e-001,8.097703e-001,3.393502e-001,3.176895e-001,4.000000e+000,2.100000e+001,-9.694042e-004,-9.725624e-005,1.245196e-002,1.509128e-001,4.397776e-002,2.098529e-001,-3.078273e-002,4.230022e+000,-1.070200e-001,7.094145e-004,1.050343e-001,1.077294e-001,1.043249e-001,2.120543e-001,-5.600400e-001,5.641328e-001,1.124173e+000,6.498195e-002,1.805054e-002,2.000000e+000,1.520000e+002,-3.331969e-002,-1.875092e-003,2.254430e-001,1.759606e+000,5.148712e+000,2.274026e+000,6.054389e-001,3.515579e+000,-1.449394e+000,-2.561865e-001,1.177999e+000,1.193207e+000,1.434186e+000,2.627393e+000,-4.288105e+000,6.417524e+000,1.070563e+001,5.054152e-002,1.805054e-002,1.340000e+002,9.400000e+001,-1.492875e-002,-4.333612e-004,4.487509e-002,2.127342e+000,8.874148e+000,2.979152e+000,3.939887e-002,4.140951e+000,-1.504855e+000,-1.420736e-002,1.361830e+000,1.490648e+000,1.376037e+000,2.866684e+000,-7.922328e+000,7.791816e+000,1.571414e+001,6.137184e-002,2.166065e-002,1.190000e+002,1.090000e+002,-1.034976e-003,1.980108e-004,-2.836047e-002,2.253559e+000,8.297867e+000,2.880646e+000,-6.963833e-002,2.865058e+000,-1.798671e+000,4.264336e-002,1.991600e+000,1.841314e+000,1.948957e+000,3.790271e+000,-6.625997e+000,6.237988e+000,1.286399e+001,1.010830e-001,1.083033e-002,1.600000e+001,2.090000e+002,-6.391545e-002,8.178289e-004,-1.767758e-001,2.021029e+000,6.929510e+000,2.633209e+000,-2.494076e-001,3.003213e+000,-1.559445e+000,4.792047e-002,1.443276e+000,1.607365e+000,1.395356e+000,3.002721e+000,-6.909016e+000,5.324635e+000,1.223365e+001,1.696751e-001,4.693141e-002,3.900000e+001,1.350000e+002,2.321178e-002,2.653277e-003,-3.429404e-001,2.602707e+000,1.237982e+001,3.524888e+000,-2.022889e-001,3.690229e+000,-1.756530e+000,1.008070e-001,1.741604e+000,1.857337e+000,1.640797e+000,3.498135e+000,-8.861097e+000,7.941514e+000,1.680261e+001,1.516245e-001,3.610108e-002,7.100000e+001,2.230000e+002,3.442988e-002,8.162564e-005,2.316554e-002,2.151015e+000,7.698901e+000,2.774697e+000,-2.380062e-001,2.958083e+000,-1.495417e+000,2.810206e-001,1.871369e+000,1.776438e+000,1.590348e+000,3.366786e+000,-6.906579e+000,5.711419e+000,1.261800e+001,1.046931e-001,1.083033e-002,1.650000e+002,1.940000e+002,3.179635e-002,3.128644e-004,-1.137894e-002,2.216201e+000,9.019962e+000,3.003429e+000,-1.826458e-001,4.139859e+000,-1.375839e+000,3.632507e-002,1.644890e+000,1.412164e+000,1.608565e+000,3.020729e+000,-7.641639e+000,8.473582e+000,1.611522e+001,6.859206e-002,1.805054e-002,2.390000e+002,1.000000e+000,1.337495e-002,1.014466e-003,-1.266214e-001,2.643411e+000,1.127310e+001,3.358524e+000,7.924931e-002,3.050642e+000,-2.353849e+000,2.041776e-001,2.032649e+000,2.558026e+000,1.828471e+000,4.386497e+000,-7.672404e+000,8.234728e+000,1.590713e+001,8.664260e-002,2.527076e-002,9.200000e+001,2.220000e+002,-2.946094e-002,1.342507e-003,-2.147269e-001,2.291055e+000,8.447107e+000,2.908373e+000,1.673013e-001,3.145458e+000,-2.125425e+000,-1.429894e-001,1.710620e+000,1.982435e+000,1.853610e+000,3.836045e+000,-6.973039e+000,7.179128e+000,1.415217e+001,1.155235e-001,2.166065e-002,5.000000e+000,1.400000e+001,9.141284e-002,-8.485524e-004,2.085131e-001,2.361471e+000,8.691955e+000,2.948993e+000,-1.780812e-001,2.896215e+000,-1.861303e+000,1.646080e-001,2.213018e+000,2.025911e+000,2.048410e+000,4.074321e+000,-7.448028e+000,6.128725e+000,1.357675e+001,1.480144e-001,2.166065e-002,1.390000e+002,1.570000e+002,3.928927e-002,1.316007e-004,2.112837e-002,2.077976e+000,7.307629e+000,2.703283e+000,-5.157744e-002,3.182408e+000,-1.698521e+000,6.955729e-002,1.696095e+000,1.768078e+000,1.626537e+000,3.394616e+000,-6.525719e+000,6.076930e+000,1.260265e+001,9.747292e-002,1.083033e-002,1.520000e+002,2.330000e+002,-3.645149e-002,1.387914e-003,-2.279837e-001,2.320148e+000,8.781351e+000,2.965412e+000,-4.833303e-001,3.314578e+000,-1.719345e+000,1.353641e-001,1.861706e+000,1.854709e+000,1.726342e+000,3.581051e+000,-8.666345e+000,5.559056e+000,1.422540e+001,1.841155e-001,2.166065e-002,5.700000e+001,1.640000e+002,1.479444e-003,2.668406e-004,-3.534455e-002,1.889285e+000,5.568571e+000,2.359878e+000,1.411681e-001,2.818875e+000,-1.756735e+000,-1.305337e-001,1.448391e+000,1.626201e+000,1.578925e+000,3.205126e+000,-4.891482e+000,5.630958e+000,1.052244e+001,6.137184e-002,1.083033e-002,4.400000e+001,2.100000e+001,3.214540e-002,2.385599e-004,-7.758646e-004,1.669912e+000,4.183780e+000,2.045518e+000,1.651889e-001,2.847214e+000,-1.453093e+000,1.924910e-001,1.336856e+000,1.645584e+000,1.144365e+000,2.789949e+000,-4.189753e+000,4.522767e+000,8.712520e+000,4.332130e-002,7.220217e-003,1.230000e+002,2.640000e+002,4.834532e-002,3.702155e-004,-2.744419e-003,1.506366e+000,3.783870e+000,1.945443e+000,-4.885577e-001,3.222219e+000,-9.360960e-001,1.651894e-001,1.356873e+000,1.101285e+000,1.191683e+000,2.292969e+000,-4.971202e+000,3.707754e+000,8.678955e+000,2.599278e-001,7.581227e-002,1.930000e+002,1.520000e+002,-8.935574e-003,-2.680862e-004,2.806032e-002,2.822682e-001,1.862471e-001,4.320957e-001,5.920848e-001,4.621603e+000,-1.776551e-001,-2.546511e-002,8.877754e-002,1.521900e-001,1.142427e-001,2.664326e-001,-1.004759e+000,1.295394e+000,2.300153e+000,7.581227e-002,3.249098e-002,1.940000e+002,1.650000e+002,-7.610359e-003,-4.020098e-004,4.786699e-002,3.923703e-001,3.089018e-001,5.567182e-001,4.751539e-001,3.927765e+000,-2.812298e-001,-3.405287e-002,1.709675e-001,2.471769e-001,2.050204e-001,4.521973e-001,-1.251469e+000,1.559873e+000,2.811342e+000,5.776173e-002,2.166065e-002,1.350000e+002,1.200000e+002,-3.329249e-003,-3.986134e-004,5.167940e-002,3.967539e-001,2.912349e-001,5.406023e-001,5.105451e-001,3.708869e+000,-2.897690e-001,-3.786125e-002,2.256432e-001,2.519077e-001,2.635044e-001,5.154122e-001,-1.120950e+000,1.395049e+000,2.515999e+000,7.942238e-002,2.888087e-002,2.000000e+000,1.190000e+002,-3.470660e-004,-3.309366e-004,4.532219e-002,3.466110e-001,2.141080e-001,4.634741e-001,4.687837e-001,3.632969e+000,-2.776500e-001,-2.826891e-002,1.972018e-001,2.493811e-001,2.254707e-001,4.748518e-001,-1.041726e+000,1.276566e+000,2.318292e+000,8.664260e-002,2.166065e-002,1.940000e+002,1.520000e+002,-7.344340e-003,-1.750192e-004,1.680831e-002,3.742161e-001,2.273553e-001,4.770232e-001,3.978442e-001,2.993530e+000,-3.421591e-001,-4.001075e-002,2.762681e-001,3.021483e-001,3.162788e-001,6.184272e-001,-9.351038e-001,1.256140e+000,2.191244e+000,6.498195e-002,1.444043e-002,2.000000e+000,1.520000e+002,-6.731750e-003,-2.474244e-004,2.741282e-002,3.337004e-001,1.746157e-001,4.183386e-001,4.004673e-001,3.080833e+000,-2.955499e-001,-5.408013e-002,2.646107e-001,2.414698e-001,3.186908e-001,5.601606e-001,-8.438767e-001,1.154364e+000,1.998241e+000,3.249098e-002,1.083033e-002,2.000000e+000,2.210000e+002,-7.648956e-003,-3.002041e-004,3.377921e-002,3.250115e-001,1.789880e-001,4.237503e-001,2.821386e-001,3.249154e+000,-2.930976e-001,-3.533473e-002,2.283587e-001,2.577629e-001,2.636934e-001,5.214564e-001,-8.994596e-001,1.037763e+000,1.937223e+000,6.137184e-002,1.083033e-002,2.610000e+002,1.030000e+002,-3.119306e-003,-2.885314e-004,3.669802e-002,3.379492e-001,1.976231e-001,4.451466e-001,1.094458e-001,3.344660e+000,-2.626359e-001,-1.406052e-002,2.721602e-001,2.485754e-001,2.862208e-001,5.347962e-001,-9.515620e-001,1.143293e+000,2.094855e+000,6.498195e-002,1.805054e-002,1.090000e+002,2.480000e+002,6.668610e-005,-1.233562e-005,1.769002e-003,1.255286e-002,2.785597e-004,1.671923e-002,-9.018227e-002,4.402901e+000,-8.857709e-003,3.656283e-004,9.622635e-003,9.223337e-003,9.257007e-003,1.848035e-002,-4.432392e-002,4.140625e-002,8.573017e-002,5.054152e-002,7.220217e-003,1.650000e+002,2.230000e+002,5.349964e-004,7.571848e-006,-5.099187e-004,1.869224e-002,6.976525e-004,2.642005e-002,-1.052001e-001,4.902363e+000,-1.178748e-002,-9.675861e-004,1.469187e-002,1.081990e-002,1.565946e-002,2.647936e-002,-7.088809e-002,7.581253e-002,1.467006e-001,3.249098e-002,1.083033e-002,9.300000e+001,1.340000e+002,-6.776244e-004,1.267945e-005,-2.427388e-003,2.612741e-002,1.202999e-003,3.469909e-002,-1.367473e-001,3.531276e+000,-1.977139e-002,-1.050329e-003,2.031059e-002,1.872106e-002,2.136092e-002,4.008198e-002,-8.195963e-002,7.752012e-002,1.594798e-001,1.155235e-001,1.444043e-002,9.300000e+001,1.350000e+002,-1.039864e-004,9.248472e-006,-1.380275e-003,3.049790e-002,1.792362e-003,4.234275e-002,-2.268892e-001,4.620784e+000,-2.090664e-002,-6.266475e-004,2.253145e-002,2.027999e-002,2.315810e-002,4.343809e-002,-1.212705e-001,1.096983e-001,2.309688e-001,3.971119e-002,1.083033e-002,2.150000e+002,2.210000e+002,-2.863187e-004,-1.117268e-005,1.255512e-003,1.770237e-002,5.194828e-004,2.280967e-002,9.547572e-003,3.349506e+000,-1.392833e-002,-3.897786e-004,1.378555e-002,1.353855e-002,1.417533e-002,2.771388e-002,-5.449131e-002,5.592083e-002,1.104121e-001,6.137184e-002,1.805054e-002,1.200000e+002,1.030000e+002,-2.811530e-004,4.036579e-006,-8.382009e-004,1.702446e-002,4.588654e-004,2.142357e-002,4.057140e-001,3.219759e+000,-1.569151e-002,-2.243590e-003,1.183535e-002,1.344792e-002,1.407894e-002,2.752686e-002,-4.761442e-002,5.357017e-002,1.011846e-001,7.581227e-002,1.083033e-002,1.210000e+002,3.400000e+001,-1.272085e-004,-4.941008e-006,5.546506e-004,1.289872e-002,2.874981e-004,1.696037e-002,5.078206e-001,3.679286e+000,-1.026165e-002,-8.786440e-004,8.787179e-003,9.383011e-003,9.665824e-003,1.904883e-002,-3.602905e-002,4.643119e-002,8.246024e-002,3.249098e-002,1.083033e-002,1.210000e+002,6.700000e+001,-1.321349e-004,-1.346623e-006,5.369903e-005,9.920772e-003,1.710062e-004,1.307738e-002,4.138803e-001,4.353614e+000,-7.693648e-003,-2.549171e-004,7.827711e-003,7.438731e-003,8.082628e-003,1.552136e-002,-2.781440e-002,3.817990e-002,6.599431e-002,2.527076e-002,3.610108e-003,2.000000e+000,4.900000e+001,6.902170e-001,-1.558501e-002,2.840948e+000,1.882231e+000,3.028154e+001,5.642215e+000,8.132172e+000,7.233729e+001,0.000000e+000,0.000000e+000,0.000000e+000,0.000000e+000,0.000000e+000,0.000000e+000,-2.831319e+000,3.440768e+001,3.723899e+001,7.220217e-003,7.220217e-003,6.600000e+001,1.170000e+002,-1.034429e-003,-3.445990e-005,3.721036e-003,5.680943e-002,6.994772e-003,8.368014e-002,-7.563043e-002,3.605823e+000,-4.570767e-002,0.000000e+000,4.172416e-002,4.570767e-002,4.172416e-002,8.743182e-002,-2.044214e-001,1.975233e-001,4.019447e-001,1.155235e-001,3.610108e-002,2.300000e+001,9.000000e+001,1.621657e+002,-1.056223e-001,1.669187e+002,4.360315e+001,2.532118e+003,5.039658e+001,-1.002083e+000,2.489649e+000,1.315085e+002,1.881947e+002,1.972831e+002,5.668625e+001,9.088379e+000,6.577463e+001,2.102489e+002,6.483517e-001,2.307692e-001,6.900000e+001,8.300000e+001,1.266771e-002,5.706400e-005,1.009983e-002,9.876745e-003,2.421168e-004,1.563213e-002,2.839198e+000,1.130348e+001,4.605296e-003,7.388195e-003,1.162527e-002,2.782899e-003,4.237077e-003,7.019976e-003,8.177093e-002,3.296703e-002,2.197802e-002,7.100000e+001,8.000000e+001,1.043862e-002,-6.222991e-006,1.070621e-002,9.010400e-003,1.992532e-004,1.411657e-002,2.514355e+000,8.584147e+000,3.321804e-003,5.919384e-003,7.957355e-003,2.597580e-003,2.037971e-003,4.635551e-003,6.532712e-002,3.448276e-002,2.298851e-002,4.500000e+001,9.000000e+001,1.449099e-001,5.898357e-004,1.183673e-001,4.831693e-002,6.398214e-003,8.147557e-002,2.301696e+000,1.100113e+001,1.008216e-001,1.367374e-001,1.647464e-001,3.591579e-002,2.800904e-002,6.392483e-002,4.905794e-001,3.296703e-002,2.197802e-002,2.800000e+001,3.200000e+001,-4.341502e-008,-1.077871e-001,6.305547e+000,2.369373e+001,9.582274e+002,3.117222e+001,1.626828e-002,2.301839e+000,-1.491543e+001,-1.438232e-001,1.440535e+001,1.477161e+001,1.454917e+001,2.932078e+001,5.590186e+001,2.372881e-001,1.101695e-001,8.400000e+001,8.700000e+001,4.362492e-012,-8.419877e-006,4.925628e-004,3.581969e-003,3.993717e-005,6.326091e-003,1.590589e-001,8.097413e+000,-1.547737e-003,-3.431655e-004,1.125166e-003,1.204572e-003,1.468332e-003,2.672903e-003,2.133511e-002,5.084746e-002,1.694915e-002,9.100000e+001,9.400000e+001,1.135682e-011,-7.166100e-006,4.084677e-004,3.101399e-003,3.047369e-005,5.525422e-003,2.678847e-001,6.608539e+000,-1.034009e-003,-3.907707e-004,1.101836e-003,6.432385e-004,1.492607e-003,2.135845e-003,1.817365e-002,5.217391e-002,1.739130e-002,5.600000e+001,5.900000e+001,7.837070e-011,-9.631762e-005,5.634581e-003,2.850307e-002,1.562563e-003,3.966518e-002,5.464381e-001,5.209543e+000,-2.214159e-002,-2.729157e-003,1.867634e-002,1.941244e-002,2.140549e-002,4.081793e-002,1.259961e-001,1.694915e-002,1.694915e-002,8.000000e+000,2.790000e+000,0.0
