@relation SMILEfeatures

@attribute name string
@attribute pcm_loudness_sma_maxPos numeric
@attribute pcm_loudness_sma_minPos numeric
@attribute pcm_loudness_sma_amean numeric
@attribute pcm_loudness_sma_linregc1 numeric
@attribute pcm_loudness_sma_linregc2 numeric
@attribute pcm_loudness_sma_linregerrA numeric
@attribute pcm_loudness_sma_linregerrQ numeric
@attribute pcm_loudness_sma_stddev numeric
@attribute pcm_loudness_sma_skewness numeric
@attribute pcm_loudness_sma_kurtosis numeric
@attribute pcm_loudness_sma_quartile1 numeric
@attribute pcm_loudness_sma_quartile2 numeric
@attribute pcm_loudness_sma_quartile3 numeric
@attribute pcm_loudness_sma_iqr1-2 numeric
@attribute pcm_loudness_sma_iqr2-3 numeric
@attribute pcm_loudness_sma_iqr1-3 numeric
@attribute pcm_loudness_sma_percentile1.0 numeric
@attribute pcm_loudness_sma_percentile99.0 numeric
@attribute pcm_loudness_sma_pctlrange0-1 numeric
@attribute pcm_loudness_sma_upleveltime75 numeric
@attribute pcm_loudness_sma_upleveltime90 numeric
@attribute mfcc_sma[0]_maxPos numeric
@attribute mfcc_sma[0]_minPos numeric
@attribute mfcc_sma[0]_amean numeric
@attribute mfcc_sma[0]_linregc1 numeric
@attribute mfcc_sma[0]_linregc2 numeric
@attribute mfcc_sma[0]_linregerrA numeric
@attribute mfcc_sma[0]_linregerrQ numeric
@attribute mfcc_sma[0]_stddev numeric
@attribute mfcc_sma[0]_skewness numeric
@attribute mfcc_sma[0]_kurtosis numeric
@attribute mfcc_sma[0]_quartile1 numeric
@attribute mfcc_sma[0]_quartile2 numeric
@attribute mfcc_sma[0]_quartile3 numeric
@attribute mfcc_sma[0]_iqr1-2 numeric
@attribute mfcc_sma[0]_iqr2-3 numeric
@attribute mfcc_sma[0]_iqr1-3 numeric
@attribute mfcc_sma[0]_percentile1.0 numeric
@attribute mfcc_sma[0]_percentile99.0 numeric
@attribute mfcc_sma[0]_pctlrange0-1 numeric
@attribute mfcc_sma[0]_upleveltime75 numeric
@attribute mfcc_sma[0]_upleveltime90 numeric
@attribute mfcc_sma[1]_maxPos numeric
@attribute mfcc_sma[1]_minPos numeric
@attribute mfcc_sma[1]_amean numeric
@attribute mfcc_sma[1]_linregc1 numeric
@attribute mfcc_sma[1]_linregc2 numeric
@attribute mfcc_sma[1]_linregerrA numeric
@attribute mfcc_sma[1]_linregerrQ numeric
@attribute mfcc_sma[1]_stddev numeric
@attribute mfcc_sma[1]_skewness numeric
@attribute mfcc_sma[1]_kurtosis numeric
@attribute mfcc_sma[1]_quartile1 numeric
@attribute mfcc_sma[1]_quartile2 numeric
@attribute mfcc_sma[1]_quartile3 numeric
@attribute mfcc_sma[1]_iqr1-2 numeric
@attribute mfcc_sma[1]_iqr2-3 numeric
@attribute mfcc_sma[1]_iqr1-3 numeric
@attribute mfcc_sma[1]_percentile1.0 numeric
@attribute mfcc_sma[1]_percentile99.0 numeric
@attribute mfcc_sma[1]_pctlrange0-1 numeric
@attribute mfcc_sma[1]_upleveltime75 numeric
@attribute mfcc_sma[1]_upleveltime90 numeric
@attribute mfcc_sma[2]_maxPos numeric
@attribute mfcc_sma[2]_minPos numeric
@attribute mfcc_sma[2]_amean numeric
@attribute mfcc_sma[2]_linregc1 numeric
@attribute mfcc_sma[2]_linregc2 numeric
@attribute mfcc_sma[2]_linregerrA numeric
@attribute mfcc_sma[2]_linregerrQ numeric
@attribute mfcc_sma[2]_stddev numeric
@attribute mfcc_sma[2]_skewness numeric
@attribute mfcc_sma[2]_kurtosis numeric
@attribute mfcc_sma[2]_quartile1 numeric
@attribute mfcc_sma[2]_quartile2 numeric
@attribute mfcc_sma[2]_quartile3 numeric
@attribute mfcc_sma[2]_iqr1-2 numeric
@attribute mfcc_sma[2]_iqr2-3 numeric
@attribute mfcc_sma[2]_iqr1-3 numeric
@attribute mfcc_sma[2]_percentile1.0 numeric
@attribute mfcc_sma[2]_percentile99.0 numeric
@attribute mfcc_sma[2]_pctlrange0-1 numeric
@attribute mfcc_sma[2]_upleveltime75 numeric
@attribute mfcc_sma[2]_upleveltime90 numeric
@attribute mfcc_sma[3]_maxPos numeric
@attribute mfcc_sma[3]_minPos numeric
@attribute mfcc_sma[3]_amean numeric
@attribute mfcc_sma[3]_linregc1 numeric
@attribute mfcc_sma[3]_linregc2 numeric
@attribute mfcc_sma[3]_linregerrA numeric
@attribute mfcc_sma[3]_linregerrQ numeric
@attribute mfcc_sma[3]_stddev numeric
@attribute mfcc_sma[3]_skewness numeric
@attribute mfcc_sma[3]_kurtosis numeric
@attribute mfcc_sma[3]_quartile1 numeric
@attribute mfcc_sma[3]_quartile2 numeric
@attribute mfcc_sma[3]_quartile3 numeric
@attribute mfcc_sma[3]_iqr1-2 numeric
@attribute mfcc_sma[3]_iqr2-3 numeric
@attribute mfcc_sma[3]_iqr1-3 numeric
@attribute mfcc_sma[3]_percentile1.0 numeric
@attribute mfcc_sma[3]_percentile99.0 numeric
@attribute mfcc_sma[3]_pctlrange0-1 numeric
@attribute mfcc_sma[3]_upleveltime75 numeric
@attribute mfcc_sma[3]_upleveltime90 numeric
@attribute mfcc_sma[4]_maxPos numeric
@attribute mfcc_sma[4]_minPos numeric
@attribute mfcc_sma[4]_amean numeric
@attribute mfcc_sma[4]_linregc1 numeric
@attribute mfcc_sma[4]_linregc2 numeric
@attribute mfcc_sma[4]_linregerrA numeric
@attribute mfcc_sma[4]_linregerrQ numeric
@attribute mfcc_sma[4]_stddev numeric
@attribute mfcc_sma[4]_skewness numeric
@attribute mfcc_sma[4]_kurtosis numeric
@attribute mfcc_sma[4]_quartile1 numeric
@attribute mfcc_sma[4]_quartile2 numeric
@attribute mfcc_sma[4]_quartile3 numeric
@attribute mfcc_sma[4]_iqr1-2 numeric
@attribute mfcc_sma[4]_iqr2-3 numeric
@attribute mfcc_sma[4]_iqr1-3 numeric
@attribute mfcc_sma[4]_percentile1.0 numeric
@attribute mfcc_sma[4]_percentile99.0 numeric
@attribute mfcc_sma[4]_pctlrange0-1 numeric
@attribute mfcc_sma[4]_upleveltime75 numeric
@attribute mfcc_sma[4]_upleveltime90 numeric
@attribute mfcc_sma[5]_maxPos numeric
@attribute mfcc_sma[5]_minPos numeric
@attribute mfcc_sma[5]_amean numeric
@attribute mfcc_sma[5]_linregc1 numeric
@attribute mfcc_sma[5]_linregc2 numeric
@attribute mfcc_sma[5]_linregerrA numeric
@attribute mfcc_sma[5]_linregerrQ numeric
@attribute mfcc_sma[5]_stddev numeric
@attribute mfcc_sma[5]_skewness numeric
@attribute mfcc_sma[5]_kurtosis numeric
@attribute mfcc_sma[5]_quartile1 numeric
@attribute mfcc_sma[5]_quartile2 numeric
@attribute mfcc_sma[5]_quartile3 numeric
@attribute mfcc_sma[5]_iqr1-2 numeric
@attribute mfcc_sma[5]_iqr2-3 numeric
@attribute mfcc_sma[5]_iqr1-3 numeric
@attribute mfcc_sma[5]_percentile1.0 numeric
@attribute mfcc_sma[5]_percentile99.0 numeric
@attribute mfcc_sma[5]_pctlrange0-1 numeric
@attribute mfcc_sma[5]_upleveltime75 numeric
@attribute mfcc_sma[5]_upleveltime90 numeric
@attribute mfcc_sma[6]_maxPos numeric
@attribute mfcc_sma[6]_minPos numeric
@attribute mfcc_sma[6]_amean numeric
@attribute mfcc_sma[6]_linregc1 numeric
@attribute mfcc_sma[6]_linregc2 numeric
@attribute mfcc_sma[6]_linregerrA numeric
@attribute mfcc_sma[6]_linregerrQ numeric
@attribute mfcc_sma[6]_stddev numeric
@attribute mfcc_sma[6]_skewness numeric
@attribute mfcc_sma[6]_kurtosis numeric
@attribute mfcc_sma[6]_quartile1 numeric
@attribute mfcc_sma[6]_quartile2 numeric
@attribute mfcc_sma[6]_quartile3 numeric
@attribute mfcc_sma[6]_iqr1-2 numeric
@attribute mfcc_sma[6]_iqr2-3 numeric
@attribute mfcc_sma[6]_iqr1-3 numeric
@attribute mfcc_sma[6]_percentile1.0 numeric
@attribute mfcc_sma[6]_percentile99.0 numeric
@attribute mfcc_sma[6]_pctlrange0-1 numeric
@attribute mfcc_sma[6]_upleveltime75 numeric
@attribute mfcc_sma[6]_upleveltime90 numeric
@attribute mfcc_sma[7]_maxPos numeric
@attribute mfcc_sma[7]_minPos numeric
@attribute mfcc_sma[7]_amean numeric
@attribute mfcc_sma[7]_linregc1 numeric
@attribute mfcc_sma[7]_linregc2 numeric
@attribute mfcc_sma[7]_linregerrA numeric
@attribute mfcc_sma[7]_linregerrQ numeric
@attribute mfcc_sma[7]_stddev numeric
@attribute mfcc_sma[7]_skewness numeric
@attribute mfcc_sma[7]_kurtosis numeric
@attribute mfcc_sma[7]_quartile1 numeric
@attribute mfcc_sma[7]_quartile2 numeric
@attribute mfcc_sma[7]_quartile3 numeric
@attribute mfcc_sma[7]_iqr1-2 numeric
@attribute mfcc_sma[7]_iqr2-3 numeric
@attribute mfcc_sma[7]_iqr1-3 numeric
@attribute mfcc_sma[7]_percentile1.0 numeric
@attribute mfcc_sma[7]_percentile99.0 numeric
@attribute mfcc_sma[7]_pctlrange0-1 numeric
@attribute mfcc_sma[7]_upleveltime75 numeric
@attribute mfcc_sma[7]_upleveltime90 numeric
@attribute mfcc_sma[8]_maxPos numeric
@attribute mfcc_sma[8]_minPos numeric
@attribute mfcc_sma[8]_amean numeric
@attribute mfcc_sma[8]_linregc1 numeric
@attribute mfcc_sma[8]_linregc2 numeric
@attribute mfcc_sma[8]_linregerrA numeric
@attribute mfcc_sma[8]_linregerrQ numeric
@attribute mfcc_sma[8]_stddev numeric
@attribute mfcc_sma[8]_skewness numeric
@attribute mfcc_sma[8]_kurtosis numeric
@attribute mfcc_sma[8]_quartile1 numeric
@attribute mfcc_sma[8]_quartile2 numeric
@attribute mfcc_sma[8]_quartile3 numeric
@attribute mfcc_sma[8]_iqr1-2 numeric
@attribute mfcc_sma[8]_iqr2-3 numeric
@attribute mfcc_sma[8]_iqr1-3 numeric
@attribute mfcc_sma[8]_percentile1.0 numeric
@attribute mfcc_sma[8]_percentile99.0 numeric
@attribute mfcc_sma[8]_pctlrange0-1 numeric
@attribute mfcc_sma[8]_upleveltime75 numeric
@attribute mfcc_sma[8]_upleveltime90 numeric
@attribute mfcc_sma[9]_maxPos numeric
@attribute mfcc_sma[9]_minPos numeric
@attribute mfcc_sma[9]_amean numeric
@attribute mfcc_sma[9]_linregc1 numeric
@attribute mfcc_sma[9]_linregc2 numeric
@attribute mfcc_sma[9]_linregerrA numeric
@attribute mfcc_sma[9]_linregerrQ numeric
@attribute mfcc_sma[9]_stddev numeric
@attribute mfcc_sma[9]_skewness numeric
@attribute mfcc_sma[9]_kurtosis numeric
@attribute mfcc_sma[9]_quartile1 numeric
@attribute mfcc_sma[9]_quartile2 numeric
@attribute mfcc_sma[9]_quartile3 numeric
@attribute mfcc_sma[9]_iqr1-2 numeric
@attribute mfcc_sma[9]_iqr2-3 numeric
@attribute mfcc_sma[9]_iqr1-3 numeric
@attribute mfcc_sma[9]_percentile1.0 numeric
@attribute mfcc_sma[9]_percentile99.0 numeric
@attribute mfcc_sma[9]_pctlrange0-1 numeric
@attribute mfcc_sma[9]_upleveltime75 numeric
@attribute mfcc_sma[9]_upleveltime90 numeric
@attribute mfcc_sma[10]_maxPos numeric
@attribute mfcc_sma[10]_minPos numeric
@attribute mfcc_sma[10]_amean numeric
@attribute mfcc_sma[10]_linregc1 numeric
@attribute mfcc_sma[10]_linregc2 numeric
@attribute mfcc_sma[10]_linregerrA numeric
@attribute mfcc_sma[10]_linregerrQ numeric
@attribute mfcc_sma[10]_stddev numeric
@attribute mfcc_sma[10]_skewness numeric
@attribute mfcc_sma[10]_kurtosis numeric
@attribute mfcc_sma[10]_quartile1 numeric
@attribute mfcc_sma[10]_quartile2 numeric
@attribute mfcc_sma[10]_quartile3 numeric
@attribute mfcc_sma[10]_iqr1-2 numeric
@attribute mfcc_sma[10]_iqr2-3 numeric
@attribute mfcc_sma[10]_iqr1-3 numeric
@attribute mfcc_sma[10]_percentile1.0 numeric
@attribute mfcc_sma[10]_percentile99.0 numeric
@attribute mfcc_sma[10]_pctlrange0-1 numeric
@attribute mfcc_sma[10]_upleveltime75 numeric
@attribute mfcc_sma[10]_upleveltime90 numeric
@attribute mfcc_sma[11]_maxPos numeric
@attribute mfcc_sma[11]_minPos numeric
@attribute mfcc_sma[11]_amean numeric
@attribute mfcc_sma[11]_linregc1 numeric
@attribute mfcc_sma[11]_linregc2 numeric
@attribute mfcc_sma[11]_linregerrA numeric
@attribute mfcc_sma[11]_linregerrQ numeric
@attribute mfcc_sma[11]_stddev numeric
@attribute mfcc_sma[11]_skewness numeric
@attribute mfcc_sma[11]_kurtosis numeric
@attribute mfcc_sma[11]_quartile1 numeric
@attribute mfcc_sma[11]_quartile2 numeric
@attribute mfcc_sma[11]_quartile3 numeric
@attribute mfcc_sma[11]_iqr1-2 numeric
@attribute mfcc_sma[11]_iqr2-3 numeric
@attribute mfcc_sma[11]_iqr1-3 numeric
@attribute mfcc_sma[11]_percentile1.0 numeric
@attribute mfcc_sma[11]_percentile99.0 numeric
@attribute mfcc_sma[11]_pctlrange0-1 numeric
@attribute mfcc_sma[11]_upleveltime75 numeric
@attribute mfcc_sma[11]_upleveltime90 numeric
@attribute mfcc_sma[12]_maxPos numeric
@attribute mfcc_sma[12]_minPos numeric
@attribute mfcc_sma[12]_amean numeric
@attribute mfcc_sma[12]_linregc1 numeric
@attribute mfcc_sma[12]_linregc2 numeric
@attribute mfcc_sma[12]_linregerrA numeric
@attribute mfcc_sma[12]_linregerrQ numeric
@attribute mfcc_sma[12]_stddev numeric
@attribute mfcc_sma[12]_skewness numeric
@attribute mfcc_sma[12]_kurtosis numeric
@attribute mfcc_sma[12]_quartile1 numeric
@attribute mfcc_sma[12]_quartile2 numeric
@attribute mfcc_sma[12]_quartile3 numeric
@attribute mfcc_sma[12]_iqr1-2 numeric
@attribute mfcc_sma[12]_iqr2-3 numeric
@attribute mfcc_sma[12]_iqr1-3 numeric
@attribute mfcc_sma[12]_percentile1.0 numeric
@attribute mfcc_sma[12]_percentile99.0 numeric
@attribute mfcc_sma[12]_pctlrange0-1 numeric
@attribute mfcc_sma[12]_upleveltime75 numeric
@attribute mfcc_sma[12]_upleveltime90 numeric
@attribute mfcc_sma[13]_maxPos numeric
@attribute mfcc_sma[13]_minPos numeric
@attribute mfcc_sma[13]_amean numeric
@attribute mfcc_sma[13]_linregc1 numeric
@attribute mfcc_sma[13]_linregc2 numeric
@attribute mfcc_sma[13]_linregerrA numeric
@attribute mfcc_sma[13]_linregerrQ numeric
@attribute mfcc_sma[13]_stddev numeric
@attribute mfcc_sma[13]_skewness numeric
@attribute mfcc_sma[13]_kurtosis numeric
@attribute mfcc_sma[13]_quartile1 numeric
@attribute mfcc_sma[13]_quartile2 numeric
@attribute mfcc_sma[13]_quartile3 numeric
@attribute mfcc_sma[13]_iqr1-2 numeric
@attribute mfcc_sma[13]_iqr2-3 numeric
@attribute mfcc_sma[13]_iqr1-3 numeric
@attribute mfcc_sma[13]_percentile1.0 numeric
@attribute mfcc_sma[13]_percentile99.0 numeric
@attribute mfcc_sma[13]_pctlrange0-1 numeric
@attribute mfcc_sma[13]_upleveltime75 numeric
@attribute mfcc_sma[13]_upleveltime90 numeric
@attribute mfcc_sma[14]_maxPos numeric
@attribute mfcc_sma[14]_minPos numeric
@attribute mfcc_sma[14]_amean numeric
@attribute mfcc_sma[14]_linregc1 numeric
@attribute mfcc_sma[14]_linregc2 numeric
@attribute mfcc_sma[14]_linregerrA numeric
@attribute mfcc_sma[14]_linregerrQ numeric
@attribute mfcc_sma[14]_stddev numeric
@attribute mfcc_sma[14]_skewness numeric
@attribute mfcc_sma[14]_kurtosis numeric
@attribute mfcc_sma[14]_quartile1 numeric
@attribute mfcc_sma[14]_quartile2 numeric
@attribute mfcc_sma[14]_quartile3 numeric
@attribute mfcc_sma[14]_iqr1-2 numeric
@attribute mfcc_sma[14]_iqr2-3 numeric
@attribute mfcc_sma[14]_iqr1-3 numeric
@attribute mfcc_sma[14]_percentile1.0 numeric
@attribute mfcc_sma[14]_percentile99.0 numeric
@attribute mfcc_sma[14]_pctlrange0-1 numeric
@attribute mfcc_sma[14]_upleveltime75 numeric
@attribute mfcc_sma[14]_upleveltime90 numeric
@attribute logMelFreqBand_sma[0]_maxPos numeric
@attribute logMelFreqBand_sma[0]_minPos numeric
@attribute logMelFreqBand_sma[0]_amean numeric
@attribute logMelFreqBand_sma[0]_linregc1 numeric
@attribute logMelFreqBand_sma[0]_linregc2 numeric
@attribute logMelFreqBand_sma[0]_linregerrA numeric
@attribute logMelFreqBand_sma[0]_linregerrQ numeric
@attribute logMelFreqBand_sma[0]_stddev numeric
@attribute logMelFreqBand_sma[0]_skewness numeric
@attribute logMelFreqBand_sma[0]_kurtosis numeric
@attribute logMelFreqBand_sma[0]_quartile1 numeric
@attribute logMelFreqBand_sma[0]_quartile2 numeric
@attribute logMelFreqBand_sma[0]_quartile3 numeric
@attribute logMelFreqBand_sma[0]_iqr1-2 numeric
@attribute logMelFreqBand_sma[0]_iqr2-3 numeric
@attribute logMelFreqBand_sma[0]_iqr1-3 numeric
@attribute logMelFreqBand_sma[0]_percentile1.0 numeric
@attribute logMelFreqBand_sma[0]_percentile99.0 numeric
@attribute logMelFreqBand_sma[0]_pctlrange0-1 numeric
@attribute logMelFreqBand_sma[0]_upleveltime75 numeric
@attribute logMelFreqBand_sma[0]_upleveltime90 numeric
@attribute logMelFreqBand_sma[1]_maxPos numeric
@attribute logMelFreqBand_sma[1]_minPos numeric
@attribute logMelFreqBand_sma[1]_amean numeric
@attribute logMelFreqBand_sma[1]_linregc1 numeric
@attribute logMelFreqBand_sma[1]_linregc2 numeric
@attribute logMelFreqBand_sma[1]_linregerrA numeric
@attribute logMelFreqBand_sma[1]_linregerrQ numeric
@attribute logMelFreqBand_sma[1]_stddev numeric
@attribute logMelFreqBand_sma[1]_skewness numeric
@attribute logMelFreqBand_sma[1]_kurtosis numeric
@attribute logMelFreqBand_sma[1]_quartile1 numeric
@attribute logMelFreqBand_sma[1]_quartile2 numeric
@attribute logMelFreqBand_sma[1]_quartile3 numeric
@attribute logMelFreqBand_sma[1]_iqr1-2 numeric
@attribute logMelFreqBand_sma[1]_iqr2-3 numeric
@attribute logMelFreqBand_sma[1]_iqr1-3 numeric
@attribute logMelFreqBand_sma[1]_percentile1.0 numeric
@attribute logMelFreqBand_sma[1]_percentile99.0 numeric
@attribute logMelFreqBand_sma[1]_pctlrange0-1 numeric
@attribute logMelFreqBand_sma[1]_upleveltime75 numeric
@attribute logMelFreqBand_sma[1]_upleveltime90 numeric
@attribute logMelFreqBand_sma[2]_maxPos numeric
@attribute logMelFreqBand_sma[2]_minPos numeric
@attribute logMelFreqBand_sma[2]_amean numeric
@attribute logMelFreqBand_sma[2]_linregc1 numeric
@attribute logMelFreqBand_sma[2]_linregc2 numeric
@attribute logMelFreqBand_sma[2]_linregerrA numeric
@attribute logMelFreqBand_sma[2]_linregerrQ numeric
@attribute logMelFreqBand_sma[2]_stddev numeric
@attribute logMelFreqBand_sma[2]_skewness numeric
@attribute logMelFreqBand_sma[2]_kurtosis numeric
@attribute logMelFreqBand_sma[2]_quartile1 numeric
@attribute logMelFreqBand_sma[2]_quartile2 numeric
@attribute logMelFreqBand_sma[2]_quartile3 numeric
@attribute logMelFreqBand_sma[2]_iqr1-2 numeric
@attribute logMelFreqBand_sma[2]_iqr2-3 numeric
@attribute logMelFreqBand_sma[2]_iqr1-3 numeric
@attribute logMelFreqBand_sma[2]_percentile1.0 numeric
@attribute logMelFreqBand_sma[2]_percentile99.0 numeric
@attribute logMelFreqBand_sma[2]_pctlrange0-1 numeric
@attribute logMelFreqBand_sma[2]_upleveltime75 numeric
@attribute logMelFreqBand_sma[2]_upleveltime90 numeric
@attribute logMelFreqBand_sma[3]_maxPos numeric
@attribute logMelFreqBand_sma[3]_minPos numeric
@attribute logMelFreqBand_sma[3]_amean numeric
@attribute logMelFreqBand_sma[3]_linregc1 numeric
@attribute logMelFreqBand_sma[3]_linregc2 numeric
@attribute logMelFreqBand_sma[3]_linregerrA numeric
@attribute logMelFreqBand_sma[3]_linregerrQ numeric
@attribute logMelFreqBand_sma[3]_stddev numeric
@attribute logMelFreqBand_sma[3]_skewness numeric
@attribute logMelFreqBand_sma[3]_kurtosis numeric
@attribute logMelFreqBand_sma[3]_quartile1 numeric
@attribute logMelFreqBand_sma[3]_quartile2 numeric
@attribute logMelFreqBand_sma[3]_quartile3 numeric
@attribute logMelFreqBand_sma[3]_iqr1-2 numeric
@attribute logMelFreqBand_sma[3]_iqr2-3 numeric
@attribute logMelFreqBand_sma[3]_iqr1-3 numeric
@attribute logMelFreqBand_sma[3]_percentile1.0 numeric
@attribute logMelFreqBand_sma[3]_percentile99.0 numeric
@attribute logMelFreqBand_sma[3]_pctlrange0-1 numeric
@attribute logMelFreqBand_sma[3]_upleveltime75 numeric
@attribute logMelFreqBand_sma[3]_upleveltime90 numeric
@attribute logMelFreqBand_sma[4]_maxPos numeric
@attribute logMelFreqBand_sma[4]_minPos numeric
@attribute logMelFreqBand_sma[4]_amean numeric
@attribute logMelFreqBand_sma[4]_linregc1 numeric
@attribute logMelFreqBand_sma[4]_linregc2 numeric
@attribute logMelFreqBand_sma[4]_linregerrA numeric
@attribute logMelFreqBand_sma[4]_linregerrQ numeric
@attribute logMelFreqBand_sma[4]_stddev numeric
@attribute logMelFreqBand_sma[4]_skewness numeric
@attribute logMelFreqBand_sma[4]_kurtosis numeric
@attribute logMelFreqBand_sma[4]_quartile1 numeric
@attribute logMelFreqBand_sma[4]_quartile2 numeric
@attribute logMelFreqBand_sma[4]_quartile3 numeric
@attribute logMelFreqBand_sma[4]_iqr1-2 numeric
@attribute logMelFreqBand_sma[4]_iqr2-3 numeric
@attribute logMelFreqBand_sma[4]_iqr1-3 numeric
@attribute logMelFreqBand_sma[4]_percentile1.0 numeric
@attribute logMelFreqBand_sma[4]_percentile99.0 numeric
@attribute logMelFreqBand_sma[4]_pctlrange0-1 numeric
@attribute logMelFreqBand_sma[4]_upleveltime75 numeric
@attribute logMelFreqBand_sma[4]_upleveltime90 numeric
@attribute logMelFreqBand_sma[5]_maxPos numeric
@attribute logMelFreqBand_sma[5]_minPos numeric
@attribute logMelFreqBand_sma[5]_amean numeric
@attribute logMelFreqBand_sma[5]_linregc1 numeric
@attribute logMelFreqBand_sma[5]_linregc2 numeric
@attribute logMelFreqBand_sma[5]_linregerrA numeric
@attribute logMelFreqBand_sma[5]_linregerrQ numeric
@attribute logMelFreqBand_sma[5]_stddev numeric
@attribute logMelFreqBand_sma[5]_skewness numeric
@attribute logMelFreqBand_sma[5]_kurtosis numeric
@attribute logMelFreqBand_sma[5]_quartile1 numeric
@attribute logMelFreqBand_sma[5]_quartile2 numeric
@attribute logMelFreqBand_sma[5]_quartile3 numeric
@attribute logMelFreqBand_sma[5]_iqr1-2 numeric
@attribute logMelFreqBand_sma[5]_iqr2-3 numeric
@attribute logMelFreqBand_sma[5]_iqr1-3 numeric
@attribute logMelFreqBand_sma[5]_percentile1.0 numeric
@attribute logMelFreqBand_sma[5]_percentile99.0 numeric
@attribute logMelFreqBand_sma[5]_pctlrange0-1 numeric
@attribute logMelFreqBand_sma[5]_upleveltime75 numeric
@attribute logMelFreqBand_sma[5]_upleveltime90 numeric
@attribute logMelFreqBand_sma[6]_maxPos numeric
@attribute logMelFreqBand_sma[6]_minPos numeric
@attribute logMelFreqBand_sma[6]_amean numeric
@attribute logMelFreqBand_sma[6]_linregc1 numeric
@attribute logMelFreqBand_sma[6]_linregc2 numeric
@attribute logMelFreqBand_sma[6]_linregerrA numeric
@attribute logMelFreqBand_sma[6]_linregerrQ numeric
@attribute logMelFreqBand_sma[6]_stddev numeric
@attribute logMelFreqBand_sma[6]_skewness numeric
@attribute logMelFreqBand_sma[6]_kurtosis numeric
@attribute logMelFreqBand_sma[6]_quartile1 numeric
@attribute logMelFreqBand_sma[6]_quartile2 numeric
@attribute logMelFreqBand_sma[6]_quartile3 numeric
@attribute logMelFreqBand_sma[6]_iqr1-2 numeric
@attribute logMelFreqBand_sma[6]_iqr2-3 numeric
@attribute logMelFreqBand_sma[6]_iqr1-3 numeric
@attribute logMelFreqBand_sma[6]_percentile1.0 numeric
@attribute logMelFreqBand_sma[6]_percentile99.0 numeric
@attribute logMelFreqBand_sma[6]_pctlrange0-1 numeric
@attribute logMelFreqBand_sma[6]_upleveltime75 numeric
@attribute logMelFreqBand_sma[6]_upleveltime90 numeric
@attribute logMelFreqBand_sma[7]_maxPos numeric
@attribute logMelFreqBand_sma[7]_minPos numeric
@attribute logMelFreqBand_sma[7]_amean numeric
@attribute logMelFreqBand_sma[7]_linregc1 numeric
@attribute logMelFreqBand_sma[7]_linregc2 numeric
@attribute logMelFreqBand_sma[7]_linregerrA numeric
@attribute logMelFreqBand_sma[7]_linregerrQ numeric
@attribute logMelFreqBand_sma[7]_stddev numeric
@attribute logMelFreqBand_sma[7]_skewness numeric
@attribute logMelFreqBand_sma[7]_kurtosis numeric
@attribute logMelFreqBand_sma[7]_quartile1 numeric
@attribute logMelFreqBand_sma[7]_quartile2 numeric
@attribute logMelFreqBand_sma[7]_quartile3 numeric
@attribute logMelFreqBand_sma[7]_iqr1-2 numeric
@attribute logMelFreqBand_sma[7]_iqr2-3 numeric
@attribute logMelFreqBand_sma[7]_iqr1-3 numeric
@attribute logMelFreqBand_sma[7]_percentile1.0 numeric
@attribute logMelFreqBand_sma[7]_percentile99.0 numeric
@attribute logMelFreqBand_sma[7]_pctlrange0-1 numeric
@attribute logMelFreqBand_sma[7]_upleveltime75 numeric
@attribute logMelFreqBand_sma[7]_upleveltime90 numeric
@attribute lspFreq_sma[0]_maxPos numeric
@attribute lspFreq_sma[0]_minPos numeric
@attribute lspFreq_sma[0]_amean numeric
@attribute lspFreq_sma[0]_linregc1 numeric
@attribute lspFreq_sma[0]_linregc2 numeric
@attribute lspFreq_sma[0]_linregerrA numeric
@attribute lspFreq_sma[0]_linregerrQ numeric
@attribute lspFreq_sma[0]_stddev numeric
@attribute lspFreq_sma[0]_skewness numeric
@attribute lspFreq_sma[0]_kurtosis numeric
@attribute lspFreq_sma[0]_quartile1 numeric
@attribute lspFreq_sma[0]_quartile2 numeric
@attribute lspFreq_sma[0]_quartile3 numeric
@attribute lspFreq_sma[0]_iqr1-2 numeric
@attribute lspFreq_sma[0]_iqr2-3 numeric
@attribute lspFreq_sma[0]_iqr1-3 numeric
@attribute lspFreq_sma[0]_percentile1.0 numeric
@attribute lspFreq_sma[0]_percentile99.0 numeric
@attribute lspFreq_sma[0]_pctlrange0-1 numeric
@attribute lspFreq_sma[0]_upleveltime75 numeric
@attribute lspFreq_sma[0]_upleveltime90 numeric
@attribute lspFreq_sma[1]_maxPos numeric
@attribute lspFreq_sma[1]_minPos numeric
@attribute lspFreq_sma[1]_amean numeric
@attribute lspFreq_sma[1]_linregc1 numeric
@attribute lspFreq_sma[1]_linregc2 numeric
@attribute lspFreq_sma[1]_linregerrA numeric
@attribute lspFreq_sma[1]_linregerrQ numeric
@attribute lspFreq_sma[1]_stddev numeric
@attribute lspFreq_sma[1]_skewness numeric
@attribute lspFreq_sma[1]_kurtosis numeric
@attribute lspFreq_sma[1]_quartile1 numeric
@attribute lspFreq_sma[1]_quartile2 numeric
@attribute lspFreq_sma[1]_quartile3 numeric
@attribute lspFreq_sma[1]_iqr1-2 numeric
@attribute lspFreq_sma[1]_iqr2-3 numeric
@attribute lspFreq_sma[1]_iqr1-3 numeric
@attribute lspFreq_sma[1]_percentile1.0 numeric
@attribute lspFreq_sma[1]_percentile99.0 numeric
@attribute lspFreq_sma[1]_pctlrange0-1 numeric
@attribute lspFreq_sma[1]_upleveltime75 numeric
@attribute lspFreq_sma[1]_upleveltime90 numeric
@attribute lspFreq_sma[2]_maxPos numeric
@attribute lspFreq_sma[2]_minPos numeric
@attribute lspFreq_sma[2]_amean numeric
@attribute lspFreq_sma[2]_linregc1 numeric
@attribute lspFreq_sma[2]_linregc2 numeric
@attribute lspFreq_sma[2]_linregerrA numeric
@attribute lspFreq_sma[2]_linregerrQ numeric
@attribute lspFreq_sma[2]_stddev numeric
@attribute lspFreq_sma[2]_skewness numeric
@attribute lspFreq_sma[2]_kurtosis numeric
@attribute lspFreq_sma[2]_quartile1 numeric
@attribute lspFreq_sma[2]_quartile2 numeric
@attribute lspFreq_sma[2]_quartile3 numeric
@attribute lspFreq_sma[2]_iqr1-2 numeric
@attribute lspFreq_sma[2]_iqr2-3 numeric
@attribute lspFreq_sma[2]_iqr1-3 numeric
@attribute lspFreq_sma[2]_percentile1.0 numeric
@attribute lspFreq_sma[2]_percentile99.0 numeric
@attribute lspFreq_sma[2]_pctlrange0-1 numeric
@attribute lspFreq_sma[2]_upleveltime75 numeric
@attribute lspFreq_sma[2]_upleveltime90 numeric
@attribute lspFreq_sma[3]_maxPos numeric
@attribute lspFreq_sma[3]_minPos numeric
@attribute lspFreq_sma[3]_amean numeric
@attribute lspFreq_sma[3]_linregc1 numeric
@attribute lspFreq_sma[3]_linregc2 numeric
@attribute lspFreq_sma[3]_linregerrA numeric
@attribute lspFreq_sma[3]_linregerrQ numeric
@attribute lspFreq_sma[3]_stddev numeric
@attribute lspFreq_sma[3]_skewness numeric
@attribute lspFreq_sma[3]_kurtosis numeric
@attribute lspFreq_sma[3]_quartile1 numeric
@attribute lspFreq_sma[3]_quartile2 numeric
@attribute lspFreq_sma[3]_quartile3 numeric
@attribute lspFreq_sma[3]_iqr1-2 numeric
@attribute lspFreq_sma[3]_iqr2-3 numeric
@attribute lspFreq_sma[3]_iqr1-3 numeric
@attribute lspFreq_sma[3]_percentile1.0 numeric
@attribute lspFreq_sma[3]_percentile99.0 numeric
@attribute lspFreq_sma[3]_pctlrange0-1 numeric
@attribute lspFreq_sma[3]_upleveltime75 numeric
@attribute lspFreq_sma[3]_upleveltime90 numeric
@attribute lspFreq_sma[4]_maxPos numeric
@attribute lspFreq_sma[4]_minPos numeric
@attribute lspFreq_sma[4]_amean numeric
@attribute lspFreq_sma[4]_linregc1 numeric
@attribute lspFreq_sma[4]_linregc2 numeric
@attribute lspFreq_sma[4]_linregerrA numeric
@attribute lspFreq_sma[4]_linregerrQ numeric
@attribute lspFreq_sma[4]_stddev numeric
@attribute lspFreq_sma[4]_skewness numeric
@attribute lspFreq_sma[4]_kurtosis numeric
@attribute lspFreq_sma[4]_quartile1 numeric
@attribute lspFreq_sma[4]_quartile2 numeric
@attribute lspFreq_sma[4]_quartile3 numeric
@attribute lspFreq_sma[4]_iqr1-2 numeric
@attribute lspFreq_sma[4]_iqr2-3 numeric
@attribute lspFreq_sma[4]_iqr1-3 numeric
@attribute lspFreq_sma[4]_percentile1.0 numeric
@attribute lspFreq_sma[4]_percentile99.0 numeric
@attribute lspFreq_sma[4]_pctlrange0-1 numeric
@attribute lspFreq_sma[4]_upleveltime75 numeric
@attribute lspFreq_sma[4]_upleveltime90 numeric
@attribute lspFreq_sma[5]_maxPos numeric
@attribute lspFreq_sma[5]_minPos numeric
@attribute lspFreq_sma[5]_amean numeric
@attribute lspFreq_sma[5]_linregc1 numeric
@attribute lspFreq_sma[5]_linregc2 numeric
@attribute lspFreq_sma[5]_linregerrA numeric
@attribute lspFreq_sma[5]_linregerrQ numeric
@attribute lspFreq_sma[5]_stddev numeric
@attribute lspFreq_sma[5]_skewness numeric
@attribute lspFreq_sma[5]_kurtosis numeric
@attribute lspFreq_sma[5]_quartile1 numeric
@attribute lspFreq_sma[5]_quartile2 numeric
@attribute lspFreq_sma[5]_quartile3 numeric
@attribute lspFreq_sma[5]_iqr1-2 numeric
@attribute lspFreq_sma[5]_iqr2-3 numeric
@attribute lspFreq_sma[5]_iqr1-3 numeric
@attribute lspFreq_sma[5]_percentile1.0 numeric
@attribute lspFreq_sma[5]_percentile99.0 numeric
@attribute lspFreq_sma[5]_pctlrange0-1 numeric
@attribute lspFreq_sma[5]_upleveltime75 numeric
@attribute lspFreq_sma[5]_upleveltime90 numeric
@attribute lspFreq_sma[6]_maxPos numeric
@attribute lspFreq_sma[6]_minPos numeric
@attribute lspFreq_sma[6]_amean numeric
@attribute lspFreq_sma[6]_linregc1 numeric
@attribute lspFreq_sma[6]_linregc2 numeric
@attribute lspFreq_sma[6]_linregerrA numeric
@attribute lspFreq_sma[6]_linregerrQ numeric
@attribute lspFreq_sma[6]_stddev numeric
@attribute lspFreq_sma[6]_skewness numeric
@attribute lspFreq_sma[6]_kurtosis numeric
@attribute lspFreq_sma[6]_quartile1 numeric
@attribute lspFreq_sma[6]_quartile2 numeric
@attribute lspFreq_sma[6]_quartile3 numeric
@attribute lspFreq_sma[6]_iqr1-2 numeric
@attribute lspFreq_sma[6]_iqr2-3 numeric
@attribute lspFreq_sma[6]_iqr1-3 numeric
@attribute lspFreq_sma[6]_percentile1.0 numeric
@attribute lspFreq_sma[6]_percentile99.0 numeric
@attribute lspFreq_sma[6]_pctlrange0-1 numeric
@attribute lspFreq_sma[6]_upleveltime75 numeric
@attribute lspFreq_sma[6]_upleveltime90 numeric
@attribute lspFreq_sma[7]_maxPos numeric
@attribute lspFreq_sma[7]_minPos numeric
@attribute lspFreq_sma[7]_amean numeric
@attribute lspFreq_sma[7]_linregc1 numeric
@attribute lspFreq_sma[7]_linregc2 numeric
@attribute lspFreq_sma[7]_linregerrA numeric
@attribute lspFreq_sma[7]_linregerrQ numeric
@attribute lspFreq_sma[7]_stddev numeric
@attribute lspFreq_sma[7]_skewness numeric
@attribute lspFreq_sma[7]_kurtosis numeric
@attribute lspFreq_sma[7]_quartile1 numeric
@attribute lspFreq_sma[7]_quartile2 numeric
@attribute lspFreq_sma[7]_quartile3 numeric
@attribute lspFreq_sma[7]_iqr1-2 numeric
@attribute lspFreq_sma[7]_iqr2-3 numeric
@attribute lspFreq_sma[7]_iqr1-3 numeric
@attribute lspFreq_sma[7]_percentile1.0 numeric
@attribute lspFreq_sma[7]_percentile99.0 numeric
@attribute lspFreq_sma[7]_pctlrange0-1 numeric
@attribute lspFreq_sma[7]_upleveltime75 numeric
@attribute lspFreq_sma[7]_upleveltime90 numeric
@attribute F0finEnv_sma_maxPos numeric
@attribute F0finEnv_sma_minPos numeric
@attribute F0finEnv_sma_amean numeric
@attribute F0finEnv_sma_linregc1 numeric
@attribute F0finEnv_sma_linregc2 numeric
@attribute F0finEnv_sma_linregerrA numeric
@attribute F0finEnv_sma_linregerrQ numeric
@attribute F0finEnv_sma_stddev numeric
@attribute F0finEnv_sma_skewness numeric
@attribute F0finEnv_sma_kurtosis numeric
@attribute F0finEnv_sma_quartile1 numeric
@attribute F0finEnv_sma_quartile2 numeric
@attribute F0finEnv_sma_quartile3 numeric
@attribute F0finEnv_sma_iqr1-2 numeric
@attribute F0finEnv_sma_iqr2-3 numeric
@attribute F0finEnv_sma_iqr1-3 numeric
@attribute F0finEnv_sma_percentile1.0 numeric
@attribute F0finEnv_sma_percentile99.0 numeric
@attribute F0finEnv_sma_pctlrange0-1 numeric
@attribute F0finEnv_sma_upleveltime75 numeric
@attribute F0finEnv_sma_upleveltime90 numeric
@attribute voicingFinalUnclipped_sma_maxPos numeric
@attribute voicingFinalUnclipped_sma_minPos numeric
@attribute voicingFinalUnclipped_sma_amean numeric
@attribute voicingFinalUnclipped_sma_linregc1 numeric
@attribute voicingFinalUnclipped_sma_linregc2 numeric
@attribute voicingFinalUnclipped_sma_linregerrA numeric
@attribute voicingFinalUnclipped_sma_linregerrQ numeric
@attribute voicingFinalUnclipped_sma_stddev numeric
@attribute voicingFinalUnclipped_sma_skewness numeric
@attribute voicingFinalUnclipped_sma_kurtosis numeric
@attribute voicingFinalUnclipped_sma_quartile1 numeric
@attribute voicingFinalUnclipped_sma_quartile2 numeric
@attribute voicingFinalUnclipped_sma_quartile3 numeric
@attribute voicingFinalUnclipped_sma_iqr1-2 numeric
@attribute voicingFinalUnclipped_sma_iqr2-3 numeric
@attribute voicingFinalUnclipped_sma_iqr1-3 numeric
@attribute voicingFinalUnclipped_sma_percentile1.0 numeric
@attribute voicingFinalUnclipped_sma_percentile99.0 numeric
@attribute voicingFinalUnclipped_sma_pctlrange0-1 numeric
@attribute voicingFinalUnclipped_sma_upleveltime75 numeric
@attribute voicingFinalUnclipped_sma_upleveltime90 numeric
@attribute pcm_loudness_sma_de_maxPos numeric
@attribute pcm_loudness_sma_de_minPos numeric
@attribute pcm_loudness_sma_de_amean numeric
@attribute pcm_loudness_sma_de_linregc1 numeric
@attribute pcm_loudness_sma_de_linregc2 numeric
@attribute pcm_loudness_sma_de_linregerrA numeric
@attribute pcm_loudness_sma_de_linregerrQ numeric
@attribute pcm_loudness_sma_de_stddev numeric
@attribute pcm_loudness_sma_de_skewness numeric
@attribute pcm_loudness_sma_de_kurtosis numeric
@attribute pcm_loudness_sma_de_quartile1 numeric
@attribute pcm_loudness_sma_de_quartile2 numeric
@attribute pcm_loudness_sma_de_quartile3 numeric
@attribute pcm_loudness_sma_de_iqr1-2 numeric
@attribute pcm_loudness_sma_de_iqr2-3 numeric
@attribute pcm_loudness_sma_de_iqr1-3 numeric
@attribute pcm_loudness_sma_de_percentile1.0 numeric
@attribute pcm_loudness_sma_de_percentile99.0 numeric
@attribute pcm_loudness_sma_de_pctlrange0-1 numeric
@attribute pcm_loudness_sma_de_upleveltime75 numeric
@attribute pcm_loudness_sma_de_upleveltime90 numeric
@attribute mfcc_sma_de[0]_maxPos numeric
@attribute mfcc_sma_de[0]_minPos numeric
@attribute mfcc_sma_de[0]_amean numeric
@attribute mfcc_sma_de[0]_linregc1 numeric
@attribute mfcc_sma_de[0]_linregc2 numeric
@attribute mfcc_sma_de[0]_linregerrA numeric
@attribute mfcc_sma_de[0]_linregerrQ numeric
@attribute mfcc_sma_de[0]_stddev numeric
@attribute mfcc_sma_de[0]_skewness numeric
@attribute mfcc_sma_de[0]_kurtosis numeric
@attribute mfcc_sma_de[0]_quartile1 numeric
@attribute mfcc_sma_de[0]_quartile2 numeric
@attribute mfcc_sma_de[0]_quartile3 numeric
@attribute mfcc_sma_de[0]_iqr1-2 numeric
@attribute mfcc_sma_de[0]_iqr2-3 numeric
@attribute mfcc_sma_de[0]_iqr1-3 numeric
@attribute mfcc_sma_de[0]_percentile1.0 numeric
@attribute mfcc_sma_de[0]_percentile99.0 numeric
@attribute mfcc_sma_de[0]_pctlrange0-1 numeric
@attribute mfcc_sma_de[0]_upleveltime75 numeric
@attribute mfcc_sma_de[0]_upleveltime90 numeric
@attribute mfcc_sma_de[1]_maxPos numeric
@attribute mfcc_sma_de[1]_minPos numeric
@attribute mfcc_sma_de[1]_amean numeric
@attribute mfcc_sma_de[1]_linregc1 numeric
@attribute mfcc_sma_de[1]_linregc2 numeric
@attribute mfcc_sma_de[1]_linregerrA numeric
@attribute mfcc_sma_de[1]_linregerrQ numeric
@attribute mfcc_sma_de[1]_stddev numeric
@attribute mfcc_sma_de[1]_skewness numeric
@attribute mfcc_sma_de[1]_kurtosis numeric
@attribute mfcc_sma_de[1]_quartile1 numeric
@attribute mfcc_sma_de[1]_quartile2 numeric
@attribute mfcc_sma_de[1]_quartile3 numeric
@attribute mfcc_sma_de[1]_iqr1-2 numeric
@attribute mfcc_sma_de[1]_iqr2-3 numeric
@attribute mfcc_sma_de[1]_iqr1-3 numeric
@attribute mfcc_sma_de[1]_percentile1.0 numeric
@attribute mfcc_sma_de[1]_percentile99.0 numeric
@attribute mfcc_sma_de[1]_pctlrange0-1 numeric
@attribute mfcc_sma_de[1]_upleveltime75 numeric
@attribute mfcc_sma_de[1]_upleveltime90 numeric
@attribute mfcc_sma_de[2]_maxPos numeric
@attribute mfcc_sma_de[2]_minPos numeric
@attribute mfcc_sma_de[2]_amean numeric
@attribute mfcc_sma_de[2]_linregc1 numeric
@attribute mfcc_sma_de[2]_linregc2 numeric
@attribute mfcc_sma_de[2]_linregerrA numeric
@attribute mfcc_sma_de[2]_linregerrQ numeric
@attribute mfcc_sma_de[2]_stddev numeric
@attribute mfcc_sma_de[2]_skewness numeric
@attribute mfcc_sma_de[2]_kurtosis numeric
@attribute mfcc_sma_de[2]_quartile1 numeric
@attribute mfcc_sma_de[2]_quartile2 numeric
@attribute mfcc_sma_de[2]_quartile3 numeric
@attribute mfcc_sma_de[2]_iqr1-2 numeric
@attribute mfcc_sma_de[2]_iqr2-3 numeric
@attribute mfcc_sma_de[2]_iqr1-3 numeric
@attribute mfcc_sma_de[2]_percentile1.0 numeric
@attribute mfcc_sma_de[2]_percentile99.0 numeric
@attribute mfcc_sma_de[2]_pctlrange0-1 numeric
@attribute mfcc_sma_de[2]_upleveltime75 numeric
@attribute mfcc_sma_de[2]_upleveltime90 numeric
@attribute mfcc_sma_de[3]_maxPos numeric
@attribute mfcc_sma_de[3]_minPos numeric
@attribute mfcc_sma_de[3]_amean numeric
@attribute mfcc_sma_de[3]_linregc1 numeric
@attribute mfcc_sma_de[3]_linregc2 numeric
@attribute mfcc_sma_de[3]_linregerrA numeric
@attribute mfcc_sma_de[3]_linregerrQ numeric
@attribute mfcc_sma_de[3]_stddev numeric
@attribute mfcc_sma_de[3]_skewness numeric
@attribute mfcc_sma_de[3]_kurtosis numeric
@attribute mfcc_sma_de[3]_quartile1 numeric
@attribute mfcc_sma_de[3]_quartile2 numeric
@attribute mfcc_sma_de[3]_quartile3 numeric
@attribute mfcc_sma_de[3]_iqr1-2 numeric
@attribute mfcc_sma_de[3]_iqr2-3 numeric
@attribute mfcc_sma_de[3]_iqr1-3 numeric
@attribute mfcc_sma_de[3]_percentile1.0 numeric
@attribute mfcc_sma_de[3]_percentile99.0 numeric
@attribute mfcc_sma_de[3]_pctlrange0-1 numeric
@attribute mfcc_sma_de[3]_upleveltime75 numeric
@attribute mfcc_sma_de[3]_upleveltime90 numeric
@attribute mfcc_sma_de[4]_maxPos numeric
@attribute mfcc_sma_de[4]_minPos numeric
@attribute mfcc_sma_de[4]_amean numeric
@attribute mfcc_sma_de[4]_linregc1 numeric
@attribute mfcc_sma_de[4]_linregc2 numeric
@attribute mfcc_sma_de[4]_linregerrA numeric
@attribute mfcc_sma_de[4]_linregerrQ numeric
@attribute mfcc_sma_de[4]_stddev numeric
@attribute mfcc_sma_de[4]_skewness numeric
@attribute mfcc_sma_de[4]_kurtosis numeric
@attribute mfcc_sma_de[4]_quartile1 numeric
@attribute mfcc_sma_de[4]_quartile2 numeric
@attribute mfcc_sma_de[4]_quartile3 numeric
@attribute mfcc_sma_de[4]_iqr1-2 numeric
@attribute mfcc_sma_de[4]_iqr2-3 numeric
@attribute mfcc_sma_de[4]_iqr1-3 numeric
@attribute mfcc_sma_de[4]_percentile1.0 numeric
@attribute mfcc_sma_de[4]_percentile99.0 numeric
@attribute mfcc_sma_de[4]_pctlrange0-1 numeric
@attribute mfcc_sma_de[4]_upleveltime75 numeric
@attribute mfcc_sma_de[4]_upleveltime90 numeric
@attribute mfcc_sma_de[5]_maxPos numeric
@attribute mfcc_sma_de[5]_minPos numeric
@attribute mfcc_sma_de[5]_amean numeric
@attribute mfcc_sma_de[5]_linregc1 numeric
@attribute mfcc_sma_de[5]_linregc2 numeric
@attribute mfcc_sma_de[5]_linregerrA numeric
@attribute mfcc_sma_de[5]_linregerrQ numeric
@attribute mfcc_sma_de[5]_stddev numeric
@attribute mfcc_sma_de[5]_skewness numeric
@attribute mfcc_sma_de[5]_kurtosis numeric
@attribute mfcc_sma_de[5]_quartile1 numeric
@attribute mfcc_sma_de[5]_quartile2 numeric
@attribute mfcc_sma_de[5]_quartile3 numeric
@attribute mfcc_sma_de[5]_iqr1-2 numeric
@attribute mfcc_sma_de[5]_iqr2-3 numeric
@attribute mfcc_sma_de[5]_iqr1-3 numeric
@attribute mfcc_sma_de[5]_percentile1.0 numeric
@attribute mfcc_sma_de[5]_percentile99.0 numeric
@attribute mfcc_sma_de[5]_pctlrange0-1 numeric
@attribute mfcc_sma_de[5]_upleveltime75 numeric
@attribute mfcc_sma_de[5]_upleveltime90 numeric
@attribute mfcc_sma_de[6]_maxPos numeric
@attribute mfcc_sma_de[6]_minPos numeric
@attribute mfcc_sma_de[6]_amean numeric
@attribute mfcc_sma_de[6]_linregc1 numeric
@attribute mfcc_sma_de[6]_linregc2 numeric
@attribute mfcc_sma_de[6]_linregerrA numeric
@attribute mfcc_sma_de[6]_linregerrQ numeric
@attribute mfcc_sma_de[6]_stddev numeric
@attribute mfcc_sma_de[6]_skewness numeric
@attribute mfcc_sma_de[6]_kurtosis numeric
@attribute mfcc_sma_de[6]_quartile1 numeric
@attribute mfcc_sma_de[6]_quartile2 numeric
@attribute mfcc_sma_de[6]_quartile3 numeric
@attribute mfcc_sma_de[6]_iqr1-2 numeric
@attribute mfcc_sma_de[6]_iqr2-3 numeric
@attribute mfcc_sma_de[6]_iqr1-3 numeric
@attribute mfcc_sma_de[6]_percentile1.0 numeric
@attribute mfcc_sma_de[6]_percentile99.0 numeric
@attribute mfcc_sma_de[6]_pctlrange0-1 numeric
@attribute mfcc_sma_de[6]_upleveltime75 numeric
@attribute mfcc_sma_de[6]_upleveltime90 numeric
@attribute mfcc_sma_de[7]_maxPos numeric
@attribute mfcc_sma_de[7]_minPos numeric
@attribute mfcc_sma_de[7]_amean numeric
@attribute mfcc_sma_de[7]_linregc1 numeric
@attribute mfcc_sma_de[7]_linregc2 numeric
@attribute mfcc_sma_de[7]_linregerrA numeric
@attribute mfcc_sma_de[7]_linregerrQ numeric
@attribute mfcc_sma_de[7]_stddev numeric
@attribute mfcc_sma_de[7]_skewness numeric
@attribute mfcc_sma_de[7]_kurtosis numeric
@attribute mfcc_sma_de[7]_quartile1 numeric
@attribute mfcc_sma_de[7]_quartile2 numeric
@attribute mfcc_sma_de[7]_quartile3 numeric
@attribute mfcc_sma_de[7]_iqr1-2 numeric
@attribute mfcc_sma_de[7]_iqr2-3 numeric
@attribute mfcc_sma_de[7]_iqr1-3 numeric
@attribute mfcc_sma_de[7]_percentile1.0 numeric
@attribute mfcc_sma_de[7]_percentile99.0 numeric
@attribute mfcc_sma_de[7]_pctlrange0-1 numeric
@attribute mfcc_sma_de[7]_upleveltime75 numeric
@attribute mfcc_sma_de[7]_upleveltime90 numeric
@attribute mfcc_sma_de[8]_maxPos numeric
@attribute mfcc_sma_de[8]_minPos numeric
@attribute mfcc_sma_de[8]_amean numeric
@attribute mfcc_sma_de[8]_linregc1 numeric
@attribute mfcc_sma_de[8]_linregc2 numeric
@attribute mfcc_sma_de[8]_linregerrA numeric
@attribute mfcc_sma_de[8]_linregerrQ numeric
@attribute mfcc_sma_de[8]_stddev numeric
@attribute mfcc_sma_de[8]_skewness numeric
@attribute mfcc_sma_de[8]_kurtosis numeric
@attribute mfcc_sma_de[8]_quartile1 numeric
@attribute mfcc_sma_de[8]_quartile2 numeric
@attribute mfcc_sma_de[8]_quartile3 numeric
@attribute mfcc_sma_de[8]_iqr1-2 numeric
@attribute mfcc_sma_de[8]_iqr2-3 numeric
@attribute mfcc_sma_de[8]_iqr1-3 numeric
@attribute mfcc_sma_de[8]_percentile1.0 numeric
@attribute mfcc_sma_de[8]_percentile99.0 numeric
@attribute mfcc_sma_de[8]_pctlrange0-1 numeric
@attribute mfcc_sma_de[8]_upleveltime75 numeric
@attribute mfcc_sma_de[8]_upleveltime90 numeric
@attribute mfcc_sma_de[9]_maxPos numeric
@attribute mfcc_sma_de[9]_minPos numeric
@attribute mfcc_sma_de[9]_amean numeric
@attribute mfcc_sma_de[9]_linregc1 numeric
@attribute mfcc_sma_de[9]_linregc2 numeric
@attribute mfcc_sma_de[9]_linregerrA numeric
@attribute mfcc_sma_de[9]_linregerrQ numeric
@attribute mfcc_sma_de[9]_stddev numeric
@attribute mfcc_sma_de[9]_skewness numeric
@attribute mfcc_sma_de[9]_kurtosis numeric
@attribute mfcc_sma_de[9]_quartile1 numeric
@attribute mfcc_sma_de[9]_quartile2 numeric
@attribute mfcc_sma_de[9]_quartile3 numeric
@attribute mfcc_sma_de[9]_iqr1-2 numeric
@attribute mfcc_sma_de[9]_iqr2-3 numeric
@attribute mfcc_sma_de[9]_iqr1-3 numeric
@attribute mfcc_sma_de[9]_percentile1.0 numeric
@attribute mfcc_sma_de[9]_percentile99.0 numeric
@attribute mfcc_sma_de[9]_pctlrange0-1 numeric
@attribute mfcc_sma_de[9]_upleveltime75 numeric
@attribute mfcc_sma_de[9]_upleveltime90 numeric
@attribute mfcc_sma_de[10]_maxPos numeric
@attribute mfcc_sma_de[10]_minPos numeric
@attribute mfcc_sma_de[10]_amean numeric
@attribute mfcc_sma_de[10]_linregc1 numeric
@attribute mfcc_sma_de[10]_linregc2 numeric
@attribute mfcc_sma_de[10]_linregerrA numeric
@attribute mfcc_sma_de[10]_linregerrQ numeric
@attribute mfcc_sma_de[10]_stddev numeric
@attribute mfcc_sma_de[10]_skewness numeric
@attribute mfcc_sma_de[10]_kurtosis numeric
@attribute mfcc_sma_de[10]_quartile1 numeric
@attribute mfcc_sma_de[10]_quartile2 numeric
@attribute mfcc_sma_de[10]_quartile3 numeric
@attribute mfcc_sma_de[10]_iqr1-2 numeric
@attribute mfcc_sma_de[10]_iqr2-3 numeric
@attribute mfcc_sma_de[10]_iqr1-3 numeric
@attribute mfcc_sma_de[10]_percentile1.0 numeric
@attribute mfcc_sma_de[10]_percentile99.0 numeric
@attribute mfcc_sma_de[10]_pctlrange0-1 numeric
@attribute mfcc_sma_de[10]_upleveltime75 numeric
@attribute mfcc_sma_de[10]_upleveltime90 numeric
@attribute mfcc_sma_de[11]_maxPos numeric
@attribute mfcc_sma_de[11]_minPos numeric
@attribute mfcc_sma_de[11]_amean numeric
@attribute mfcc_sma_de[11]_linregc1 numeric
@attribute mfcc_sma_de[11]_linregc2 numeric
@attribute mfcc_sma_de[11]_linregerrA numeric
@attribute mfcc_sma_de[11]_linregerrQ numeric
@attribute mfcc_sma_de[11]_stddev numeric
@attribute mfcc_sma_de[11]_skewness numeric
@attribute mfcc_sma_de[11]_kurtosis numeric
@attribute mfcc_sma_de[11]_quartile1 numeric
@attribute mfcc_sma_de[11]_quartile2 numeric
@attribute mfcc_sma_de[11]_quartile3 numeric
@attribute mfcc_sma_de[11]_iqr1-2 numeric
@attribute mfcc_sma_de[11]_iqr2-3 numeric
@attribute mfcc_sma_de[11]_iqr1-3 numeric
@attribute mfcc_sma_de[11]_percentile1.0 numeric
@attribute mfcc_sma_de[11]_percentile99.0 numeric
@attribute mfcc_sma_de[11]_pctlrange0-1 numeric
@attribute mfcc_sma_de[11]_upleveltime75 numeric
@attribute mfcc_sma_de[11]_upleveltime90 numeric
@attribute mfcc_sma_de[12]_maxPos numeric
@attribute mfcc_sma_de[12]_minPos numeric
@attribute mfcc_sma_de[12]_amean numeric
@attribute mfcc_sma_de[12]_linregc1 numeric
@attribute mfcc_sma_de[12]_linregc2 numeric
@attribute mfcc_sma_de[12]_linregerrA numeric
@attribute mfcc_sma_de[12]_linregerrQ numeric
@attribute mfcc_sma_de[12]_stddev numeric
@attribute mfcc_sma_de[12]_skewness numeric
@attribute mfcc_sma_de[12]_kurtosis numeric
@attribute mfcc_sma_de[12]_quartile1 numeric
@attribute mfcc_sma_de[12]_quartile2 numeric
@attribute mfcc_sma_de[12]_quartile3 numeric
@attribute mfcc_sma_de[12]_iqr1-2 numeric
@attribute mfcc_sma_de[12]_iqr2-3 numeric
@attribute mfcc_sma_de[12]_iqr1-3 numeric
@attribute mfcc_sma_de[12]_percentile1.0 numeric
@attribute mfcc_sma_de[12]_percentile99.0 numeric
@attribute mfcc_sma_de[12]_pctlrange0-1 numeric
@attribute mfcc_sma_de[12]_upleveltime75 numeric
@attribute mfcc_sma_de[12]_upleveltime90 numeric
@attribute mfcc_sma_de[13]_maxPos numeric
@attribute mfcc_sma_de[13]_minPos numeric
@attribute mfcc_sma_de[13]_amean numeric
@attribute mfcc_sma_de[13]_linregc1 numeric
@attribute mfcc_sma_de[13]_linregc2 numeric
@attribute mfcc_sma_de[13]_linregerrA numeric
@attribute mfcc_sma_de[13]_linregerrQ numeric
@attribute mfcc_sma_de[13]_stddev numeric
@attribute mfcc_sma_de[13]_skewness numeric
@attribute mfcc_sma_de[13]_kurtosis numeric
@attribute mfcc_sma_de[13]_quartile1 numeric
@attribute mfcc_sma_de[13]_quartile2 numeric
@attribute mfcc_sma_de[13]_quartile3 numeric
@attribute mfcc_sma_de[13]_iqr1-2 numeric
@attribute mfcc_sma_de[13]_iqr2-3 numeric
@attribute mfcc_sma_de[13]_iqr1-3 numeric
@attribute mfcc_sma_de[13]_percentile1.0 numeric
@attribute mfcc_sma_de[13]_percentile99.0 numeric
@attribute mfcc_sma_de[13]_pctlrange0-1 numeric
@attribute mfcc_sma_de[13]_upleveltime75 numeric
@attribute mfcc_sma_de[13]_upleveltime90 numeric
@attribute mfcc_sma_de[14]_maxPos numeric
@attribute mfcc_sma_de[14]_minPos numeric
@attribute mfcc_sma_de[14]_amean numeric
@attribute mfcc_sma_de[14]_linregc1 numeric
@attribute mfcc_sma_de[14]_linregc2 numeric
@attribute mfcc_sma_de[14]_linregerrA numeric
@attribute mfcc_sma_de[14]_linregerrQ numeric
@attribute mfcc_sma_de[14]_stddev numeric
@attribute mfcc_sma_de[14]_skewness numeric
@attribute mfcc_sma_de[14]_kurtosis numeric
@attribute mfcc_sma_de[14]_quartile1 numeric
@attribute mfcc_sma_de[14]_quartile2 numeric
@attribute mfcc_sma_de[14]_quartile3 numeric
@attribute mfcc_sma_de[14]_iqr1-2 numeric
@attribute mfcc_sma_de[14]_iqr2-3 numeric
@attribute mfcc_sma_de[14]_iqr1-3 numeric
@attribute mfcc_sma_de[14]_percentile1.0 numeric
@attribute mfcc_sma_de[14]_percentile99.0 numeric
@attribute mfcc_sma_de[14]_pctlrange0-1 numeric
@attribute mfcc_sma_de[14]_upleveltime75 numeric
@attribute mfcc_sma_de[14]_upleveltime90 numeric
@attribute logMelFreqBand_sma_de[0]_maxPos numeric
@attribute logMelFreqBand_sma_de[0]_minPos numeric
@attribute logMelFreqBand_sma_de[0]_amean numeric
@attribute logMelFreqBand_sma_de[0]_linregc1 numeric
@attribute logMelFreqBand_sma_de[0]_linregc2 numeric
@attribute logMelFreqBand_sma_de[0]_linregerrA numeric
@attribute logMelFreqBand_sma_de[0]_linregerrQ numeric
@attribute logMelFreqBand_sma_de[0]_stddev numeric
@attribute logMelFreqBand_sma_de[0]_skewness numeric
@attribute logMelFreqBand_sma_de[0]_kurtosis numeric
@attribute logMelFreqBand_sma_de[0]_quartile1 numeric
@attribute logMelFreqBand_sma_de[0]_quartile2 numeric
@attribute logMelFreqBand_sma_de[0]_quartile3 numeric
@attribute logMelFreqBand_sma_de[0]_iqr1-2 numeric
@attribute logMelFreqBand_sma_de[0]_iqr2-3 numeric
@attribute logMelFreqBand_sma_de[0]_iqr1-3 numeric
@attribute logMelFreqBand_sma_de[0]_percentile1.0 numeric
@attribute logMelFreqBand_sma_de[0]_percentile99.0 numeric
@attribute logMelFreqBand_sma_de[0]_pctlrange0-1 numeric
@attribute logMelFreqBand_sma_de[0]_upleveltime75 numeric
@attribute logMelFreqBand_sma_de[0]_upleveltime90 numeric
@attribute logMelFreqBand_sma_de[1]_maxPos numeric
@attribute logMelFreqBand_sma_de[1]_minPos numeric
@attribute logMelFreqBand_sma_de[1]_amean numeric
@attribute logMelFreqBand_sma_de[1]_linregc1 numeric
@attribute logMelFreqBand_sma_de[1]_linregc2 numeric
@attribute logMelFreqBand_sma_de[1]_linregerrA numeric
@attribute logMelFreqBand_sma_de[1]_linregerrQ numeric
@attribute logMelFreqBand_sma_de[1]_stddev numeric
@attribute logMelFreqBand_sma_de[1]_skewness numeric
@attribute logMelFreqBand_sma_de[1]_kurtosis numeric
@attribute logMelFreqBand_sma_de[1]_quartile1 numeric
@attribute logMelFreqBand_sma_de[1]_quartile2 numeric
@attribute logMelFreqBand_sma_de[1]_quartile3 numeric
@attribute logMelFreqBand_sma_de[1]_iqr1-2 numeric
@attribute logMelFreqBand_sma_de[1]_iqr2-3 numeric
@attribute logMelFreqBand_sma_de[1]_iqr1-3 numeric
@attribute logMelFreqBand_sma_de[1]_percentile1.0 numeric
@attribute logMelFreqBand_sma_de[1]_percentile99.0 numeric
@attribute logMelFreqBand_sma_de[1]_pctlrange0-1 numeric
@attribute logMelFreqBand_sma_de[1]_upleveltime75 numeric
@attribute logMelFreqBand_sma_de[1]_upleveltime90 numeric
@attribute logMelFreqBand_sma_de[2]_maxPos numeric
@attribute logMelFreqBand_sma_de[2]_minPos numeric
@attribute logMelFreqBand_sma_de[2]_amean numeric
@attribute logMelFreqBand_sma_de[2]_linregc1 numeric
@attribute logMelFreqBand_sma_de[2]_linregc2 numeric
@attribute logMelFreqBand_sma_de[2]_linregerrA numeric
@attribute logMelFreqBand_sma_de[2]_linregerrQ numeric
@attribute logMelFreqBand_sma_de[2]_stddev numeric
@attribute logMelFreqBand_sma_de[2]_skewness numeric
@attribute logMelFreqBand_sma_de[2]_kurtosis numeric
@attribute logMelFreqBand_sma_de[2]_quartile1 numeric
@attribute logMelFreqBand_sma_de[2]_quartile2 numeric
@attribute logMelFreqBand_sma_de[2]_quartile3 numeric
@attribute logMelFreqBand_sma_de[2]_iqr1-2 numeric
@attribute logMelFreqBand_sma_de[2]_iqr2-3 numeric
@attribute logMelFreqBand_sma_de[2]_iqr1-3 numeric
@attribute logMelFreqBand_sma_de[2]_percentile1.0 numeric
@attribute logMelFreqBand_sma_de[2]_percentile99.0 numeric
@attribute logMelFreqBand_sma_de[2]_pctlrange0-1 numeric
@attribute logMelFreqBand_sma_de[2]_upleveltime75 numeric
@attribute logMelFreqBand_sma_de[2]_upleveltime90 numeric
@attribute logMelFreqBand_sma_de[3]_maxPos numeric
@attribute logMelFreqBand_sma_de[3]_minPos numeric
@attribute logMelFreqBand_sma_de[3]_amean numeric
@attribute logMelFreqBand_sma_de[3]_linregc1 numeric
@attribute logMelFreqBand_sma_de[3]_linregc2 numeric
@attribute logMelFreqBand_sma_de[3]_linregerrA numeric
@attribute logMelFreqBand_sma_de[3]_linregerrQ numeric
@attribute logMelFreqBand_sma_de[3]_stddev numeric
@attribute logMelFreqBand_sma_de[3]_skewness numeric
@attribute logMelFreqBand_sma_de[3]_kurtosis numeric
@attribute logMelFreqBand_sma_de[3]_quartile1 numeric
@attribute logMelFreqBand_sma_de[3]_quartile2 numeric
@attribute logMelFreqBand_sma_de[3]_quartile3 numeric
@attribute logMelFreqBand_sma_de[3]_iqr1-2 numeric
@attribute logMelFreqBand_sma_de[3]_iqr2-3 numeric
@attribute logMelFreqBand_sma_de[3]_iqr1-3 numeric
@attribute logMelFreqBand_sma_de[3]_percentile1.0 numeric
@attribute logMelFreqBand_sma_de[3]_percentile99.0 numeric
@attribute logMelFreqBand_sma_de[3]_pctlrange0-1 numeric
@attribute logMelFreqBand_sma_de[3]_upleveltime75 numeric
@attribute logMelFreqBand_sma_de[3]_upleveltime90 numeric
@attribute logMelFreqBand_sma_de[4]_maxPos numeric
@attribute logMelFreqBand_sma_de[4]_minPos numeric
@attribute logMelFreqBand_sma_de[4]_amean numeric
@attribute logMelFreqBand_sma_de[4]_linregc1 numeric
@attribute logMelFreqBand_sma_de[4]_linregc2 numeric
@attribute logMelFreqBand_sma_de[4]_linregerrA numeric
@attribute logMelFreqBand_sma_de[4]_linregerrQ numeric
@attribute logMelFreqBand_sma_de[4]_stddev numeric
@attribute logMelFreqBand_sma_de[4]_skewness numeric
@attribute logMelFreqBand_sma_de[4]_kurtosis numeric
@attribute logMelFreqBand_sma_de[4]_quartile1 numeric
@attribute logMelFreqBand_sma_de[4]_quartile2 numeric
@attribute logMelFreqBand_sma_de[4]_quartile3 numeric
@attribute logMelFreqBand_sma_de[4]_iqr1-2 numeric
@attribute logMelFreqBand_sma_de[4]_iqr2-3 numeric
@attribute logMelFreqBand_sma_de[4]_iqr1-3 numeric
@attribute logMelFreqBand_sma_de[4]_percentile1.0 numeric
@attribute logMelFreqBand_sma_de[4]_percentile99.0 numeric
@attribute logMelFreqBand_sma_de[4]_pctlrange0-1 numeric
@attribute logMelFreqBand_sma_de[4]_upleveltime75 numeric
@attribute logMelFreqBand_sma_de[4]_upleveltime90 numeric
@attribute logMelFreqBand_sma_de[5]_maxPos numeric
@attribute logMelFreqBand_sma_de[5]_minPos numeric
@attribute logMelFreqBand_sma_de[5]_amean numeric
@attribute logMelFreqBand_sma_de[5]_linregc1 numeric
@attribute logMelFreqBand_sma_de[5]_linregc2 numeric
@attribute logMelFreqBand_sma_de[5]_linregerrA numeric
@attribute logMelFreqBand_sma_de[5]_linregerrQ numeric
@attribute logMelFreqBand_sma_de[5]_stddev numeric
@attribute logMelFreqBand_sma_de[5]_skewness numeric
@attribute logMelFreqBand_sma_de[5]_kurtosis numeric
@attribute logMelFreqBand_sma_de[5]_quartile1 numeric
@attribute logMelFreqBand_sma_de[5]_quartile2 numeric
@attribute logMelFreqBand_sma_de[5]_quartile3 numeric
@attribute logMelFreqBand_sma_de[5]_iqr1-2 numeric
@attribute logMelFreqBand_sma_de[5]_iqr2-3 numeric
@attribute logMelFreqBand_sma_de[5]_iqr1-3 numeric
@attribute logMelFreqBand_sma_de[5]_percentile1.0 numeric
@attribute logMelFreqBand_sma_de[5]_percentile99.0 numeric
@attribute logMelFreqBand_sma_de[5]_pctlrange0-1 numeric
@attribute logMelFreqBand_sma_de[5]_upleveltime75 numeric
@attribute logMelFreqBand_sma_de[5]_upleveltime90 numeric
@attribute logMelFreqBand_sma_de[6]_maxPos numeric
@attribute logMelFreqBand_sma_de[6]_minPos numeric
@attribute logMelFreqBand_sma_de[6]_amean numeric
@attribute logMelFreqBand_sma_de[6]_linregc1 numeric
@attribute logMelFreqBand_sma_de[6]_linregc2 numeric
@attribute logMelFreqBand_sma_de[6]_linregerrA numeric
@attribute logMelFreqBand_sma_de[6]_linregerrQ numeric
@attribute logMelFreqBand_sma_de[6]_stddev numeric
@attribute logMelFreqBand_sma_de[6]_skewness numeric
@attribute logMelFreqBand_sma_de[6]_kurtosis numeric
@attribute logMelFreqBand_sma_de[6]_quartile1 numeric
@attribute logMelFreqBand_sma_de[6]_quartile2 numeric
@attribute logMelFreqBand_sma_de[6]_quartile3 numeric
@attribute logMelFreqBand_sma_de[6]_iqr1-2 numeric
@attribute logMelFreqBand_sma_de[6]_iqr2-3 numeric
@attribute logMelFreqBand_sma_de[6]_iqr1-3 numeric
@attribute logMelFreqBand_sma_de[6]_percentile1.0 numeric
@attribute logMelFreqBand_sma_de[6]_percentile99.0 numeric
@attribute logMelFreqBand_sma_de[6]_pctlrange0-1 numeric
@attribute logMelFreqBand_sma_de[6]_upleveltime75 numeric
@attribute logMelFreqBand_sma_de[6]_upleveltime90 numeric
@attribute logMelFreqBand_sma_de[7]_maxPos numeric
@attribute logMelFreqBand_sma_de[7]_minPos numeric
@attribute logMelFreqBand_sma_de[7]_amean numeric
@attribute logMelFreqBand_sma_de[7]_linregc1 numeric
@attribute logMelFreqBand_sma_de[7]_linregc2 numeric
@attribute logMelFreqBand_sma_de[7]_linregerrA numeric
@attribute logMelFreqBand_sma_de[7]_linregerrQ numeric
@attribute logMelFreqBand_sma_de[7]_stddev numeric
@attribute logMelFreqBand_sma_de[7]_skewness numeric
@attribute logMelFreqBand_sma_de[7]_kurtosis numeric
@attribute logMelFreqBand_sma_de[7]_quartile1 numeric
@attribute logMelFreqBand_sma_de[7]_quartile2 numeric
@attribute logMelFreqBand_sma_de[7]_quartile3 numeric
@attribute logMelFreqBand_sma_de[7]_iqr1-2 numeric
@attribute logMelFreqBand_sma_de[7]_iqr2-3 numeric
@attribute logMelFreqBand_sma_de[7]_iqr1-3 numeric
@attribute logMelFreqBand_sma_de[7]_percentile1.0 numeric
@attribute logMelFreqBand_sma_de[7]_percentile99.0 numeric
@attribute logMelFreqBand_sma_de[7]_pctlrange0-1 numeric
@attribute logMelFreqBand_sma_de[7]_upleveltime75 numeric
@attribute logMelFreqBand_sma_de[7]_upleveltime90 numeric
@attribute lspFreq_sma_de[0]_maxPos numeric
@attribute lspFreq_sma_de[0]_minPos numeric
@attribute lspFreq_sma_de[0]_amean numeric
@attribute lspFreq_sma_de[0]_linregc1 numeric
@attribute lspFreq_sma_de[0]_linregc2 numeric
@attribute lspFreq_sma_de[0]_linregerrA numeric
@attribute lspFreq_sma_de[0]_linregerrQ numeric
@attribute lspFreq_sma_de[0]_stddev numeric
@attribute lspFreq_sma_de[0]_skewness numeric
@attribute lspFreq_sma_de[0]_kurtosis numeric
@attribute lspFreq_sma_de[0]_quartile1 numeric
@attribute lspFreq_sma_de[0]_quartile2 numeric
@attribute lspFreq_sma_de[0]_quartile3 numeric
@attribute lspFreq_sma_de[0]_iqr1-2 numeric
@attribute lspFreq_sma_de[0]_iqr2-3 numeric
@attribute lspFreq_sma_de[0]_iqr1-3 numeric
@attribute lspFreq_sma_de[0]_percentile1.0 numeric
@attribute lspFreq_sma_de[0]_percentile99.0 numeric
@attribute lspFreq_sma_de[0]_pctlrange0-1 numeric
@attribute lspFreq_sma_de[0]_upleveltime75 numeric
@attribute lspFreq_sma_de[0]_upleveltime90 numeric
@attribute lspFreq_sma_de[1]_maxPos numeric
@attribute lspFreq_sma_de[1]_minPos numeric
@attribute lspFreq_sma_de[1]_amean numeric
@attribute lspFreq_sma_de[1]_linregc1 numeric
@attribute lspFreq_sma_de[1]_linregc2 numeric
@attribute lspFreq_sma_de[1]_linregerrA numeric
@attribute lspFreq_sma_de[1]_linregerrQ numeric
@attribute lspFreq_sma_de[1]_stddev numeric
@attribute lspFreq_sma_de[1]_skewness numeric
@attribute lspFreq_sma_de[1]_kurtosis numeric
@attribute lspFreq_sma_de[1]_quartile1 numeric
@attribute lspFreq_sma_de[1]_quartile2 numeric
@attribute lspFreq_sma_de[1]_quartile3 numeric
@attribute lspFreq_sma_de[1]_iqr1-2 numeric
@attribute lspFreq_sma_de[1]_iqr2-3 numeric
@attribute lspFreq_sma_de[1]_iqr1-3 numeric
@attribute lspFreq_sma_de[1]_percentile1.0 numeric
@attribute lspFreq_sma_de[1]_percentile99.0 numeric
@attribute lspFreq_sma_de[1]_pctlrange0-1 numeric
@attribute lspFreq_sma_de[1]_upleveltime75 numeric
@attribute lspFreq_sma_de[1]_upleveltime90 numeric
@attribute lspFreq_sma_de[2]_maxPos numeric
@attribute lspFreq_sma_de[2]_minPos numeric
@attribute lspFreq_sma_de[2]_amean numeric
@attribute lspFreq_sma_de[2]_linregc1 numeric
@attribute lspFreq_sma_de[2]_linregc2 numeric
@attribute lspFreq_sma_de[2]_linregerrA numeric
@attribute lspFreq_sma_de[2]_linregerrQ numeric
@attribute lspFreq_sma_de[2]_stddev numeric
@attribute lspFreq_sma_de[2]_skewness numeric
@attribute lspFreq_sma_de[2]_kurtosis numeric
@attribute lspFreq_sma_de[2]_quartile1 numeric
@attribute lspFreq_sma_de[2]_quartile2 numeric
@attribute lspFreq_sma_de[2]_quartile3 numeric
@attribute lspFreq_sma_de[2]_iqr1-2 numeric
@attribute lspFreq_sma_de[2]_iqr2-3 numeric
@attribute lspFreq_sma_de[2]_iqr1-3 numeric
@attribute lspFreq_sma_de[2]_percentile1.0 numeric
@attribute lspFreq_sma_de[2]_percentile99.0 numeric
@attribute lspFreq_sma_de[2]_pctlrange0-1 numeric
@attribute lspFreq_sma_de[2]_upleveltime75 numeric
@attribute lspFreq_sma_de[2]_upleveltime90 numeric
@attribute lspFreq_sma_de[3]_maxPos numeric
@attribute lspFreq_sma_de[3]_minPos numeric
@attribute lspFreq_sma_de[3]_amean numeric
@attribute lspFreq_sma_de[3]_linregc1 numeric
@attribute lspFreq_sma_de[3]_linregc2 numeric
@attribute lspFreq_sma_de[3]_linregerrA numeric
@attribute lspFreq_sma_de[3]_linregerrQ numeric
@attribute lspFreq_sma_de[3]_stddev numeric
@attribute lspFreq_sma_de[3]_skewness numeric
@attribute lspFreq_sma_de[3]_kurtosis numeric
@attribute lspFreq_sma_de[3]_quartile1 numeric
@attribute lspFreq_sma_de[3]_quartile2 numeric
@attribute lspFreq_sma_de[3]_quartile3 numeric
@attribute lspFreq_sma_de[3]_iqr1-2 numeric
@attribute lspFreq_sma_de[3]_iqr2-3 numeric
@attribute lspFreq_sma_de[3]_iqr1-3 numeric
@attribute lspFreq_sma_de[3]_percentile1.0 numeric
@attribute lspFreq_sma_de[3]_percentile99.0 numeric
@attribute lspFreq_sma_de[3]_pctlrange0-1 numeric
@attribute lspFreq_sma_de[3]_upleveltime75 numeric
@attribute lspFreq_sma_de[3]_upleveltime90 numeric
@attribute lspFreq_sma_de[4]_maxPos numeric
@attribute lspFreq_sma_de[4]_minPos numeric
@attribute lspFreq_sma_de[4]_amean numeric
@attribute lspFreq_sma_de[4]_linregc1 numeric
@attribute lspFreq_sma_de[4]_linregc2 numeric
@attribute lspFreq_sma_de[4]_linregerrA numeric
@attribute lspFreq_sma_de[4]_linregerrQ numeric
@attribute lspFreq_sma_de[4]_stddev numeric
@attribute lspFreq_sma_de[4]_skewness numeric
@attribute lspFreq_sma_de[4]_kurtosis numeric
@attribute lspFreq_sma_de[4]_quartile1 numeric
@attribute lspFreq_sma_de[4]_quartile2 numeric
@attribute lspFreq_sma_de[4]_quartile3 numeric
@attribute lspFreq_sma_de[4]_iqr1-2 numeric
@attribute lspFreq_sma_de[4]_iqr2-3 numeric
@attribute lspFreq_sma_de[4]_iqr1-3 numeric
@attribute lspFreq_sma_de[4]_percentile1.0 numeric
@attribute lspFreq_sma_de[4]_percentile99.0 numeric
@attribute lspFreq_sma_de[4]_pctlrange0-1 numeric
@attribute lspFreq_sma_de[4]_upleveltime75 numeric
@attribute lspFreq_sma_de[4]_upleveltime90 numeric
@attribute lspFreq_sma_de[5]_maxPos numeric
@attribute lspFreq_sma_de[5]_minPos numeric
@attribute lspFreq_sma_de[5]_amean numeric
@attribute lspFreq_sma_de[5]_linregc1 numeric
@attribute lspFreq_sma_de[5]_linregc2 numeric
@attribute lspFreq_sma_de[5]_linregerrA numeric
@attribute lspFreq_sma_de[5]_linregerrQ numeric
@attribute lspFreq_sma_de[5]_stddev numeric
@attribute lspFreq_sma_de[5]_skewness numeric
@attribute lspFreq_sma_de[5]_kurtosis numeric
@attribute lspFreq_sma_de[5]_quartile1 numeric
@attribute lspFreq_sma_de[5]_quartile2 numeric
@attribute lspFreq_sma_de[5]_quartile3 numeric
@attribute lspFreq_sma_de[5]_iqr1-2 numeric
@attribute lspFreq_sma_de[5]_iqr2-3 numeric
@attribute lspFreq_sma_de[5]_iqr1-3 numeric
@attribute lspFreq_sma_de[5]_percentile1.0 numeric
@attribute lspFreq_sma_de[5]_percentile99.0 numeric
@attribute lspFreq_sma_de[5]_pctlrange0-1 numeric
@attribute lspFreq_sma_de[5]_upleveltime75 numeric
@attribute lspFreq_sma_de[5]_upleveltime90 numeric
@attribute lspFreq_sma_de[6]_maxPos numeric
@attribute lspFreq_sma_de[6]_minPos numeric
@attribute lspFreq_sma_de[6]_amean numeric
@attribute lspFreq_sma_de[6]_linregc1 numeric
@attribute lspFreq_sma_de[6]_linregc2 numeric
@attribute lspFreq_sma_de[6]_linregerrA numeric
@attribute lspFreq_sma_de[6]_linregerrQ numeric
@attribute lspFreq_sma_de[6]_stddev numeric
@attribute lspFreq_sma_de[6]_skewness numeric
@attribute lspFreq_sma_de[6]_kurtosis numeric
@attribute lspFreq_sma_de[6]_quartile1 numeric
@attribute lspFreq_sma_de[6]_quartile2 numeric
@attribute lspFreq_sma_de[6]_quartile3 numeric
@attribute lspFreq_sma_de[6]_iqr1-2 numeric
@attribute lspFreq_sma_de[6]_iqr2-3 numeric
@attribute lspFreq_sma_de[6]_iqr1-3 numeric
@attribute lspFreq_sma_de[6]_percentile1.0 numeric
@attribute lspFreq_sma_de[6]_percentile99.0 numeric
@attribute lspFreq_sma_de[6]_pctlrange0-1 numeric
@attribute lspFreq_sma_de[6]_upleveltime75 numeric
@attribute lspFreq_sma_de[6]_upleveltime90 numeric
@attribute lspFreq_sma_de[7]_maxPos numeric
@attribute lspFreq_sma_de[7]_minPos numeric
@attribute lspFreq_sma_de[7]_amean numeric
@attribute lspFreq_sma_de[7]_linregc1 numeric
@attribute lspFreq_sma_de[7]_linregc2 numeric
@attribute lspFreq_sma_de[7]_linregerrA numeric
@attribute lspFreq_sma_de[7]_linregerrQ numeric
@attribute lspFreq_sma_de[7]_stddev numeric
@attribute lspFreq_sma_de[7]_skewness numeric
@attribute lspFreq_sma_de[7]_kurtosis numeric
@attribute lspFreq_sma_de[7]_quartile1 numeric
@attribute lspFreq_sma_de[7]_quartile2 numeric
@attribute lspFreq_sma_de[7]_quartile3 numeric
@attribute lspFreq_sma_de[7]_iqr1-2 numeric
@attribute lspFreq_sma_de[7]_iqr2-3 numeric
@attribute lspFreq_sma_de[7]_iqr1-3 numeric
@attribute lspFreq_sma_de[7]_percentile1.0 numeric
@attribute lspFreq_sma_de[7]_percentile99.0 numeric
@attribute lspFreq_sma_de[7]_pctlrange0-1 numeric
@attribute lspFreq_sma_de[7]_upleveltime75 numeric
@attribute lspFreq_sma_de[7]_upleveltime90 numeric
@attribute F0finEnv_sma_de_maxPos numeric
@attribute F0finEnv_sma_de_minPos numeric
@attribute F0finEnv_sma_de_amean numeric
@attribute F0finEnv_sma_de_linregc1 numeric
@attribute F0finEnv_sma_de_linregc2 numeric
@attribute F0finEnv_sma_de_linregerrA numeric
@attribute F0finEnv_sma_de_linregerrQ numeric
@attribute F0finEnv_sma_de_stddev numeric
@attribute F0finEnv_sma_de_skewness numeric
@attribute F0finEnv_sma_de_kurtosis numeric
@attribute F0finEnv_sma_de_quartile1 numeric
@attribute F0finEnv_sma_de_quartile2 numeric
@attribute F0finEnv_sma_de_quartile3 numeric
@attribute F0finEnv_sma_de_iqr1-2 numeric
@attribute F0finEnv_sma_de_iqr2-3 numeric
@attribute F0finEnv_sma_de_iqr1-3 numeric
@attribute F0finEnv_sma_de_percentile1.0 numeric
@attribute F0finEnv_sma_de_percentile99.0 numeric
@attribute F0finEnv_sma_de_pctlrange0-1 numeric
@attribute F0finEnv_sma_de_upleveltime75 numeric
@attribute F0finEnv_sma_de_upleveltime90 numeric
@attribute voicingFinalUnclipped_sma_de_maxPos numeric
@attribute voicingFinalUnclipped_sma_de_minPos numeric
@attribute voicingFinalUnclipped_sma_de_amean numeric
@attribute voicingFinalUnclipped_sma_de_linregc1 numeric
@attribute voicingFinalUnclipped_sma_de_linregc2 numeric
@attribute voicingFinalUnclipped_sma_de_linregerrA numeric
@attribute voicingFinalUnclipped_sma_de_linregerrQ numeric
@attribute voicingFinalUnclipped_sma_de_stddev numeric
@attribute voicingFinalUnclipped_sma_de_skewness numeric
@attribute voicingFinalUnclipped_sma_de_kurtosis numeric
@attribute voicingFinalUnclipped_sma_de_quartile1 numeric
@attribute voicingFinalUnclipped_sma_de_quartile2 numeric
@attribute voicingFinalUnclipped_sma_de_quartile3 numeric
@attribute voicingFinalUnclipped_sma_de_iqr1-2 numeric
@attribute voicingFinalUnclipped_sma_de_iqr2-3 numeric
@attribute voicingFinalUnclipped_sma_de_iqr1-3 numeric
@attribute voicingFinalUnclipped_sma_de_percentile1.0 numeric
@attribute voicingFinalUnclipped_sma_de_percentile99.0 numeric
@attribute voicingFinalUnclipped_sma_de_pctlrange0-1 numeric
@attribute voicingFinalUnclipped_sma_de_upleveltime75 numeric
@attribute voicingFinalUnclipped_sma_de_upleveltime90 numeric
@attribute F0final_sma_maxPos numeric
@attribute F0final_sma_minPos numeric
@attribute F0final_sma_amean numeric
@attribute F0final_sma_linregc1 numeric
@attribute F0final_sma_linregc2 numeric
@attribute F0final_sma_linregerrA numeric
@attribute F0final_sma_linregerrQ numeric
@attribute F0final_sma_stddev numeric
@attribute F0final_sma_skewness numeric
@attribute F0final_sma_kurtosis numeric
@attribute F0final_sma_quartile1 numeric
@attribute F0final_sma_quartile2 numeric
@attribute F0final_sma_quartile3 numeric
@attribute F0final_sma_iqr1-2 numeric
@attribute F0final_sma_iqr2-3 numeric
@attribute F0final_sma_iqr1-3 numeric
@attribute F0final_sma_percentile99.0 numeric
@attribute F0final_sma_upleveltime75 numeric
@attribute F0final_sma_upleveltime90 numeric
@attribute jitterLocal_sma_maxPos numeric
@attribute jitterLocal_sma_minPos numeric
@attribute jitterLocal_sma_amean numeric
@attribute jitterLocal_sma_linregc1 numeric
@attribute jitterLocal_sma_linregc2 numeric
@attribute jitterLocal_sma_linregerrA numeric
@attribute jitterLocal_sma_linregerrQ numeric
@attribute jitterLocal_sma_stddev numeric
@attribute jitterLocal_sma_skewness numeric
@attribute jitterLocal_sma_kurtosis numeric
@attribute jitterLocal_sma_quartile1 numeric
@attribute jitterLocal_sma_quartile2 numeric
@attribute jitterLocal_sma_quartile3 numeric
@attribute jitterLocal_sma_iqr1-2 numeric
@attribute jitterLocal_sma_iqr2-3 numeric
@attribute jitterLocal_sma_iqr1-3 numeric
@attribute jitterLocal_sma_percentile99.0 numeric
@attribute jitterLocal_sma_upleveltime75 numeric
@attribute jitterLocal_sma_upleveltime90 numeric
@attribute jitterDDP_sma_maxPos numeric
@attribute jitterDDP_sma_minPos numeric
@attribute jitterDDP_sma_amean numeric
@attribute jitterDDP_sma_linregc1 numeric
@attribute jitterDDP_sma_linregc2 numeric
@attribute jitterDDP_sma_linregerrA numeric
@attribute jitterDDP_sma_linregerrQ numeric
@attribute jitterDDP_sma_stddev numeric
@attribute jitterDDP_sma_skewness numeric
@attribute jitterDDP_sma_kurtosis numeric
@attribute jitterDDP_sma_quartile1 numeric
@attribute jitterDDP_sma_quartile2 numeric
@attribute jitterDDP_sma_quartile3 numeric
@attribute jitterDDP_sma_iqr1-2 numeric
@attribute jitterDDP_sma_iqr2-3 numeric
@attribute jitterDDP_sma_iqr1-3 numeric
@attribute jitterDDP_sma_percentile99.0 numeric
@attribute jitterDDP_sma_upleveltime75 numeric
@attribute jitterDDP_sma_upleveltime90 numeric
@attribute shimmerLocal_sma_maxPos numeric
@attribute shimmerLocal_sma_minPos numeric
@attribute shimmerLocal_sma_amean numeric
@attribute shimmerLocal_sma_linregc1 numeric
@attribute shimmerLocal_sma_linregc2 numeric
@attribute shimmerLocal_sma_linregerrA numeric
@attribute shimmerLocal_sma_linregerrQ numeric
@attribute shimmerLocal_sma_stddev numeric
@attribute shimmerLocal_sma_skewness numeric
@attribute shimmerLocal_sma_kurtosis numeric
@attribute shimmerLocal_sma_quartile1 numeric
@attribute shimmerLocal_sma_quartile2 numeric
@attribute shimmerLocal_sma_quartile3 numeric
@attribute shimmerLocal_sma_iqr1-2 numeric
@attribute shimmerLocal_sma_iqr2-3 numeric
@attribute shimmerLocal_sma_iqr1-3 numeric
@attribute shimmerLocal_sma_percentile99.0 numeric
@attribute shimmerLocal_sma_upleveltime75 numeric
@attribute shimmerLocal_sma_upleveltime90 numeric
@attribute F0final_sma_de_maxPos numeric
@attribute F0final_sma_de_minPos numeric
@attribute F0final_sma_de_amean numeric
@attribute F0final_sma_de_linregc1 numeric
@attribute F0final_sma_de_linregc2 numeric
@attribute F0final_sma_de_linregerrA numeric
@attribute F0final_sma_de_linregerrQ numeric
@attribute F0final_sma_de_stddev numeric
@attribute F0final_sma_de_skewness numeric
@attribute F0final_sma_de_kurtosis numeric
@attribute F0final_sma_de_quartile1 numeric
@attribute F0final_sma_de_quartile2 numeric
@attribute F0final_sma_de_quartile3 numeric
@attribute F0final_sma_de_iqr1-2 numeric
@attribute F0final_sma_de_iqr2-3 numeric
@attribute F0final_sma_de_iqr1-3 numeric
@attribute F0final_sma_de_percentile99.0 numeric
@attribute F0final_sma_de_upleveltime75 numeric
@attribute F0final_sma_de_upleveltime90 numeric
@attribute jitterLocal_sma_de_maxPos numeric
@attribute jitterLocal_sma_de_minPos numeric
@attribute jitterLocal_sma_de_amean numeric
@attribute jitterLocal_sma_de_linregc1 numeric
@attribute jitterLocal_sma_de_linregc2 numeric
@attribute jitterLocal_sma_de_linregerrA numeric
@attribute jitterLocal_sma_de_linregerrQ numeric
@attribute jitterLocal_sma_de_stddev numeric
@attribute jitterLocal_sma_de_skewness numeric
@attribute jitterLocal_sma_de_kurtosis numeric
@attribute jitterLocal_sma_de_quartile1 numeric
@attribute jitterLocal_sma_de_quartile2 numeric
@attribute jitterLocal_sma_de_quartile3 numeric
@attribute jitterLocal_sma_de_iqr1-2 numeric
@attribute jitterLocal_sma_de_iqr2-3 numeric
@attribute jitterLocal_sma_de_iqr1-3 numeric
@attribute jitterLocal_sma_de_percentile99.0 numeric
@attribute jitterLocal_sma_de_upleveltime75 numeric
@attribute jitterLocal_sma_de_upleveltime90 numeric
@attribute jitterDDP_sma_de_maxPos numeric
@attribute jitterDDP_sma_de_minPos numeric
@attribute jitterDDP_sma_de_amean numeric
@attribute jitterDDP_sma_de_linregc1 numeric
@attribute jitterDDP_sma_de_linregc2 numeric
@attribute jitterDDP_sma_de_linregerrA numeric
@attribute jitterDDP_sma_de_linregerrQ numeric
@attribute jitterDDP_sma_de_stddev numeric
@attribute jitterDDP_sma_de_skewness numeric
@attribute jitterDDP_sma_de_kurtosis numeric
@attribute jitterDDP_sma_de_quartile1 numeric
@attribute jitterDDP_sma_de_quartile2 numeric
@attribute jitterDDP_sma_de_quartile3 numeric
@attribute jitterDDP_sma_de_iqr1-2 numeric
@attribute jitterDDP_sma_de_iqr2-3 numeric
@attribute jitterDDP_sma_de_iqr1-3 numeric
@attribute jitterDDP_sma_de_percentile99.0 numeric
@attribute jitterDDP_sma_de_upleveltime75 numeric
@attribute jitterDDP_sma_de_upleveltime90 numeric
@attribute shimmerLocal_sma_de_maxPos numeric
@attribute shimmerLocal_sma_de_minPos numeric
@attribute shimmerLocal_sma_de_amean numeric
@attribute shimmerLocal_sma_de_linregc1 numeric
@attribute shimmerLocal_sma_de_linregc2 numeric
@attribute shimmerLocal_sma_de_linregerrA numeric
@attribute shimmerLocal_sma_de_linregerrQ numeric
@attribute shimmerLocal_sma_de_stddev numeric
@attribute shimmerLocal_sma_de_skewness numeric
@attribute shimmerLocal_sma_de_kurtosis numeric
@attribute shimmerLocal_sma_de_quartile1 numeric
@attribute shimmerLocal_sma_de_quartile2 numeric
@attribute shimmerLocal_sma_de_quartile3 numeric
@attribute shimmerLocal_sma_de_iqr1-2 numeric
@attribute shimmerLocal_sma_de_iqr2-3 numeric
@attribute shimmerLocal_sma_de_iqr1-3 numeric
@attribute shimmerLocal_sma_de_percentile99.0 numeric
@attribute shimmerLocal_sma_de_upleveltime75 numeric
@attribute shimmerLocal_sma_de_upleveltime90 numeric
@attribute F0final__Turn_numOnsets numeric
@attribute F0final__Turn_duration numeric
@attribute numeric_class numeric

@data

'noname',8.000000e+000,4.000000e+000,5.678105e-001,-4.783695e-004,6.027315e-001,2.516463e-001,9.243671e-002,3.047110e-001,8.811746e-001,3.382026e+000,3.168434e-001,4.774894e-001,7.456445e-001,1.606460e-001,2.681551e-001,4.288011e-001,1.398017e-001,1.374211e+000,1.234409e+000,2.040816e-002,6.802721e-003,6.000000e+000,0.000000e+000,-3.182136e+001,-8.792799e-002,-2.540261e+001,1.115446e+001,1.814698e+002,1.397824e+001,-2.616673e-001,2.667367e+000,-3.853803e+001,-3.074898e+001,-2.295437e+001,7.789051e+000,7.794609e+000,1.558366e+001,-5.962528e+001,-2.612804e+000,5.701248e+001,1.088435e-001,2.040816e-002,1.050000e+002,8.200000e+001,-6.687048e+000,1.969749e-002,-8.124965e+000,1.243954e+001,2.483367e+002,1.578085e+001,-5.205874e-001,2.909050e+000,-1.638306e+001,-6.077125e+000,4.320085e+000,1.030594e+001,1.039721e+001,2.070315e+001,-4.673732e+001,2.090196e+001,6.763928e+001,2.448980e-001,7.482993e-002,9.500000e+001,5.000000e+000,2.021516e+000,1.177752e-001,-6.576073e+000,7.844384e+000,1.033194e+002,1.132680e+001,-9.647478e-001,4.044018e+000,-3.987320e+000,4.118803e+000,1.002492e+001,8.106123e+000,5.906120e+000,1.401224e+001,-3.162582e+001,2.083432e+001,5.246014e+001,2.993197e-001,6.122449e-002,1.190000e+002,7.000000e+000,3.256291e+000,1.286318e-001,-6.133829e+000,7.089158e+000,7.935544e+001,1.044746e+001,-2.091538e-001,3.241391e+000,-4.264747e+000,4.567382e+000,1.000634e+001,8.832129e+000,5.438961e+000,1.427109e+001,-2.389327e+001,2.849597e+001,5.238924e+001,5.442177e-002,2.040816e-002,5.500000e+001,2.800000e+001,-1.215882e+001,-1.623728e-002,-1.097350e+001,1.264872e+001,2.539471e+002,1.595061e+001,-7.577397e-001,3.026113e+000,-1.883712e+001,-9.260457e+000,-9.077870e-001,9.576659e+000,8.352670e+000,1.792933e+001,-5.522114e+001,1.145469e+001,6.667583e+001,3.469388e-001,1.020408e-001,1.100000e+001,4.900000e+001,4.387901e+000,-8.073243e-002,1.028137e+001,1.201109e+001,2.396559e+002,1.585535e+001,-1.014457e-001,2.490455e+000,-4.793498e+000,3.201767e+000,1.680486e+001,7.995264e+000,1.360309e+001,2.159835e+001,-3.043898e+001,3.272761e+001,6.316659e+001,2.244898e-001,4.761905e-002,1.060000e+002,6.400000e+001,-1.917302e+001,-4.335805e-002,-1.600788e+001,1.053230e+001,1.642914e+002,1.294900e+001,-2.868454e-001,2.222957e+000,-2.884969e+001,-1.701576e+001,-7.828227e+000,1.183393e+001,9.187533e+000,2.102146e+001,-4.665067e+001,3.936809e+000,5.058748e+001,2.517007e-001,4.081633e-002,5.400000e+001,9.000000e+001,2.977788e+000,-9.789119e-003,3.692394e+000,1.141692e+001,2.081758e+002,1.443428e+001,9.217047e-002,2.721231e+000,-5.847839e+000,2.148501e+000,1.128132e+001,7.996341e+000,9.132815e+000,1.712916e+001,-2.853749e+001,3.595709e+001,6.449458e+001,1.292517e-001,2.040816e-002,8.100000e+001,5.100000e+001,-6.056382e+000,2.316810e-002,-7.747653e+000,9.507221e+000,1.455105e+002,1.210277e+001,-6.427849e-002,2.543187e+000,-1.208814e+001,-5.452748e+000,1.717791e+000,6.635391e+000,7.170539e+000,1.380593e+001,-3.033999e+001,1.979891e+001,5.013890e+001,1.224490e-001,4.081633e-002,8.700000e+001,9.400000e+001,-5.229778e+000,-2.395988e-002,-3.480707e+000,9.877243e+000,1.344599e+002,1.164017e+001,-1.312240e-001,2.063558e+000,-1.511686e+001,-3.851892e+000,4.466221e+000,1.126497e+001,8.318113e+000,1.958308e+001,-2.914653e+001,1.568404e+001,4.483057e+001,2.244898e-001,5.442177e-002,1.100000e+002,5.600000e+001,6.879488e+000,6.605122e-002,2.057749e+000,8.736515e+000,1.268634e+002,1.160686e+001,6.855190e-001,3.041212e+000,-5.233674e-001,4.746153e+000,1.125516e+001,5.269521e+000,6.509004e+000,1.177852e+001,-1.533324e+001,3.488375e+001,5.021699e+001,1.428571e-001,4.761905e-002,1.260000e+002,3.300000e+001,-1.029775e+001,1.268047e-001,-1.955449e+001,7.711449e+000,8.630862e+001,1.073603e+001,-4.590368e-001,2.406131e+000,-1.804425e+001,-8.487026e+000,-1.687963e+000,9.557220e+000,6.799063e+000,1.635628e+001,-3.520629e+001,7.461064e+000,4.266735e+001,2.925170e-001,6.802721e-002,2.700000e+001,8.800000e+001,4.091760e+000,2.599223e-002,2.194327e+000,4.884011e+000,4.118922e+001,6.511970e+000,3.882090e-001,3.757245e+000,-2.221945e-001,4.072049e+000,7.809892e+000,4.294244e+000,3.737843e+000,8.032086e+000,-1.096837e+001,2.283820e+001,3.380657e+001,5.442177e-002,2.721088e-002,7.100000e+001,5.100000e+001,-1.518453e+000,-1.286498e-002,-5.793093e-001,6.214119e+000,7.400928e+001,8.620169e+000,1.908078e-001,3.907525e+000,-6.415995e+000,-1.741687e+000,2.457975e+000,4.674307e+000,4.199662e+000,8.873969e+000,-2.257634e+001,2.136472e+001,4.394106e+001,8.163265e-002,2.721088e-002,1.330000e+002,5.500000e+001,-2.557304e+000,3.474854e-002,-5.093947e+000,4.640134e+000,3.182205e+001,5.830633e+000,-3.154969e-001,2.708638e+000,-6.563906e+000,-1.957910e+000,1.843650e+000,4.605996e+000,3.801560e+000,8.407557e+000,-1.676007e+001,9.015379e+000,2.577545e+001,1.768707e-001,2.721088e-002,1.010000e+002,1.370000e+002,-3.585012e+000,-3.100816e-003,-3.358653e+000,2.580131e+000,7.782062e+000,2.792736e+000,-2.126410e-001,1.390447e+000,-6.785561e+000,-2.983172e+000,-8.496011e-001,3.802389e+000,2.133571e+000,5.935960e+000,-7.906568e+000,7.759529e-002,7.984163e+000,4.285714e-001,1.904762e-001,3.000000e+001,0.000000e+000,-3.152063e+000,-4.650679e-003,-2.812563e+000,2.920257e+000,1.017931e+001,3.196601e+000,-3.636527e-002,1.511343e+000,-6.445958e+000,-2.660247e+000,-3.344151e-001,3.785712e+000,2.325831e+000,6.111543e+000,-8.142830e+000,2.188504e+000,1.033133e+001,2.517007e-001,4.761905e-002,6.000000e+000,1.260000e+002,-3.719774e+000,-2.016523e-002,-2.247712e+000,2.601374e+000,8.907477e+000,3.104786e+000,2.613273e-001,2.223330e+000,-6.295740e+000,-3.722989e+000,-1.479549e+000,2.572751e+000,2.243440e+000,4.816192e+000,-8.617036e+000,3.240775e+000,1.185781e+001,8.163265e-002,2.040816e-002,6.000000e+000,0.000000e+000,-3.459952e+000,-2.508200e-002,-1.628966e+000,2.140009e+000,6.510880e+000,2.764723e+000,5.076268e-001,2.939684e+000,-5.605845e+000,-3.887913e+000,-1.613121e+000,1.717932e+000,2.274793e+000,3.992724e+000,-7.961933e+000,3.847461e+000,1.180939e+001,6.802721e-002,2.040816e-002,6.000000e+000,0.000000e+000,-3.340498e+000,-1.793936e-002,-2.030925e+000,1.922708e+000,5.143483e+000,2.392274e+000,4.668863e-001,2.499377e+000,-5.067434e+000,-3.801028e+000,-1.534107e+000,1.266406e+000,2.266921e+000,3.533327e+000,-7.122515e+000,2.397217e+000,9.519732e+000,8.163265e-002,2.040816e-002,6.600000e+001,1.300000e+002,-3.067188e+000,-1.259793e-002,-2.147539e+000,1.811752e+000,4.575653e+000,2.204866e+000,3.698314e-002,2.263484e+000,-4.622276e+000,-3.186003e+000,-1.522343e+000,1.436274e+000,1.663659e+000,3.099933e+000,-6.933456e+000,1.534060e+000,8.467516e+000,1.292517e-001,5.442177e-002,8.200000e+001,1.300000e+002,-2.279915e+000,-9.643690e-003,-1.575926e+000,1.609942e+000,4.359192e+000,2.127594e+000,-3.618420e-001,2.996648e+000,-3.056544e+000,-2.066928e+000,-1.125283e+000,9.896166e-001,9.416443e-001,1.931261e+000,-6.656230e+000,2.232037e+000,8.888268e+000,9.523810e-002,5.442177e-002,8.200000e+001,1.360000e+002,-1.369907e+000,-1.171892e-002,-5.144259e-001,1.754845e+000,5.034055e+000,2.298118e+000,-5.236613e-001,2.774364e+000,-2.672183e+000,-1.167562e+000,1.688824e-001,1.504621e+000,1.336444e+000,2.841066e+000,-6.267598e+000,2.765819e+000,9.033417e+000,1.836735e-001,6.802721e-002,8.400000e+001,1.270000e+002,2.738018e-001,-1.025308e-003,3.486493e-001,7.340261e-002,9.319440e-003,1.058886e-001,8.469324e-001,4.021655e+000,2.042805e-001,2.633329e-001,3.361075e-001,5.905236e-002,7.277465e-002,1.318270e-001,8.782388e-002,5.937160e-001,5.058922e-001,5.442177e-002,2.040816e-002,8.200000e+001,9.400000e+001,5.846479e-001,-8.279321e-004,6.450869e-001,1.367982e-001,2.703594e-002,1.681376e-001,5.519825e-001,2.487227e+000,4.209224e-001,5.795435e-001,6.905724e-001,1.586211e-001,1.110289e-001,2.696500e-001,3.590312e-001,9.933754e-001,6.343442e-001,7.482993e-002,3.401361e-002,1.200000e+002,2.600000e+001,9.571997e-001,8.174205e-004,8.975280e-001,1.603196e-001,3.992552e-002,2.028021e-001,-3.816000e-001,2.409519e+000,7.959932e-001,9.957645e-001,1.086419e+000,1.997713e-001,9.065413e-002,2.904254e-001,5.326973e-001,1.331529e+000,7.988320e-001,1.700680e-001,5.442177e-002,8.200000e+001,1.050000e+002,1.191871e+000,6.409024e-004,1.145086e+000,1.495420e-001,3.796840e-002,1.967436e-001,2.367045e-001,3.076859e+000,1.054984e+000,1.207273e+000,1.292495e+000,1.522884e-001,8.522201e-002,2.375104e-001,8.140891e-001,1.693345e+000,8.792558e-001,7.482993e-002,3.401361e-002,8.100000e+001,3.400000e+001,1.633581e+000,2.586921e-004,1.614696e+000,9.507822e-002,1.658797e-002,1.292613e-001,1.185930e+000,4.959566e+000,1.537791e+000,1.619735e+000,1.691123e+000,8.194375e-002,7.138801e-002,1.533318e-001,1.435543e+000,2.055337e+000,6.197934e-001,4.761905e-002,2.040816e-002,8.000000e+001,3.400000e+001,1.813030e+000,6.462318e-004,1.765855e+000,9.839237e-002,1.545069e-002,1.272897e-001,3.487836e-001,3.275087e+000,1.729341e+000,1.810556e+000,1.895859e+000,8.121479e-002,8.530307e-002,1.665179e-001,1.563841e+000,2.156047e+000,5.922060e-001,5.442177e-002,3.401361e-002,9.800000e+001,3.400000e+001,2.248741e+000,2.181399e-004,2.232817e+000,4.572400e-002,3.270750e-003,5.793472e-002,-7.367140e-001,3.885490e+000,2.216281e+000,2.253478e+000,2.293788e+000,3.719735e-002,4.030991e-002,7.750726e-002,2.080727e+000,2.354319e+000,2.735920e-001,3.401361e-001,6.122449e-002,9.800000e+001,1.460000e+002,2.307845e+000,5.753536e-005,2.303645e+000,3.203062e-002,1.470338e-003,3.842263e-002,-4.158204e-001,2.277354e+000,2.281088e+000,2.313760e+000,2.336461e+000,3.267121e-002,2.270103e-002,5.537224e-002,2.223631e+000,2.372673e+000,1.490412e-001,2.380952e-001,6.802721e-002,5.100000e+001,0.000000e+000,1.663543e+002,-1.587726e-001,1.779447e+002,2.383865e+001,1.231157e+003,3.572883e+001,-2.184342e+000,1.056561e+001,1.368142e+002,1.707106e+002,1.937918e+002,3.389636e+001,2.308127e+001,5.697763e+001,0.000000e+000,2.047350e+002,2.047350e+002,6.666667e-001,4.353741e-001,2.700000e+001,0.000000e+000,4.982868e-001,-9.474144e-006,4.989785e-001,2.274928e-001,6.502719e-002,2.550046e-001,-2.845238e-001,1.718227e+000,2.813252e-001,4.916792e-001,7.607993e-001,2.103540e-001,2.691202e-001,4.794742e-001,0.000000e+000,8.134184e-001,8.134184e-001,4.285714e-001,3.469388e-001,6.000000e+000,3.600000e+001,2.177487e-003,-1.268623e-004,1.143843e-002,7.307147e-002,9.483924e-003,9.753411e-002,2.546043e-001,4.944788e+000,-5.086906e-002,-7.676393e-003,5.423359e-002,4.319267e-002,6.190998e-002,1.051027e-001,-2.398330e-001,2.490866e-001,4.889196e-001,1.360544e-002,6.802721e-003,4.000000e+000,4.000000e+001,1.603746e-001,-9.249151e-003,8.355626e-001,3.087146e+000,1.775037e+001,4.231361e+000,9.845303e-001,4.738694e+000,-2.825557e+000,-3.221264e-001,2.053516e+000,2.503431e+000,2.375643e+000,4.879073e+000,-7.486400e+000,1.291139e+001,2.039779e+001,3.401361e-002,1.360544e-002,8.800000e+001,7.600000e+001,1.064989e-001,2.323407e-003,-6.310979e-002,2.886836e+000,1.391056e+001,3.730989e+000,4.960558e-001,3.484152e+000,-2.479684e+000,7.441244e-002,2.143301e+000,2.554096e+000,2.068889e+000,4.622985e+000,-7.554222e+000,1.048639e+001,1.804061e+001,5.442177e-002,2.721088e-002,8.000000e+000,3.000000e+000,1.277736e-002,1.861572e-003,-1.231174e-001,2.746799e+000,1.268751e+001,3.562829e+000,-1.824921e-001,3.471604e+000,-2.123229e+000,-2.513516e-002,2.370198e+000,2.098094e+000,2.395333e+000,4.493427e+000,-8.980419e+000,8.547272e+000,1.752769e+001,9.523810e-002,2.040816e-002,1.130000e+002,4.000000e+000,2.592735e-003,1.457268e-003,-1.037878e-001,1.915087e+000,6.351667e+000,2.521010e+000,-1.671950e-001,3.882298e+000,-1.391476e+000,1.004893e-001,1.486431e+000,1.491965e+000,1.385942e+000,2.877907e+000,-6.719324e+000,6.228541e+000,1.294787e+001,8.843537e-002,2.040816e-002,3.200000e+001,2.500000e+001,-1.191727e-001,4.094486e-003,-4.180702e-001,2.665753e+000,1.249951e+001,3.539731e+000,2.433790e-001,3.995941e+000,-2.282358e+000,-4.469833e-001,1.942219e+000,1.835374e+000,2.389203e+000,4.224577e+000,-9.470733e+000,9.370596e+000,1.884133e+001,8.163265e-002,4.081633e-002,5.200000e+001,4.700000e+001,-1.760565e-002,-1.589476e-003,9.842607e-002,3.325806e+000,1.693326e+001,4.115557e+000,1.992422e-002,2.633185e+000,-2.709304e+000,-1.678539e-001,2.954358e+000,2.541450e+000,3.122211e+000,5.663661e+000,-8.871182e+000,8.886303e+000,1.775748e+001,1.292517e-001,4.081633e-002,1.180000e+002,6.200000e+001,-1.912077e-001,2.793892e-003,-3.951618e-001,2.582481e+000,1.051031e+001,3.244128e+000,-5.060494e-001,2.904711e+000,-2.172618e+000,2.715046e-001,2.116550e+000,2.444123e+000,1.845046e+000,4.289169e+000,-8.343234e+000,5.841454e+000,1.418469e+001,2.380952e-001,2.721088e-002,9.300000e+001,9.800000e+001,5.492588e-002,4.469158e-003,-2.713226e-001,3.190394e+000,1.435526e+001,3.793577e+000,2.149832e-001,2.175849e+000,-3.038849e+000,-2.187824e-001,3.255684e+000,2.820067e+000,3.474466e+000,6.294533e+000,-7.267439e+000,7.629373e+000,1.489681e+001,1.428571e-001,4.081633e-002,5.400000e+001,1.160000e+002,1.588813e-002,6.823813e-003,-4.822502e-001,3.058363e+000,1.555608e+001,3.954735e+000,2.197852e-001,3.309325e+000,-2.704071e+000,1.467704e-001,2.284897e+000,2.850841e+000,2.138127e+000,4.988968e+000,-8.680393e+000,9.844070e+000,1.852446e+001,4.081633e-002,6.802721e-003,1.190000e+002,8.900000e+001,-3.087759e-002,4.260972e-003,-3.419285e-001,3.067041e+000,1.424198e+001,3.778184e+000,-3.353496e-001,2.777464e+000,-2.652191e+000,5.517030e-001,2.834641e+000,3.203894e+000,2.282938e+000,5.486833e+000,-9.146977e+000,7.229397e+000,1.637637e+001,2.176871e-001,4.761905e-002,9.700000e+001,1.010000e+002,3.644263e-002,-9.869437e-004,1.084895e-001,2.866556e+000,1.260755e+001,3.550958e+000,2.688296e-001,2.800438e+000,-2.796199e+000,1.773482e-001,2.126874e+000,2.973547e+000,1.949526e+000,4.923073e+000,-6.497804e+000,8.283404e+000,1.478121e+001,6.802721e-002,1.360544e-002,3.500000e+001,3.000000e+000,-1.007973e-001,5.128932e-003,-4.752094e-001,2.459131e+000,9.720594e+000,3.125374e+000,-1.817244e-002,3.268924e+000,-1.916130e+000,-1.303854e-001,2.136944e+000,1.785745e+000,2.267329e+000,4.053074e+000,-7.394666e+000,7.274701e+000,1.466937e+001,2.721088e-002,1.360544e-002,9.100000e+001,2.900000e+001,-5.887651e-002,-1.856963e-003,7.668178e-002,2.018723e+000,6.582971e+000,2.566940e+000,-1.895829e-001,3.265134e+000,-1.697786e+000,1.681914e-001,1.621784e+000,1.865977e+000,1.453593e+000,3.319571e+000,-6.674799e+000,5.498676e+000,1.217348e+001,1.632653e-001,5.442177e-002,9.000000e+001,7.300000e+001,-7.127951e-002,-5.738555e-005,-6.709036e-002,2.068459e+000,7.051882e+000,2.655539e+000,-4.701118e-001,3.522397e+000,-1.576214e+000,-1.357885e-001,1.867121e+000,1.440425e+000,2.002909e+000,3.443335e+000,-7.738250e+000,5.115451e+000,1.285370e+001,2.108843e-001,2.721088e-002,5.700000e+001,8.900000e+001,-3.150740e-002,1.041207e-003,-1.075155e-001,1.721338e+000,4.444299e+000,2.108614e+000,1.173797e-001,2.388206e+000,-1.605826e+000,5.162416e-002,1.393598e+000,1.657450e+000,1.341974e+000,2.999424e+000,-4.160013e+000,4.532140e+000,8.692153e+000,1.156463e-001,1.360544e-002,6.200000e+001,1.200000e+001,3.223632e-002,-1.091113e-003,1.118876e-001,5.582414e-001,5.707854e-001,7.569209e-001,4.360934e-001,2.987633e+000,-3.438549e-001,-3.596916e-002,3.687524e-001,3.078857e-001,4.047215e-001,7.126073e-001,-1.521055e+000,1.756305e+000,3.277360e+000,1.224490e-001,4.761905e-002,4.000000e+000,4.100000e+001,3.800461e-002,-1.262567e-003,1.301720e-001,6.406406e-001,6.829181e-001,8.281235e-001,5.401747e-001,2.933280e+000,-4.789985e-001,-7.051768e-002,4.305467e-001,4.084809e-001,5.010644e-001,9.095452e-001,-1.458700e+000,2.111041e+000,3.569741e+000,1.088435e-001,2.040816e-002,4.000000e+000,4.000000e+001,3.295235e-002,-1.197540e-003,1.203728e-001,6.062950e-001,6.428204e-001,8.033696e-001,9.963439e-001,4.995769e+000,-5.053078e-001,-1.714189e-002,3.887479e-001,4.881659e-001,4.058897e-001,8.940557e-001,-1.439074e+000,2.629604e+000,4.068678e+000,2.040816e-002,1.360544e-002,4.000000e+000,4.000000e+001,2.105402e-002,-1.649978e-003,1.415024e-001,5.501738e-001,5.662660e-001,7.557567e-001,1.195015e+000,6.301353e+000,-4.491503e-001,-5.733533e-002,3.579261e-001,3.918149e-001,4.152614e-001,8.070763e-001,-1.318964e+000,2.640050e+000,3.959014e+000,1.360544e-002,1.360544e-002,4.000000e+000,4.000000e+001,2.173490e-002,-1.285030e-003,1.155421e-001,5.815424e-001,5.764213e-001,7.611798e-001,7.563965e-001,3.947950e+000,-5.115385e-001,-1.928144e-002,3.882008e-001,4.922571e-001,4.074822e-001,8.997393e-001,-1.370600e+000,2.305362e+000,3.675962e+000,3.401361e-002,1.360544e-002,3.000000e+000,4.000000e+001,1.670642e-002,-1.472728e-003,1.242156e-001,5.644578e-001,5.056978e-001,7.138650e-001,6.207641e-001,3.237275e+000,-5.255132e-001,-2.954211e-002,4.643157e-001,4.959711e-001,4.938578e-001,9.898288e-001,-1.158795e+000,2.023532e+000,3.182327e+000,6.122449e-002,1.360544e-002,3.000000e+000,4.000000e+001,1.779054e-002,-1.638678e-003,1.374140e-001,4.965294e-001,4.247083e-001,6.553957e-001,7.922864e-001,3.985464e+000,-3.861462e-001,-4.198895e-002,3.272674e-001,3.441573e-001,3.692563e-001,7.134136e-001,-1.169169e+000,1.907834e+000,3.077003e+000,3.401361e-002,1.360544e-002,3.000000e+000,1.250000e+002,2.494586e-002,-1.634167e-003,1.442400e-001,5.257480e-001,4.846283e-001,6.995977e-001,6.242591e-001,3.893249e+000,-4.422646e-001,3.589308e-003,3.490322e-001,4.458539e-001,3.454429e-001,7.912968e-001,-1.375057e+000,2.088139e+000,3.463197e+000,6.122449e-002,2.040816e-002,3.000000e+000,8.800000e+001,1.060675e-003,-5.396295e-005,4.999971e-003,2.289950e-002,1.030055e-003,3.217606e-002,1.255863e-001,4.685976e+000,-1.398297e-002,1.411602e-003,1.553981e-002,1.539457e-002,1.412821e-002,2.952278e-002,-8.223110e-002,9.249914e-002,1.747302e-001,4.761905e-002,1.360544e-002,5.400000e+001,4.700000e+001,-1.571953e-003,-3.409954e-005,9.173128e-004,3.687581e-002,2.434392e-003,4.936077e-002,-1.351881e-001,3.228007e+000,-2.648641e-002,1.522082e-003,2.190209e-002,2.800849e-002,2.038001e-002,4.838850e-002,-1.193210e-001,1.074847e-001,2.268057e-001,1.020408e-001,1.360544e-002,1.130000e+002,2.400000e+001,-7.066567e-004,2.289594e-006,-8.737970e-004,3.310236e-002,1.867006e-003,4.320898e-002,-5.252641e-001,3.809205e+000,-2.778200e-002,2.448922e-003,2.836428e-002,3.023093e-002,2.591536e-002,5.614629e-002,-1.272746e-001,9.519617e-002,2.224707e-001,1.292517e-001,2.040816e-002,7.500000e+001,8.700000e+001,-8.156013e-004,1.201961e-005,-1.693033e-003,3.591980e-002,2.079996e-003,4.560982e-002,-5.049745e-001,3.129623e+000,-2.671657e-002,3.242850e-003,3.370079e-002,2.995942e-002,3.045794e-002,6.041735e-002,-1.235275e-001,8.426187e-002,2.077894e-001,2.244898e-001,4.081633e-002,7.600000e+001,1.410000e+002,-1.033993e-003,-5.201154e-005,2.762849e-003,2.346728e-002,8.455943e-004,2.916274e-002,1.880517e-001,2.599861e+000,-2.364628e-002,4.779220e-004,1.804895e-002,2.412421e-002,1.757103e-002,4.169524e-002,-5.460563e-002,7.072672e-002,1.253324e-001,7.482993e-002,2.040816e-002,4.100000e+001,6.200000e+001,-4.588313e-004,5.471478e-006,-8.582493e-004,2.422438e-002,9.404471e-004,3.066759e-002,1.107073e-001,2.826508e+000,-1.911251e-002,-5.112982e-003,1.899123e-002,1.399953e-002,2.410421e-002,3.810374e-002,-7.481271e-002,6.402850e-002,1.388412e-001,1.768707e-001,5.442177e-002,3.600000e+001,3.200000e+001,-9.883688e-005,-4.805126e-005,3.408905e-003,1.494434e-002,3.648782e-004,1.921031e-002,-2.731751e-001,3.310078e+000,-1.079936e-002,3.475189e-004,1.272601e-002,1.114688e-002,1.237849e-002,2.352537e-002,-4.767830e-002,4.015909e-002,8.783740e-002,1.292517e-001,4.081633e-002,1.300000e+001,1.000000e+002,-1.625776e-004,-3.867547e-005,2.660732e-003,9.189157e-003,1.387192e-004,1.189170e-002,-3.477956e-001,3.265042e+000,-6.017661e-003,-2.360582e-004,7.599604e-003,5.781603e-003,7.835663e-003,1.361727e-002,-3.094392e-002,2.343990e-002,5.438382e-002,1.564626e-001,4.081633e-002,3.000000e+000,9.600000e+001,9.307088e-001,-5.439498e-002,4.901542e+000,2.996129e+000,3.619886e+001,6.444121e+000,5.524043e+000,3.533162e+001,-1.616180e-001,0.000000e+000,0.000000e+000,1.616180e-001,0.000000e+000,1.616180e-001,-4.443762e+000,3.756022e+001,4.200398e+001,1.360544e-002,1.360544e-002,4.600000e+001,3.400000e+001,3.115932e-003,-1.275525e-004,1.242726e-002,5.629303e-002,5.983405e-003,7.754161e-002,4.382742e-001,3.505837e+000,-4.467598e-002,-3.238284e-003,3.413251e-002,4.143770e-002,3.737079e-002,7.880849e-002,-1.624159e-001,2.019189e-001,3.643348e-001,1.156463e-001,4.761905e-002,1.900000e+001,5.500000e+001,1.347867e+002,-2.490174e-001,1.416347e+002,3.912881e+001,2.233548e+003,4.743151e+001,-3.594639e-001,2.067742e+000,1.092520e+002,1.402717e+002,1.790117e+002,3.101969e+001,3.873999e+001,6.975968e+001,2.141438e+002,2.678571e-001,3.571429e-002,8.000000e+000,3.200000e+001,1.696859e-002,-5.676261e-004,3.257831e-002,1.133842e-002,2.621334e-004,1.860935e-002,2.064568e+000,6.864437e+000,6.495251e-003,9.351722e-003,1.737679e-002,2.856471e-003,8.025072e-003,1.088154e-002,8.286680e-002,3.571429e-002,3.571429e-002,1.700000e+001,5.000000e+001,1.440184e-002,-3.649825e-004,2.352640e-002,1.027020e-002,3.677369e-004,1.991481e-002,3.294977e+000,1.362266e+001,5.170766e-003,8.813095e-003,1.238945e-002,3.642329e-003,3.576354e-003,7.218683e-003,9.907144e-002,3.921569e-002,3.921569e-002,2.000000e+000,3.300000e+001,1.811356e-001,-3.506121e-003,2.775539e-001,1.024474e-001,1.687962e-002,1.417432e-001,1.071232e+000,3.310803e+000,6.465899e-002,1.320290e-001,2.534040e-001,6.736996e-002,1.213751e-001,1.887450e-001,5.611387e-001,7.142857e-002,3.571429e-002,2.700000e+001,3.100000e+001,1.509468e-008,-1.984346e-001,7.540514e+000,2.325357e+001,8.590082e+002,2.963883e+001,1.064088e-002,2.268825e+000,-2.224376e+001,-1.735937e+000,2.075756e+001,2.050783e+001,2.249349e+001,4.300132e+001,5.708150e+001,2.207792e-001,7.792208e-002,1.200000e+001,1.500000e+001,4.271082e-011,-2.498136e-005,9.492919e-004,4.952948e-003,5.722444e-005,7.585033e-003,3.229309e-001,5.283918e+000,-2.258452e-003,-6.539911e-004,2.322804e-003,1.604461e-003,2.976795e-003,4.581256e-003,2.243463e-002,5.194805e-002,2.597403e-002,2.500000e+001,2.800000e+001,4.011882e-011,-2.350850e-005,8.345518e-004,4.090030e-003,5.725678e-005,7.582577e-003,1.441712e-001,1.019059e+001,-1.572581e-003,-5.988142e-004,1.745314e-003,9.737670e-004,2.344129e-003,3.317896e-003,2.713898e-002,2.777778e-002,2.777778e-002,2.000000e+000,6.000000e+000,2.335866e-010,-2.666700e-004,1.013346e-002,4.800611e-002,3.889415e-003,6.264619e-002,3.821241e-001,3.029846e+000,-3.508479e-002,-4.722557e-003,3.592019e-002,3.036223e-002,4.064275e-002,7.100499e-002,1.477955e-001,9.090909e-002,3.896104e-002,6.000000e+000,1.490000e+000,0.0
