@relation SMILEfeatures

@attribute name string
@attribute pcm_loudness_sma_maxPos numeric
@attribute pcm_loudness_sma_minPos numeric
@attribute pcm_loudness_sma_amean numeric
@attribute pcm_loudness_sma_linregc1 numeric
@attribute pcm_loudness_sma_linregc2 numeric
@attribute pcm_loudness_sma_linregerrA numeric
@attribute pcm_loudness_sma_linregerrQ numeric
@attribute pcm_loudness_sma_stddev numeric
@attribute pcm_loudness_sma_skewness numeric
@attribute pcm_loudness_sma_kurtosis numeric
@attribute pcm_loudness_sma_quartile1 numeric
@attribute pcm_loudness_sma_quartile2 numeric
@attribute pcm_loudness_sma_quartile3 numeric
@attribute pcm_loudness_sma_iqr1-2 numeric
@attribute pcm_loudness_sma_iqr2-3 numeric
@attribute pcm_loudness_sma_iqr1-3 numeric
@attribute pcm_loudness_sma_percentile1.0 numeric
@attribute pcm_loudness_sma_percentile99.0 numeric
@attribute pcm_loudness_sma_pctlrange0-1 numeric
@attribute pcm_loudness_sma_upleveltime75 numeric
@attribute pcm_loudness_sma_upleveltime90 numeric
@attribute mfcc_sma[0]_maxPos numeric
@attribute mfcc_sma[0]_minPos numeric
@attribute mfcc_sma[0]_amean numeric
@attribute mfcc_sma[0]_linregc1 numeric
@attribute mfcc_sma[0]_linregc2 numeric
@attribute mfcc_sma[0]_linregerrA numeric
@attribute mfcc_sma[0]_linregerrQ numeric
@attribute mfcc_sma[0]_stddev numeric
@attribute mfcc_sma[0]_skewness numeric
@attribute mfcc_sma[0]_kurtosis numeric
@attribute mfcc_sma[0]_quartile1 numeric
@attribute mfcc_sma[0]_quartile2 numeric
@attribute mfcc_sma[0]_quartile3 numeric
@attribute mfcc_sma[0]_iqr1-2 numeric
@attribute mfcc_sma[0]_iqr2-3 numeric
@attribute mfcc_sma[0]_iqr1-3 numeric
@attribute mfcc_sma[0]_percentile1.0 numeric
@attribute mfcc_sma[0]_percentile99.0 numeric
@attribute mfcc_sma[0]_pctlrange0-1 numeric
@attribute mfcc_sma[0]_upleveltime75 numeric
@attribute mfcc_sma[0]_upleveltime90 numeric
@attribute mfcc_sma[1]_maxPos numeric
@attribute mfcc_sma[1]_minPos numeric
@attribute mfcc_sma[1]_amean numeric
@attribute mfcc_sma[1]_linregc1 numeric
@attribute mfcc_sma[1]_linregc2 numeric
@attribute mfcc_sma[1]_linregerrA numeric
@attribute mfcc_sma[1]_linregerrQ numeric
@attribute mfcc_sma[1]_stddev numeric
@attribute mfcc_sma[1]_skewness numeric
@attribute mfcc_sma[1]_kurtosis numeric
@attribute mfcc_sma[1]_quartile1 numeric
@attribute mfcc_sma[1]_quartile2 numeric
@attribute mfcc_sma[1]_quartile3 numeric
@attribute mfcc_sma[1]_iqr1-2 numeric
@attribute mfcc_sma[1]_iqr2-3 numeric
@attribute mfcc_sma[1]_iqr1-3 numeric
@attribute mfcc_sma[1]_percentile1.0 numeric
@attribute mfcc_sma[1]_percentile99.0 numeric
@attribute mfcc_sma[1]_pctlrange0-1 numeric
@attribute mfcc_sma[1]_upleveltime75 numeric
@attribute mfcc_sma[1]_upleveltime90 numeric
@attribute mfcc_sma[2]_maxPos numeric
@attribute mfcc_sma[2]_minPos numeric
@attribute mfcc_sma[2]_amean numeric
@attribute mfcc_sma[2]_linregc1 numeric
@attribute mfcc_sma[2]_linregc2 numeric
@attribute mfcc_sma[2]_linregerrA numeric
@attribute mfcc_sma[2]_linregerrQ numeric
@attribute mfcc_sma[2]_stddev numeric
@attribute mfcc_sma[2]_skewness numeric
@attribute mfcc_sma[2]_kurtosis numeric
@attribute mfcc_sma[2]_quartile1 numeric
@attribute mfcc_sma[2]_quartile2 numeric
@attribute mfcc_sma[2]_quartile3 numeric
@attribute mfcc_sma[2]_iqr1-2 numeric
@attribute mfcc_sma[2]_iqr2-3 numeric
@attribute mfcc_sma[2]_iqr1-3 numeric
@attribute mfcc_sma[2]_percentile1.0 numeric
@attribute mfcc_sma[2]_percentile99.0 numeric
@attribute mfcc_sma[2]_pctlrange0-1 numeric
@attribute mfcc_sma[2]_upleveltime75 numeric
@attribute mfcc_sma[2]_upleveltime90 numeric
@attribute mfcc_sma[3]_maxPos numeric
@attribute mfcc_sma[3]_minPos numeric
@attribute mfcc_sma[3]_amean numeric
@attribute mfcc_sma[3]_linregc1 numeric
@attribute mfcc_sma[3]_linregc2 numeric
@attribute mfcc_sma[3]_linregerrA numeric
@attribute mfcc_sma[3]_linregerrQ numeric
@attribute mfcc_sma[3]_stddev numeric
@attribute mfcc_sma[3]_skewness numeric
@attribute mfcc_sma[3]_kurtosis numeric
@attribute mfcc_sma[3]_quartile1 numeric
@attribute mfcc_sma[3]_quartile2 numeric
@attribute mfcc_sma[3]_quartile3 numeric
@attribute mfcc_sma[3]_iqr1-2 numeric
@attribute mfcc_sma[3]_iqr2-3 numeric
@attribute mfcc_sma[3]_iqr1-3 numeric
@attribute mfcc_sma[3]_percentile1.0 numeric
@attribute mfcc_sma[3]_percentile99.0 numeric
@attribute mfcc_sma[3]_pctlrange0-1 numeric
@attribute mfcc_sma[3]_upleveltime75 numeric
@attribute mfcc_sma[3]_upleveltime90 numeric
@attribute mfcc_sma[4]_maxPos numeric
@attribute mfcc_sma[4]_minPos numeric
@attribute mfcc_sma[4]_amean numeric
@attribute mfcc_sma[4]_linregc1 numeric
@attribute mfcc_sma[4]_linregc2 numeric
@attribute mfcc_sma[4]_linregerrA numeric
@attribute mfcc_sma[4]_linregerrQ numeric
@attribute mfcc_sma[4]_stddev numeric
@attribute mfcc_sma[4]_skewness numeric
@attribute mfcc_sma[4]_kurtosis numeric
@attribute mfcc_sma[4]_quartile1 numeric
@attribute mfcc_sma[4]_quartile2 numeric
@attribute mfcc_sma[4]_quartile3 numeric
@attribute mfcc_sma[4]_iqr1-2 numeric
@attribute mfcc_sma[4]_iqr2-3 numeric
@attribute mfcc_sma[4]_iqr1-3 numeric
@attribute mfcc_sma[4]_percentile1.0 numeric
@attribute mfcc_sma[4]_percentile99.0 numeric
@attribute mfcc_sma[4]_pctlrange0-1 numeric
@attribute mfcc_sma[4]_upleveltime75 numeric
@attribute mfcc_sma[4]_upleveltime90 numeric
@attribute mfcc_sma[5]_maxPos numeric
@attribute mfcc_sma[5]_minPos numeric
@attribute mfcc_sma[5]_amean numeric
@attribute mfcc_sma[5]_linregc1 numeric
@attribute mfcc_sma[5]_linregc2 numeric
@attribute mfcc_sma[5]_linregerrA numeric
@attribute mfcc_sma[5]_linregerrQ numeric
@attribute mfcc_sma[5]_stddev numeric
@attribute mfcc_sma[5]_skewness numeric
@attribute mfcc_sma[5]_kurtosis numeric
@attribute mfcc_sma[5]_quartile1 numeric
@attribute mfcc_sma[5]_quartile2 numeric
@attribute mfcc_sma[5]_quartile3 numeric
@attribute mfcc_sma[5]_iqr1-2 numeric
@attribute mfcc_sma[5]_iqr2-3 numeric
@attribute mfcc_sma[5]_iqr1-3 numeric
@attribute mfcc_sma[5]_percentile1.0 numeric
@attribute mfcc_sma[5]_percentile99.0 numeric
@attribute mfcc_sma[5]_pctlrange0-1 numeric
@attribute mfcc_sma[5]_upleveltime75 numeric
@attribute mfcc_sma[5]_upleveltime90 numeric
@attribute mfcc_sma[6]_maxPos numeric
@attribute mfcc_sma[6]_minPos numeric
@attribute mfcc_sma[6]_amean numeric
@attribute mfcc_sma[6]_linregc1 numeric
@attribute mfcc_sma[6]_linregc2 numeric
@attribute mfcc_sma[6]_linregerrA numeric
@attribute mfcc_sma[6]_linregerrQ numeric
@attribute mfcc_sma[6]_stddev numeric
@attribute mfcc_sma[6]_skewness numeric
@attribute mfcc_sma[6]_kurtosis numeric
@attribute mfcc_sma[6]_quartile1 numeric
@attribute mfcc_sma[6]_quartile2 numeric
@attribute mfcc_sma[6]_quartile3 numeric
@attribute mfcc_sma[6]_iqr1-2 numeric
@attribute mfcc_sma[6]_iqr2-3 numeric
@attribute mfcc_sma[6]_iqr1-3 numeric
@attribute mfcc_sma[6]_percentile1.0 numeric
@attribute mfcc_sma[6]_percentile99.0 numeric
@attribute mfcc_sma[6]_pctlrange0-1 numeric
@attribute mfcc_sma[6]_upleveltime75 numeric
@attribute mfcc_sma[6]_upleveltime90 numeric
@attribute mfcc_sma[7]_maxPos numeric
@attribute mfcc_sma[7]_minPos numeric
@attribute mfcc_sma[7]_amean numeric
@attribute mfcc_sma[7]_linregc1 numeric
@attribute mfcc_sma[7]_linregc2 numeric
@attribute mfcc_sma[7]_linregerrA numeric
@attribute mfcc_sma[7]_linregerrQ numeric
@attribute mfcc_sma[7]_stddev numeric
@attribute mfcc_sma[7]_skewness numeric
@attribute mfcc_sma[7]_kurtosis numeric
@attribute mfcc_sma[7]_quartile1 numeric
@attribute mfcc_sma[7]_quartile2 numeric
@attribute mfcc_sma[7]_quartile3 numeric
@attribute mfcc_sma[7]_iqr1-2 numeric
@attribute mfcc_sma[7]_iqr2-3 numeric
@attribute mfcc_sma[7]_iqr1-3 numeric
@attribute mfcc_sma[7]_percentile1.0 numeric
@attribute mfcc_sma[7]_percentile99.0 numeric
@attribute mfcc_sma[7]_pctlrange0-1 numeric
@attribute mfcc_sma[7]_upleveltime75 numeric
@attribute mfcc_sma[7]_upleveltime90 numeric
@attribute mfcc_sma[8]_maxPos numeric
@attribute mfcc_sma[8]_minPos numeric
@attribute mfcc_sma[8]_amean numeric
@attribute mfcc_sma[8]_linregc1 numeric
@attribute mfcc_sma[8]_linregc2 numeric
@attribute mfcc_sma[8]_linregerrA numeric
@attribute mfcc_sma[8]_linregerrQ numeric
@attribute mfcc_sma[8]_stddev numeric
@attribute mfcc_sma[8]_skewness numeric
@attribute mfcc_sma[8]_kurtosis numeric
@attribute mfcc_sma[8]_quartile1 numeric
@attribute mfcc_sma[8]_quartile2 numeric
@attribute mfcc_sma[8]_quartile3 numeric
@attribute mfcc_sma[8]_iqr1-2 numeric
@attribute mfcc_sma[8]_iqr2-3 numeric
@attribute mfcc_sma[8]_iqr1-3 numeric
@attribute mfcc_sma[8]_percentile1.0 numeric
@attribute mfcc_sma[8]_percentile99.0 numeric
@attribute mfcc_sma[8]_pctlrange0-1 numeric
@attribute mfcc_sma[8]_upleveltime75 numeric
@attribute mfcc_sma[8]_upleveltime90 numeric
@attribute mfcc_sma[9]_maxPos numeric
@attribute mfcc_sma[9]_minPos numeric
@attribute mfcc_sma[9]_amean numeric
@attribute mfcc_sma[9]_linregc1 numeric
@attribute mfcc_sma[9]_linregc2 numeric
@attribute mfcc_sma[9]_linregerrA numeric
@attribute mfcc_sma[9]_linregerrQ numeric
@attribute mfcc_sma[9]_stddev numeric
@attribute mfcc_sma[9]_skewness numeric
@attribute mfcc_sma[9]_kurtosis numeric
@attribute mfcc_sma[9]_quartile1 numeric
@attribute mfcc_sma[9]_quartile2 numeric
@attribute mfcc_sma[9]_quartile3 numeric
@attribute mfcc_sma[9]_iqr1-2 numeric
@attribute mfcc_sma[9]_iqr2-3 numeric
@attribute mfcc_sma[9]_iqr1-3 numeric
@attribute mfcc_sma[9]_percentile1.0 numeric
@attribute mfcc_sma[9]_percentile99.0 numeric
@attribute mfcc_sma[9]_pctlrange0-1 numeric
@attribute mfcc_sma[9]_upleveltime75 numeric
@attribute mfcc_sma[9]_upleveltime90 numeric
@attribute mfcc_sma[10]_maxPos numeric
@attribute mfcc_sma[10]_minPos numeric
@attribute mfcc_sma[10]_amean numeric
@attribute mfcc_sma[10]_linregc1 numeric
@attribute mfcc_sma[10]_linregc2 numeric
@attribute mfcc_sma[10]_linregerrA numeric
@attribute mfcc_sma[10]_linregerrQ numeric
@attribute mfcc_sma[10]_stddev numeric
@attribute mfcc_sma[10]_skewness numeric
@attribute mfcc_sma[10]_kurtosis numeric
@attribute mfcc_sma[10]_quartile1 numeric
@attribute mfcc_sma[10]_quartile2 numeric
@attribute mfcc_sma[10]_quartile3 numeric
@attribute mfcc_sma[10]_iqr1-2 numeric
@attribute mfcc_sma[10]_iqr2-3 numeric
@attribute mfcc_sma[10]_iqr1-3 numeric
@attribute mfcc_sma[10]_percentile1.0 numeric
@attribute mfcc_sma[10]_percentile99.0 numeric
@attribute mfcc_sma[10]_pctlrange0-1 numeric
@attribute mfcc_sma[10]_upleveltime75 numeric
@attribute mfcc_sma[10]_upleveltime90 numeric
@attribute mfcc_sma[11]_maxPos numeric
@attribute mfcc_sma[11]_minPos numeric
@attribute mfcc_sma[11]_amean numeric
@attribute mfcc_sma[11]_linregc1 numeric
@attribute mfcc_sma[11]_linregc2 numeric
@attribute mfcc_sma[11]_linregerrA numeric
@attribute mfcc_sma[11]_linregerrQ numeric
@attribute mfcc_sma[11]_stddev numeric
@attribute mfcc_sma[11]_skewness numeric
@attribute mfcc_sma[11]_kurtosis numeric
@attribute mfcc_sma[11]_quartile1 numeric
@attribute mfcc_sma[11]_quartile2 numeric
@attribute mfcc_sma[11]_quartile3 numeric
@attribute mfcc_sma[11]_iqr1-2 numeric
@attribute mfcc_sma[11]_iqr2-3 numeric
@attribute mfcc_sma[11]_iqr1-3 numeric
@attribute mfcc_sma[11]_percentile1.0 numeric
@attribute mfcc_sma[11]_percentile99.0 numeric
@attribute mfcc_sma[11]_pctlrange0-1 numeric
@attribute mfcc_sma[11]_upleveltime75 numeric
@attribute mfcc_sma[11]_upleveltime90 numeric
@attribute mfcc_sma[12]_maxPos numeric
@attribute mfcc_sma[12]_minPos numeric
@attribute mfcc_sma[12]_amean numeric
@attribute mfcc_sma[12]_linregc1 numeric
@attribute mfcc_sma[12]_linregc2 numeric
@attribute mfcc_sma[12]_linregerrA numeric
@attribute mfcc_sma[12]_linregerrQ numeric
@attribute mfcc_sma[12]_stddev numeric
@attribute mfcc_sma[12]_skewness numeric
@attribute mfcc_sma[12]_kurtosis numeric
@attribute mfcc_sma[12]_quartile1 numeric
@attribute mfcc_sma[12]_quartile2 numeric
@attribute mfcc_sma[12]_quartile3 numeric
@attribute mfcc_sma[12]_iqr1-2 numeric
@attribute mfcc_sma[12]_iqr2-3 numeric
@attribute mfcc_sma[12]_iqr1-3 numeric
@attribute mfcc_sma[12]_percentile1.0 numeric
@attribute mfcc_sma[12]_percentile99.0 numeric
@attribute mfcc_sma[12]_pctlrange0-1 numeric
@attribute mfcc_sma[12]_upleveltime75 numeric
@attribute mfcc_sma[12]_upleveltime90 numeric
@attribute mfcc_sma[13]_maxPos numeric
@attribute mfcc_sma[13]_minPos numeric
@attribute mfcc_sma[13]_amean numeric
@attribute mfcc_sma[13]_linregc1 numeric
@attribute mfcc_sma[13]_linregc2 numeric
@attribute mfcc_sma[13]_linregerrA numeric
@attribute mfcc_sma[13]_linregerrQ numeric
@attribute mfcc_sma[13]_stddev numeric
@attribute mfcc_sma[13]_skewness numeric
@attribute mfcc_sma[13]_kurtosis numeric
@attribute mfcc_sma[13]_quartile1 numeric
@attribute mfcc_sma[13]_quartile2 numeric
@attribute mfcc_sma[13]_quartile3 numeric
@attribute mfcc_sma[13]_iqr1-2 numeric
@attribute mfcc_sma[13]_iqr2-3 numeric
@attribute mfcc_sma[13]_iqr1-3 numeric
@attribute mfcc_sma[13]_percentile1.0 numeric
@attribute mfcc_sma[13]_percentile99.0 numeric
@attribute mfcc_sma[13]_pctlrange0-1 numeric
@attribute mfcc_sma[13]_upleveltime75 numeric
@attribute mfcc_sma[13]_upleveltime90 numeric
@attribute mfcc_sma[14]_maxPos numeric
@attribute mfcc_sma[14]_minPos numeric
@attribute mfcc_sma[14]_amean numeric
@attribute mfcc_sma[14]_linregc1 numeric
@attribute mfcc_sma[14]_linregc2 numeric
@attribute mfcc_sma[14]_linregerrA numeric
@attribute mfcc_sma[14]_linregerrQ numeric
@attribute mfcc_sma[14]_stddev numeric
@attribute mfcc_sma[14]_skewness numeric
@attribute mfcc_sma[14]_kurtosis numeric
@attribute mfcc_sma[14]_quartile1 numeric
@attribute mfcc_sma[14]_quartile2 numeric
@attribute mfcc_sma[14]_quartile3 numeric
@attribute mfcc_sma[14]_iqr1-2 numeric
@attribute mfcc_sma[14]_iqr2-3 numeric
@attribute mfcc_sma[14]_iqr1-3 numeric
@attribute mfcc_sma[14]_percentile1.0 numeric
@attribute mfcc_sma[14]_percentile99.0 numeric
@attribute mfcc_sma[14]_pctlrange0-1 numeric
@attribute mfcc_sma[14]_upleveltime75 numeric
@attribute mfcc_sma[14]_upleveltime90 numeric
@attribute logMelFreqBand_sma[0]_maxPos numeric
@attribute logMelFreqBand_sma[0]_minPos numeric
@attribute logMelFreqBand_sma[0]_amean numeric
@attribute logMelFreqBand_sma[0]_linregc1 numeric
@attribute logMelFreqBand_sma[0]_linregc2 numeric
@attribute logMelFreqBand_sma[0]_linregerrA numeric
@attribute logMelFreqBand_sma[0]_linregerrQ numeric
@attribute logMelFreqBand_sma[0]_stddev numeric
@attribute logMelFreqBand_sma[0]_skewness numeric
@attribute logMelFreqBand_sma[0]_kurtosis numeric
@attribute logMelFreqBand_sma[0]_quartile1 numeric
@attribute logMelFreqBand_sma[0]_quartile2 numeric
@attribute logMelFreqBand_sma[0]_quartile3 numeric
@attribute logMelFreqBand_sma[0]_iqr1-2 numeric
@attribute logMelFreqBand_sma[0]_iqr2-3 numeric
@attribute logMelFreqBand_sma[0]_iqr1-3 numeric
@attribute logMelFreqBand_sma[0]_percentile1.0 numeric
@attribute logMelFreqBand_sma[0]_percentile99.0 numeric
@attribute logMelFreqBand_sma[0]_pctlrange0-1 numeric
@attribute logMelFreqBand_sma[0]_upleveltime75 numeric
@attribute logMelFreqBand_sma[0]_upleveltime90 numeric
@attribute logMelFreqBand_sma[1]_maxPos numeric
@attribute logMelFreqBand_sma[1]_minPos numeric
@attribute logMelFreqBand_sma[1]_amean numeric
@attribute logMelFreqBand_sma[1]_linregc1 numeric
@attribute logMelFreqBand_sma[1]_linregc2 numeric
@attribute logMelFreqBand_sma[1]_linregerrA numeric
@attribute logMelFreqBand_sma[1]_linregerrQ numeric
@attribute logMelFreqBand_sma[1]_stddev numeric
@attribute logMelFreqBand_sma[1]_skewness numeric
@attribute logMelFreqBand_sma[1]_kurtosis numeric
@attribute logMelFreqBand_sma[1]_quartile1 numeric
@attribute logMelFreqBand_sma[1]_quartile2 numeric
@attribute logMelFreqBand_sma[1]_quartile3 numeric
@attribute logMelFreqBand_sma[1]_iqr1-2 numeric
@attribute logMelFreqBand_sma[1]_iqr2-3 numeric
@attribute logMelFreqBand_sma[1]_iqr1-3 numeric
@attribute logMelFreqBand_sma[1]_percentile1.0 numeric
@attribute logMelFreqBand_sma[1]_percentile99.0 numeric
@attribute logMelFreqBand_sma[1]_pctlrange0-1 numeric
@attribute logMelFreqBand_sma[1]_upleveltime75 numeric
@attribute logMelFreqBand_sma[1]_upleveltime90 numeric
@attribute logMelFreqBand_sma[2]_maxPos numeric
@attribute logMelFreqBand_sma[2]_minPos numeric
@attribute logMelFreqBand_sma[2]_amean numeric
@attribute logMelFreqBand_sma[2]_linregc1 numeric
@attribute logMelFreqBand_sma[2]_linregc2 numeric
@attribute logMelFreqBand_sma[2]_linregerrA numeric
@attribute logMelFreqBand_sma[2]_linregerrQ numeric
@attribute logMelFreqBand_sma[2]_stddev numeric
@attribute logMelFreqBand_sma[2]_skewness numeric
@attribute logMelFreqBand_sma[2]_kurtosis numeric
@attribute logMelFreqBand_sma[2]_quartile1 numeric
@attribute logMelFreqBand_sma[2]_quartile2 numeric
@attribute logMelFreqBand_sma[2]_quartile3 numeric
@attribute logMelFreqBand_sma[2]_iqr1-2 numeric
@attribute logMelFreqBand_sma[2]_iqr2-3 numeric
@attribute logMelFreqBand_sma[2]_iqr1-3 numeric
@attribute logMelFreqBand_sma[2]_percentile1.0 numeric
@attribute logMelFreqBand_sma[2]_percentile99.0 numeric
@attribute logMelFreqBand_sma[2]_pctlrange0-1 numeric
@attribute logMelFreqBand_sma[2]_upleveltime75 numeric
@attribute logMelFreqBand_sma[2]_upleveltime90 numeric
@attribute logMelFreqBand_sma[3]_maxPos numeric
@attribute logMelFreqBand_sma[3]_minPos numeric
@attribute logMelFreqBand_sma[3]_amean numeric
@attribute logMelFreqBand_sma[3]_linregc1 numeric
@attribute logMelFreqBand_sma[3]_linregc2 numeric
@attribute logMelFreqBand_sma[3]_linregerrA numeric
@attribute logMelFreqBand_sma[3]_linregerrQ numeric
@attribute logMelFreqBand_sma[3]_stddev numeric
@attribute logMelFreqBand_sma[3]_skewness numeric
@attribute logMelFreqBand_sma[3]_kurtosis numeric
@attribute logMelFreqBand_sma[3]_quartile1 numeric
@attribute logMelFreqBand_sma[3]_quartile2 numeric
@attribute logMelFreqBand_sma[3]_quartile3 numeric
@attribute logMelFreqBand_sma[3]_iqr1-2 numeric
@attribute logMelFreqBand_sma[3]_iqr2-3 numeric
@attribute logMelFreqBand_sma[3]_iqr1-3 numeric
@attribute logMelFreqBand_sma[3]_percentile1.0 numeric
@attribute logMelFreqBand_sma[3]_percentile99.0 numeric
@attribute logMelFreqBand_sma[3]_pctlrange0-1 numeric
@attribute logMelFreqBand_sma[3]_upleveltime75 numeric
@attribute logMelFreqBand_sma[3]_upleveltime90 numeric
@attribute logMelFreqBand_sma[4]_maxPos numeric
@attribute logMelFreqBand_sma[4]_minPos numeric
@attribute logMelFreqBand_sma[4]_amean numeric
@attribute logMelFreqBand_sma[4]_linregc1 numeric
@attribute logMelFreqBand_sma[4]_linregc2 numeric
@attribute logMelFreqBand_sma[4]_linregerrA numeric
@attribute logMelFreqBand_sma[4]_linregerrQ numeric
@attribute logMelFreqBand_sma[4]_stddev numeric
@attribute logMelFreqBand_sma[4]_skewness numeric
@attribute logMelFreqBand_sma[4]_kurtosis numeric
@attribute logMelFreqBand_sma[4]_quartile1 numeric
@attribute logMelFreqBand_sma[4]_quartile2 numeric
@attribute logMelFreqBand_sma[4]_quartile3 numeric
@attribute logMelFreqBand_sma[4]_iqr1-2 numeric
@attribute logMelFreqBand_sma[4]_iqr2-3 numeric
@attribute logMelFreqBand_sma[4]_iqr1-3 numeric
@attribute logMelFreqBand_sma[4]_percentile1.0 numeric
@attribute logMelFreqBand_sma[4]_percentile99.0 numeric
@attribute logMelFreqBand_sma[4]_pctlrange0-1 numeric
@attribute logMelFreqBand_sma[4]_upleveltime75 numeric
@attribute logMelFreqBand_sma[4]_upleveltime90 numeric
@attribute logMelFreqBand_sma[5]_maxPos numeric
@attribute logMelFreqBand_sma[5]_minPos numeric
@attribute logMelFreqBand_sma[5]_amean numeric
@attribute logMelFreqBand_sma[5]_linregc1 numeric
@attribute logMelFreqBand_sma[5]_linregc2 numeric
@attribute logMelFreqBand_sma[5]_linregerrA numeric
@attribute logMelFreqBand_sma[5]_linregerrQ numeric
@attribute logMelFreqBand_sma[5]_stddev numeric
@attribute logMelFreqBand_sma[5]_skewness numeric
@attribute logMelFreqBand_sma[5]_kurtosis numeric
@attribute logMelFreqBand_sma[5]_quartile1 numeric
@attribute logMelFreqBand_sma[5]_quartile2 numeric
@attribute logMelFreqBand_sma[5]_quartile3 numeric
@attribute logMelFreqBand_sma[5]_iqr1-2 numeric
@attribute logMelFreqBand_sma[5]_iqr2-3 numeric
@attribute logMelFreqBand_sma[5]_iqr1-3 numeric
@attribute logMelFreqBand_sma[5]_percentile1.0 numeric
@attribute logMelFreqBand_sma[5]_percentile99.0 numeric
@attribute logMelFreqBand_sma[5]_pctlrange0-1 numeric
@attribute logMelFreqBand_sma[5]_upleveltime75 numeric
@attribute logMelFreqBand_sma[5]_upleveltime90 numeric
@attribute logMelFreqBand_sma[6]_maxPos numeric
@attribute logMelFreqBand_sma[6]_minPos numeric
@attribute logMelFreqBand_sma[6]_amean numeric
@attribute logMelFreqBand_sma[6]_linregc1 numeric
@attribute logMelFreqBand_sma[6]_linregc2 numeric
@attribute logMelFreqBand_sma[6]_linregerrA numeric
@attribute logMelFreqBand_sma[6]_linregerrQ numeric
@attribute logMelFreqBand_sma[6]_stddev numeric
@attribute logMelFreqBand_sma[6]_skewness numeric
@attribute logMelFreqBand_sma[6]_kurtosis numeric
@attribute logMelFreqBand_sma[6]_quartile1 numeric
@attribute logMelFreqBand_sma[6]_quartile2 numeric
@attribute logMelFreqBand_sma[6]_quartile3 numeric
@attribute logMelFreqBand_sma[6]_iqr1-2 numeric
@attribute logMelFreqBand_sma[6]_iqr2-3 numeric
@attribute logMelFreqBand_sma[6]_iqr1-3 numeric
@attribute logMelFreqBand_sma[6]_percentile1.0 numeric
@attribute logMelFreqBand_sma[6]_percentile99.0 numeric
@attribute logMelFreqBand_sma[6]_pctlrange0-1 numeric
@attribute logMelFreqBand_sma[6]_upleveltime75 numeric
@attribute logMelFreqBand_sma[6]_upleveltime90 numeric
@attribute logMelFreqBand_sma[7]_maxPos numeric
@attribute logMelFreqBand_sma[7]_minPos numeric
@attribute logMelFreqBand_sma[7]_amean numeric
@attribute logMelFreqBand_sma[7]_linregc1 numeric
@attribute logMelFreqBand_sma[7]_linregc2 numeric
@attribute logMelFreqBand_sma[7]_linregerrA numeric
@attribute logMelFreqBand_sma[7]_linregerrQ numeric
@attribute logMelFreqBand_sma[7]_stddev numeric
@attribute logMelFreqBand_sma[7]_skewness numeric
@attribute logMelFreqBand_sma[7]_kurtosis numeric
@attribute logMelFreqBand_sma[7]_quartile1 numeric
@attribute logMelFreqBand_sma[7]_quartile2 numeric
@attribute logMelFreqBand_sma[7]_quartile3 numeric
@attribute logMelFreqBand_sma[7]_iqr1-2 numeric
@attribute logMelFreqBand_sma[7]_iqr2-3 numeric
@attribute logMelFreqBand_sma[7]_iqr1-3 numeric
@attribute logMelFreqBand_sma[7]_percentile1.0 numeric
@attribute logMelFreqBand_sma[7]_percentile99.0 numeric
@attribute logMelFreqBand_sma[7]_pctlrange0-1 numeric
@attribute logMelFreqBand_sma[7]_upleveltime75 numeric
@attribute logMelFreqBand_sma[7]_upleveltime90 numeric
@attribute lspFreq_sma[0]_maxPos numeric
@attribute lspFreq_sma[0]_minPos numeric
@attribute lspFreq_sma[0]_amean numeric
@attribute lspFreq_sma[0]_linregc1 numeric
@attribute lspFreq_sma[0]_linregc2 numeric
@attribute lspFreq_sma[0]_linregerrA numeric
@attribute lspFreq_sma[0]_linregerrQ numeric
@attribute lspFreq_sma[0]_stddev numeric
@attribute lspFreq_sma[0]_skewness numeric
@attribute lspFreq_sma[0]_kurtosis numeric
@attribute lspFreq_sma[0]_quartile1 numeric
@attribute lspFreq_sma[0]_quartile2 numeric
@attribute lspFreq_sma[0]_quartile3 numeric
@attribute lspFreq_sma[0]_iqr1-2 numeric
@attribute lspFreq_sma[0]_iqr2-3 numeric
@attribute lspFreq_sma[0]_iqr1-3 numeric
@attribute lspFreq_sma[0]_percentile1.0 numeric
@attribute lspFreq_sma[0]_percentile99.0 numeric
@attribute lspFreq_sma[0]_pctlrange0-1 numeric
@attribute lspFreq_sma[0]_upleveltime75 numeric
@attribute lspFreq_sma[0]_upleveltime90 numeric
@attribute lspFreq_sma[1]_maxPos numeric
@attribute lspFreq_sma[1]_minPos numeric
@attribute lspFreq_sma[1]_amean numeric
@attribute lspFreq_sma[1]_linregc1 numeric
@attribute lspFreq_sma[1]_linregc2 numeric
@attribute lspFreq_sma[1]_linregerrA numeric
@attribute lspFreq_sma[1]_linregerrQ numeric
@attribute lspFreq_sma[1]_stddev numeric
@attribute lspFreq_sma[1]_skewness numeric
@attribute lspFreq_sma[1]_kurtosis numeric
@attribute lspFreq_sma[1]_quartile1 numeric
@attribute lspFreq_sma[1]_quartile2 numeric
@attribute lspFreq_sma[1]_quartile3 numeric
@attribute lspFreq_sma[1]_iqr1-2 numeric
@attribute lspFreq_sma[1]_iqr2-3 numeric
@attribute lspFreq_sma[1]_iqr1-3 numeric
@attribute lspFreq_sma[1]_percentile1.0 numeric
@attribute lspFreq_sma[1]_percentile99.0 numeric
@attribute lspFreq_sma[1]_pctlrange0-1 numeric
@attribute lspFreq_sma[1]_upleveltime75 numeric
@attribute lspFreq_sma[1]_upleveltime90 numeric
@attribute lspFreq_sma[2]_maxPos numeric
@attribute lspFreq_sma[2]_minPos numeric
@attribute lspFreq_sma[2]_amean numeric
@attribute lspFreq_sma[2]_linregc1 numeric
@attribute lspFreq_sma[2]_linregc2 numeric
@attribute lspFreq_sma[2]_linregerrA numeric
@attribute lspFreq_sma[2]_linregerrQ numeric
@attribute lspFreq_sma[2]_stddev numeric
@attribute lspFreq_sma[2]_skewness numeric
@attribute lspFreq_sma[2]_kurtosis numeric
@attribute lspFreq_sma[2]_quartile1 numeric
@attribute lspFreq_sma[2]_quartile2 numeric
@attribute lspFreq_sma[2]_quartile3 numeric
@attribute lspFreq_sma[2]_iqr1-2 numeric
@attribute lspFreq_sma[2]_iqr2-3 numeric
@attribute lspFreq_sma[2]_iqr1-3 numeric
@attribute lspFreq_sma[2]_percentile1.0 numeric
@attribute lspFreq_sma[2]_percentile99.0 numeric
@attribute lspFreq_sma[2]_pctlrange0-1 numeric
@attribute lspFreq_sma[2]_upleveltime75 numeric
@attribute lspFreq_sma[2]_upleveltime90 numeric
@attribute lspFreq_sma[3]_maxPos numeric
@attribute lspFreq_sma[3]_minPos numeric
@attribute lspFreq_sma[3]_amean numeric
@attribute lspFreq_sma[3]_linregc1 numeric
@attribute lspFreq_sma[3]_linregc2 numeric
@attribute lspFreq_sma[3]_linregerrA numeric
@attribute lspFreq_sma[3]_linregerrQ numeric
@attribute lspFreq_sma[3]_stddev numeric
@attribute lspFreq_sma[3]_skewness numeric
@attribute lspFreq_sma[3]_kurtosis numeric
@attribute lspFreq_sma[3]_quartile1 numeric
@attribute lspFreq_sma[3]_quartile2 numeric
@attribute lspFreq_sma[3]_quartile3 numeric
@attribute lspFreq_sma[3]_iqr1-2 numeric
@attribute lspFreq_sma[3]_iqr2-3 numeric
@attribute lspFreq_sma[3]_iqr1-3 numeric
@attribute lspFreq_sma[3]_percentile1.0 numeric
@attribute lspFreq_sma[3]_percentile99.0 numeric
@attribute lspFreq_sma[3]_pctlrange0-1 numeric
@attribute lspFreq_sma[3]_upleveltime75 numeric
@attribute lspFreq_sma[3]_upleveltime90 numeric
@attribute lspFreq_sma[4]_maxPos numeric
@attribute lspFreq_sma[4]_minPos numeric
@attribute lspFreq_sma[4]_amean numeric
@attribute lspFreq_sma[4]_linregc1 numeric
@attribute lspFreq_sma[4]_linregc2 numeric
@attribute lspFreq_sma[4]_linregerrA numeric
@attribute lspFreq_sma[4]_linregerrQ numeric
@attribute lspFreq_sma[4]_stddev numeric
@attribute lspFreq_sma[4]_skewness numeric
@attribute lspFreq_sma[4]_kurtosis numeric
@attribute lspFreq_sma[4]_quartile1 numeric
@attribute lspFreq_sma[4]_quartile2 numeric
@attribute lspFreq_sma[4]_quartile3 numeric
@attribute lspFreq_sma[4]_iqr1-2 numeric
@attribute lspFreq_sma[4]_iqr2-3 numeric
@attribute lspFreq_sma[4]_iqr1-3 numeric
@attribute lspFreq_sma[4]_percentile1.0 numeric
@attribute lspFreq_sma[4]_percentile99.0 numeric
@attribute lspFreq_sma[4]_pctlrange0-1 numeric
@attribute lspFreq_sma[4]_upleveltime75 numeric
@attribute lspFreq_sma[4]_upleveltime90 numeric
@attribute lspFreq_sma[5]_maxPos numeric
@attribute lspFreq_sma[5]_minPos numeric
@attribute lspFreq_sma[5]_amean numeric
@attribute lspFreq_sma[5]_linregc1 numeric
@attribute lspFreq_sma[5]_linregc2 numeric
@attribute lspFreq_sma[5]_linregerrA numeric
@attribute lspFreq_sma[5]_linregerrQ numeric
@attribute lspFreq_sma[5]_stddev numeric
@attribute lspFreq_sma[5]_skewness numeric
@attribute lspFreq_sma[5]_kurtosis numeric
@attribute lspFreq_sma[5]_quartile1 numeric
@attribute lspFreq_sma[5]_quartile2 numeric
@attribute lspFreq_sma[5]_quartile3 numeric
@attribute lspFreq_sma[5]_iqr1-2 numeric
@attribute lspFreq_sma[5]_iqr2-3 numeric
@attribute lspFreq_sma[5]_iqr1-3 numeric
@attribute lspFreq_sma[5]_percentile1.0 numeric
@attribute lspFreq_sma[5]_percentile99.0 numeric
@attribute lspFreq_sma[5]_pctlrange0-1 numeric
@attribute lspFreq_sma[5]_upleveltime75 numeric
@attribute lspFreq_sma[5]_upleveltime90 numeric
@attribute lspFreq_sma[6]_maxPos numeric
@attribute lspFreq_sma[6]_minPos numeric
@attribute lspFreq_sma[6]_amean numeric
@attribute lspFreq_sma[6]_linregc1 numeric
@attribute lspFreq_sma[6]_linregc2 numeric
@attribute lspFreq_sma[6]_linregerrA numeric
@attribute lspFreq_sma[6]_linregerrQ numeric
@attribute lspFreq_sma[6]_stddev numeric
@attribute lspFreq_sma[6]_skewness numeric
@attribute lspFreq_sma[6]_kurtosis numeric
@attribute lspFreq_sma[6]_quartile1 numeric
@attribute lspFreq_sma[6]_quartile2 numeric
@attribute lspFreq_sma[6]_quartile3 numeric
@attribute lspFreq_sma[6]_iqr1-2 numeric
@attribute lspFreq_sma[6]_iqr2-3 numeric
@attribute lspFreq_sma[6]_iqr1-3 numeric
@attribute lspFreq_sma[6]_percentile1.0 numeric
@attribute lspFreq_sma[6]_percentile99.0 numeric
@attribute lspFreq_sma[6]_pctlrange0-1 numeric
@attribute lspFreq_sma[6]_upleveltime75 numeric
@attribute lspFreq_sma[6]_upleveltime90 numeric
@attribute lspFreq_sma[7]_maxPos numeric
@attribute lspFreq_sma[7]_minPos numeric
@attribute lspFreq_sma[7]_amean numeric
@attribute lspFreq_sma[7]_linregc1 numeric
@attribute lspFreq_sma[7]_linregc2 numeric
@attribute lspFreq_sma[7]_linregerrA numeric
@attribute lspFreq_sma[7]_linregerrQ numeric
@attribute lspFreq_sma[7]_stddev numeric
@attribute lspFreq_sma[7]_skewness numeric
@attribute lspFreq_sma[7]_kurtosis numeric
@attribute lspFreq_sma[7]_quartile1 numeric
@attribute lspFreq_sma[7]_quartile2 numeric
@attribute lspFreq_sma[7]_quartile3 numeric
@attribute lspFreq_sma[7]_iqr1-2 numeric
@attribute lspFreq_sma[7]_iqr2-3 numeric
@attribute lspFreq_sma[7]_iqr1-3 numeric
@attribute lspFreq_sma[7]_percentile1.0 numeric
@attribute lspFreq_sma[7]_percentile99.0 numeric
@attribute lspFreq_sma[7]_pctlrange0-1 numeric
@attribute lspFreq_sma[7]_upleveltime75 numeric
@attribute lspFreq_sma[7]_upleveltime90 numeric
@attribute F0finEnv_sma_maxPos numeric
@attribute F0finEnv_sma_minPos numeric
@attribute F0finEnv_sma_amean numeric
@attribute F0finEnv_sma_linregc1 numeric
@attribute F0finEnv_sma_linregc2 numeric
@attribute F0finEnv_sma_linregerrA numeric
@attribute F0finEnv_sma_linregerrQ numeric
@attribute F0finEnv_sma_stddev numeric
@attribute F0finEnv_sma_skewness numeric
@attribute F0finEnv_sma_kurtosis numeric
@attribute F0finEnv_sma_quartile1 numeric
@attribute F0finEnv_sma_quartile2 numeric
@attribute F0finEnv_sma_quartile3 numeric
@attribute F0finEnv_sma_iqr1-2 numeric
@attribute F0finEnv_sma_iqr2-3 numeric
@attribute F0finEnv_sma_iqr1-3 numeric
@attribute F0finEnv_sma_percentile1.0 numeric
@attribute F0finEnv_sma_percentile99.0 numeric
@attribute F0finEnv_sma_pctlrange0-1 numeric
@attribute F0finEnv_sma_upleveltime75 numeric
@attribute F0finEnv_sma_upleveltime90 numeric
@attribute voicingFinalUnclipped_sma_maxPos numeric
@attribute voicingFinalUnclipped_sma_minPos numeric
@attribute voicingFinalUnclipped_sma_amean numeric
@attribute voicingFinalUnclipped_sma_linregc1 numeric
@attribute voicingFinalUnclipped_sma_linregc2 numeric
@attribute voicingFinalUnclipped_sma_linregerrA numeric
@attribute voicingFinalUnclipped_sma_linregerrQ numeric
@attribute voicingFinalUnclipped_sma_stddev numeric
@attribute voicingFinalUnclipped_sma_skewness numeric
@attribute voicingFinalUnclipped_sma_kurtosis numeric
@attribute voicingFinalUnclipped_sma_quartile1 numeric
@attribute voicingFinalUnclipped_sma_quartile2 numeric
@attribute voicingFinalUnclipped_sma_quartile3 numeric
@attribute voicingFinalUnclipped_sma_iqr1-2 numeric
@attribute voicingFinalUnclipped_sma_iqr2-3 numeric
@attribute voicingFinalUnclipped_sma_iqr1-3 numeric
@attribute voicingFinalUnclipped_sma_percentile1.0 numeric
@attribute voicingFinalUnclipped_sma_percentile99.0 numeric
@attribute voicingFinalUnclipped_sma_pctlrange0-1 numeric
@attribute voicingFinalUnclipped_sma_upleveltime75 numeric
@attribute voicingFinalUnclipped_sma_upleveltime90 numeric
@attribute pcm_loudness_sma_de_maxPos numeric
@attribute pcm_loudness_sma_de_minPos numeric
@attribute pcm_loudness_sma_de_amean numeric
@attribute pcm_loudness_sma_de_linregc1 numeric
@attribute pcm_loudness_sma_de_linregc2 numeric
@attribute pcm_loudness_sma_de_linregerrA numeric
@attribute pcm_loudness_sma_de_linregerrQ numeric
@attribute pcm_loudness_sma_de_stddev numeric
@attribute pcm_loudness_sma_de_skewness numeric
@attribute pcm_loudness_sma_de_kurtosis numeric
@attribute pcm_loudness_sma_de_quartile1 numeric
@attribute pcm_loudness_sma_de_quartile2 numeric
@attribute pcm_loudness_sma_de_quartile3 numeric
@attribute pcm_loudness_sma_de_iqr1-2 numeric
@attribute pcm_loudness_sma_de_iqr2-3 numeric
@attribute pcm_loudness_sma_de_iqr1-3 numeric
@attribute pcm_loudness_sma_de_percentile1.0 numeric
@attribute pcm_loudness_sma_de_percentile99.0 numeric
@attribute pcm_loudness_sma_de_pctlrange0-1 numeric
@attribute pcm_loudness_sma_de_upleveltime75 numeric
@attribute pcm_loudness_sma_de_upleveltime90 numeric
@attribute mfcc_sma_de[0]_maxPos numeric
@attribute mfcc_sma_de[0]_minPos numeric
@attribute mfcc_sma_de[0]_amean numeric
@attribute mfcc_sma_de[0]_linregc1 numeric
@attribute mfcc_sma_de[0]_linregc2 numeric
@attribute mfcc_sma_de[0]_linregerrA numeric
@attribute mfcc_sma_de[0]_linregerrQ numeric
@attribute mfcc_sma_de[0]_stddev numeric
@attribute mfcc_sma_de[0]_skewness numeric
@attribute mfcc_sma_de[0]_kurtosis numeric
@attribute mfcc_sma_de[0]_quartile1 numeric
@attribute mfcc_sma_de[0]_quartile2 numeric
@attribute mfcc_sma_de[0]_quartile3 numeric
@attribute mfcc_sma_de[0]_iqr1-2 numeric
@attribute mfcc_sma_de[0]_iqr2-3 numeric
@attribute mfcc_sma_de[0]_iqr1-3 numeric
@attribute mfcc_sma_de[0]_percentile1.0 numeric
@attribute mfcc_sma_de[0]_percentile99.0 numeric
@attribute mfcc_sma_de[0]_pctlrange0-1 numeric
@attribute mfcc_sma_de[0]_upleveltime75 numeric
@attribute mfcc_sma_de[0]_upleveltime90 numeric
@attribute mfcc_sma_de[1]_maxPos numeric
@attribute mfcc_sma_de[1]_minPos numeric
@attribute mfcc_sma_de[1]_amean numeric
@attribute mfcc_sma_de[1]_linregc1 numeric
@attribute mfcc_sma_de[1]_linregc2 numeric
@attribute mfcc_sma_de[1]_linregerrA numeric
@attribute mfcc_sma_de[1]_linregerrQ numeric
@attribute mfcc_sma_de[1]_stddev numeric
@attribute mfcc_sma_de[1]_skewness numeric
@attribute mfcc_sma_de[1]_kurtosis numeric
@attribute mfcc_sma_de[1]_quartile1 numeric
@attribute mfcc_sma_de[1]_quartile2 numeric
@attribute mfcc_sma_de[1]_quartile3 numeric
@attribute mfcc_sma_de[1]_iqr1-2 numeric
@attribute mfcc_sma_de[1]_iqr2-3 numeric
@attribute mfcc_sma_de[1]_iqr1-3 numeric
@attribute mfcc_sma_de[1]_percentile1.0 numeric
@attribute mfcc_sma_de[1]_percentile99.0 numeric
@attribute mfcc_sma_de[1]_pctlrange0-1 numeric
@attribute mfcc_sma_de[1]_upleveltime75 numeric
@attribute mfcc_sma_de[1]_upleveltime90 numeric
@attribute mfcc_sma_de[2]_maxPos numeric
@attribute mfcc_sma_de[2]_minPos numeric
@attribute mfcc_sma_de[2]_amean numeric
@attribute mfcc_sma_de[2]_linregc1 numeric
@attribute mfcc_sma_de[2]_linregc2 numeric
@attribute mfcc_sma_de[2]_linregerrA numeric
@attribute mfcc_sma_de[2]_linregerrQ numeric
@attribute mfcc_sma_de[2]_stddev numeric
@attribute mfcc_sma_de[2]_skewness numeric
@attribute mfcc_sma_de[2]_kurtosis numeric
@attribute mfcc_sma_de[2]_quartile1 numeric
@attribute mfcc_sma_de[2]_quartile2 numeric
@attribute mfcc_sma_de[2]_quartile3 numeric
@attribute mfcc_sma_de[2]_iqr1-2 numeric
@attribute mfcc_sma_de[2]_iqr2-3 numeric
@attribute mfcc_sma_de[2]_iqr1-3 numeric
@attribute mfcc_sma_de[2]_percentile1.0 numeric
@attribute mfcc_sma_de[2]_percentile99.0 numeric
@attribute mfcc_sma_de[2]_pctlrange0-1 numeric
@attribute mfcc_sma_de[2]_upleveltime75 numeric
@attribute mfcc_sma_de[2]_upleveltime90 numeric
@attribute mfcc_sma_de[3]_maxPos numeric
@attribute mfcc_sma_de[3]_minPos numeric
@attribute mfcc_sma_de[3]_amean numeric
@attribute mfcc_sma_de[3]_linregc1 numeric
@attribute mfcc_sma_de[3]_linregc2 numeric
@attribute mfcc_sma_de[3]_linregerrA numeric
@attribute mfcc_sma_de[3]_linregerrQ numeric
@attribute mfcc_sma_de[3]_stddev numeric
@attribute mfcc_sma_de[3]_skewness numeric
@attribute mfcc_sma_de[3]_kurtosis numeric
@attribute mfcc_sma_de[3]_quartile1 numeric
@attribute mfcc_sma_de[3]_quartile2 numeric
@attribute mfcc_sma_de[3]_quartile3 numeric
@attribute mfcc_sma_de[3]_iqr1-2 numeric
@attribute mfcc_sma_de[3]_iqr2-3 numeric
@attribute mfcc_sma_de[3]_iqr1-3 numeric
@attribute mfcc_sma_de[3]_percentile1.0 numeric
@attribute mfcc_sma_de[3]_percentile99.0 numeric
@attribute mfcc_sma_de[3]_pctlrange0-1 numeric
@attribute mfcc_sma_de[3]_upleveltime75 numeric
@attribute mfcc_sma_de[3]_upleveltime90 numeric
@attribute mfcc_sma_de[4]_maxPos numeric
@attribute mfcc_sma_de[4]_minPos numeric
@attribute mfcc_sma_de[4]_amean numeric
@attribute mfcc_sma_de[4]_linregc1 numeric
@attribute mfcc_sma_de[4]_linregc2 numeric
@attribute mfcc_sma_de[4]_linregerrA numeric
@attribute mfcc_sma_de[4]_linregerrQ numeric
@attribute mfcc_sma_de[4]_stddev numeric
@attribute mfcc_sma_de[4]_skewness numeric
@attribute mfcc_sma_de[4]_kurtosis numeric
@attribute mfcc_sma_de[4]_quartile1 numeric
@attribute mfcc_sma_de[4]_quartile2 numeric
@attribute mfcc_sma_de[4]_quartile3 numeric
@attribute mfcc_sma_de[4]_iqr1-2 numeric
@attribute mfcc_sma_de[4]_iqr2-3 numeric
@attribute mfcc_sma_de[4]_iqr1-3 numeric
@attribute mfcc_sma_de[4]_percentile1.0 numeric
@attribute mfcc_sma_de[4]_percentile99.0 numeric
@attribute mfcc_sma_de[4]_pctlrange0-1 numeric
@attribute mfcc_sma_de[4]_upleveltime75 numeric
@attribute mfcc_sma_de[4]_upleveltime90 numeric
@attribute mfcc_sma_de[5]_maxPos numeric
@attribute mfcc_sma_de[5]_minPos numeric
@attribute mfcc_sma_de[5]_amean numeric
@attribute mfcc_sma_de[5]_linregc1 numeric
@attribute mfcc_sma_de[5]_linregc2 numeric
@attribute mfcc_sma_de[5]_linregerrA numeric
@attribute mfcc_sma_de[5]_linregerrQ numeric
@attribute mfcc_sma_de[5]_stddev numeric
@attribute mfcc_sma_de[5]_skewness numeric
@attribute mfcc_sma_de[5]_kurtosis numeric
@attribute mfcc_sma_de[5]_quartile1 numeric
@attribute mfcc_sma_de[5]_quartile2 numeric
@attribute mfcc_sma_de[5]_quartile3 numeric
@attribute mfcc_sma_de[5]_iqr1-2 numeric
@attribute mfcc_sma_de[5]_iqr2-3 numeric
@attribute mfcc_sma_de[5]_iqr1-3 numeric
@attribute mfcc_sma_de[5]_percentile1.0 numeric
@attribute mfcc_sma_de[5]_percentile99.0 numeric
@attribute mfcc_sma_de[5]_pctlrange0-1 numeric
@attribute mfcc_sma_de[5]_upleveltime75 numeric
@attribute mfcc_sma_de[5]_upleveltime90 numeric
@attribute mfcc_sma_de[6]_maxPos numeric
@attribute mfcc_sma_de[6]_minPos numeric
@attribute mfcc_sma_de[6]_amean numeric
@attribute mfcc_sma_de[6]_linregc1 numeric
@attribute mfcc_sma_de[6]_linregc2 numeric
@attribute mfcc_sma_de[6]_linregerrA numeric
@attribute mfcc_sma_de[6]_linregerrQ numeric
@attribute mfcc_sma_de[6]_stddev numeric
@attribute mfcc_sma_de[6]_skewness numeric
@attribute mfcc_sma_de[6]_kurtosis numeric
@attribute mfcc_sma_de[6]_quartile1 numeric
@attribute mfcc_sma_de[6]_quartile2 numeric
@attribute mfcc_sma_de[6]_quartile3 numeric
@attribute mfcc_sma_de[6]_iqr1-2 numeric
@attribute mfcc_sma_de[6]_iqr2-3 numeric
@attribute mfcc_sma_de[6]_iqr1-3 numeric
@attribute mfcc_sma_de[6]_percentile1.0 numeric
@attribute mfcc_sma_de[6]_percentile99.0 numeric
@attribute mfcc_sma_de[6]_pctlrange0-1 numeric
@attribute mfcc_sma_de[6]_upleveltime75 numeric
@attribute mfcc_sma_de[6]_upleveltime90 numeric
@attribute mfcc_sma_de[7]_maxPos numeric
@attribute mfcc_sma_de[7]_minPos numeric
@attribute mfcc_sma_de[7]_amean numeric
@attribute mfcc_sma_de[7]_linregc1 numeric
@attribute mfcc_sma_de[7]_linregc2 numeric
@attribute mfcc_sma_de[7]_linregerrA numeric
@attribute mfcc_sma_de[7]_linregerrQ numeric
@attribute mfcc_sma_de[7]_stddev numeric
@attribute mfcc_sma_de[7]_skewness numeric
@attribute mfcc_sma_de[7]_kurtosis numeric
@attribute mfcc_sma_de[7]_quartile1 numeric
@attribute mfcc_sma_de[7]_quartile2 numeric
@attribute mfcc_sma_de[7]_quartile3 numeric
@attribute mfcc_sma_de[7]_iqr1-2 numeric
@attribute mfcc_sma_de[7]_iqr2-3 numeric
@attribute mfcc_sma_de[7]_iqr1-3 numeric
@attribute mfcc_sma_de[7]_percentile1.0 numeric
@attribute mfcc_sma_de[7]_percentile99.0 numeric
@attribute mfcc_sma_de[7]_pctlrange0-1 numeric
@attribute mfcc_sma_de[7]_upleveltime75 numeric
@attribute mfcc_sma_de[7]_upleveltime90 numeric
@attribute mfcc_sma_de[8]_maxPos numeric
@attribute mfcc_sma_de[8]_minPos numeric
@attribute mfcc_sma_de[8]_amean numeric
@attribute mfcc_sma_de[8]_linregc1 numeric
@attribute mfcc_sma_de[8]_linregc2 numeric
@attribute mfcc_sma_de[8]_linregerrA numeric
@attribute mfcc_sma_de[8]_linregerrQ numeric
@attribute mfcc_sma_de[8]_stddev numeric
@attribute mfcc_sma_de[8]_skewness numeric
@attribute mfcc_sma_de[8]_kurtosis numeric
@attribute mfcc_sma_de[8]_quartile1 numeric
@attribute mfcc_sma_de[8]_quartile2 numeric
@attribute mfcc_sma_de[8]_quartile3 numeric
@attribute mfcc_sma_de[8]_iqr1-2 numeric
@attribute mfcc_sma_de[8]_iqr2-3 numeric
@attribute mfcc_sma_de[8]_iqr1-3 numeric
@attribute mfcc_sma_de[8]_percentile1.0 numeric
@attribute mfcc_sma_de[8]_percentile99.0 numeric
@attribute mfcc_sma_de[8]_pctlrange0-1 numeric
@attribute mfcc_sma_de[8]_upleveltime75 numeric
@attribute mfcc_sma_de[8]_upleveltime90 numeric
@attribute mfcc_sma_de[9]_maxPos numeric
@attribute mfcc_sma_de[9]_minPos numeric
@attribute mfcc_sma_de[9]_amean numeric
@attribute mfcc_sma_de[9]_linregc1 numeric
@attribute mfcc_sma_de[9]_linregc2 numeric
@attribute mfcc_sma_de[9]_linregerrA numeric
@attribute mfcc_sma_de[9]_linregerrQ numeric
@attribute mfcc_sma_de[9]_stddev numeric
@attribute mfcc_sma_de[9]_skewness numeric
@attribute mfcc_sma_de[9]_kurtosis numeric
@attribute mfcc_sma_de[9]_quartile1 numeric
@attribute mfcc_sma_de[9]_quartile2 numeric
@attribute mfcc_sma_de[9]_quartile3 numeric
@attribute mfcc_sma_de[9]_iqr1-2 numeric
@attribute mfcc_sma_de[9]_iqr2-3 numeric
@attribute mfcc_sma_de[9]_iqr1-3 numeric
@attribute mfcc_sma_de[9]_percentile1.0 numeric
@attribute mfcc_sma_de[9]_percentile99.0 numeric
@attribute mfcc_sma_de[9]_pctlrange0-1 numeric
@attribute mfcc_sma_de[9]_upleveltime75 numeric
@attribute mfcc_sma_de[9]_upleveltime90 numeric
@attribute mfcc_sma_de[10]_maxPos numeric
@attribute mfcc_sma_de[10]_minPos numeric
@attribute mfcc_sma_de[10]_amean numeric
@attribute mfcc_sma_de[10]_linregc1 numeric
@attribute mfcc_sma_de[10]_linregc2 numeric
@attribute mfcc_sma_de[10]_linregerrA numeric
@attribute mfcc_sma_de[10]_linregerrQ numeric
@attribute mfcc_sma_de[10]_stddev numeric
@attribute mfcc_sma_de[10]_skewness numeric
@attribute mfcc_sma_de[10]_kurtosis numeric
@attribute mfcc_sma_de[10]_quartile1 numeric
@attribute mfcc_sma_de[10]_quartile2 numeric
@attribute mfcc_sma_de[10]_quartile3 numeric
@attribute mfcc_sma_de[10]_iqr1-2 numeric
@attribute mfcc_sma_de[10]_iqr2-3 numeric
@attribute mfcc_sma_de[10]_iqr1-3 numeric
@attribute mfcc_sma_de[10]_percentile1.0 numeric
@attribute mfcc_sma_de[10]_percentile99.0 numeric
@attribute mfcc_sma_de[10]_pctlrange0-1 numeric
@attribute mfcc_sma_de[10]_upleveltime75 numeric
@attribute mfcc_sma_de[10]_upleveltime90 numeric
@attribute mfcc_sma_de[11]_maxPos numeric
@attribute mfcc_sma_de[11]_minPos numeric
@attribute mfcc_sma_de[11]_amean numeric
@attribute mfcc_sma_de[11]_linregc1 numeric
@attribute mfcc_sma_de[11]_linregc2 numeric
@attribute mfcc_sma_de[11]_linregerrA numeric
@attribute mfcc_sma_de[11]_linregerrQ numeric
@attribute mfcc_sma_de[11]_stddev numeric
@attribute mfcc_sma_de[11]_skewness numeric
@attribute mfcc_sma_de[11]_kurtosis numeric
@attribute mfcc_sma_de[11]_quartile1 numeric
@attribute mfcc_sma_de[11]_quartile2 numeric
@attribute mfcc_sma_de[11]_quartile3 numeric
@attribute mfcc_sma_de[11]_iqr1-2 numeric
@attribute mfcc_sma_de[11]_iqr2-3 numeric
@attribute mfcc_sma_de[11]_iqr1-3 numeric
@attribute mfcc_sma_de[11]_percentile1.0 numeric
@attribute mfcc_sma_de[11]_percentile99.0 numeric
@attribute mfcc_sma_de[11]_pctlrange0-1 numeric
@attribute mfcc_sma_de[11]_upleveltime75 numeric
@attribute mfcc_sma_de[11]_upleveltime90 numeric
@attribute mfcc_sma_de[12]_maxPos numeric
@attribute mfcc_sma_de[12]_minPos numeric
@attribute mfcc_sma_de[12]_amean numeric
@attribute mfcc_sma_de[12]_linregc1 numeric
@attribute mfcc_sma_de[12]_linregc2 numeric
@attribute mfcc_sma_de[12]_linregerrA numeric
@attribute mfcc_sma_de[12]_linregerrQ numeric
@attribute mfcc_sma_de[12]_stddev numeric
@attribute mfcc_sma_de[12]_skewness numeric
@attribute mfcc_sma_de[12]_kurtosis numeric
@attribute mfcc_sma_de[12]_quartile1 numeric
@attribute mfcc_sma_de[12]_quartile2 numeric
@attribute mfcc_sma_de[12]_quartile3 numeric
@attribute mfcc_sma_de[12]_iqr1-2 numeric
@attribute mfcc_sma_de[12]_iqr2-3 numeric
@attribute mfcc_sma_de[12]_iqr1-3 numeric
@attribute mfcc_sma_de[12]_percentile1.0 numeric
@attribute mfcc_sma_de[12]_percentile99.0 numeric
@attribute mfcc_sma_de[12]_pctlrange0-1 numeric
@attribute mfcc_sma_de[12]_upleveltime75 numeric
@attribute mfcc_sma_de[12]_upleveltime90 numeric
@attribute mfcc_sma_de[13]_maxPos numeric
@attribute mfcc_sma_de[13]_minPos numeric
@attribute mfcc_sma_de[13]_amean numeric
@attribute mfcc_sma_de[13]_linregc1 numeric
@attribute mfcc_sma_de[13]_linregc2 numeric
@attribute mfcc_sma_de[13]_linregerrA numeric
@attribute mfcc_sma_de[13]_linregerrQ numeric
@attribute mfcc_sma_de[13]_stddev numeric
@attribute mfcc_sma_de[13]_skewness numeric
@attribute mfcc_sma_de[13]_kurtosis numeric
@attribute mfcc_sma_de[13]_quartile1 numeric
@attribute mfcc_sma_de[13]_quartile2 numeric
@attribute mfcc_sma_de[13]_quartile3 numeric
@attribute mfcc_sma_de[13]_iqr1-2 numeric
@attribute mfcc_sma_de[13]_iqr2-3 numeric
@attribute mfcc_sma_de[13]_iqr1-3 numeric
@attribute mfcc_sma_de[13]_percentile1.0 numeric
@attribute mfcc_sma_de[13]_percentile99.0 numeric
@attribute mfcc_sma_de[13]_pctlrange0-1 numeric
@attribute mfcc_sma_de[13]_upleveltime75 numeric
@attribute mfcc_sma_de[13]_upleveltime90 numeric
@attribute mfcc_sma_de[14]_maxPos numeric
@attribute mfcc_sma_de[14]_minPos numeric
@attribute mfcc_sma_de[14]_amean numeric
@attribute mfcc_sma_de[14]_linregc1 numeric
@attribute mfcc_sma_de[14]_linregc2 numeric
@attribute mfcc_sma_de[14]_linregerrA numeric
@attribute mfcc_sma_de[14]_linregerrQ numeric
@attribute mfcc_sma_de[14]_stddev numeric
@attribute mfcc_sma_de[14]_skewness numeric
@attribute mfcc_sma_de[14]_kurtosis numeric
@attribute mfcc_sma_de[14]_quartile1 numeric
@attribute mfcc_sma_de[14]_quartile2 numeric
@attribute mfcc_sma_de[14]_quartile3 numeric
@attribute mfcc_sma_de[14]_iqr1-2 numeric
@attribute mfcc_sma_de[14]_iqr2-3 numeric
@attribute mfcc_sma_de[14]_iqr1-3 numeric
@attribute mfcc_sma_de[14]_percentile1.0 numeric
@attribute mfcc_sma_de[14]_percentile99.0 numeric
@attribute mfcc_sma_de[14]_pctlrange0-1 numeric
@attribute mfcc_sma_de[14]_upleveltime75 numeric
@attribute mfcc_sma_de[14]_upleveltime90 numeric
@attribute logMelFreqBand_sma_de[0]_maxPos numeric
@attribute logMelFreqBand_sma_de[0]_minPos numeric
@attribute logMelFreqBand_sma_de[0]_amean numeric
@attribute logMelFreqBand_sma_de[0]_linregc1 numeric
@attribute logMelFreqBand_sma_de[0]_linregc2 numeric
@attribute logMelFreqBand_sma_de[0]_linregerrA numeric
@attribute logMelFreqBand_sma_de[0]_linregerrQ numeric
@attribute logMelFreqBand_sma_de[0]_stddev numeric
@attribute logMelFreqBand_sma_de[0]_skewness numeric
@attribute logMelFreqBand_sma_de[0]_kurtosis numeric
@attribute logMelFreqBand_sma_de[0]_quartile1 numeric
@attribute logMelFreqBand_sma_de[0]_quartile2 numeric
@attribute logMelFreqBand_sma_de[0]_quartile3 numeric
@attribute logMelFreqBand_sma_de[0]_iqr1-2 numeric
@attribute logMelFreqBand_sma_de[0]_iqr2-3 numeric
@attribute logMelFreqBand_sma_de[0]_iqr1-3 numeric
@attribute logMelFreqBand_sma_de[0]_percentile1.0 numeric
@attribute logMelFreqBand_sma_de[0]_percentile99.0 numeric
@attribute logMelFreqBand_sma_de[0]_pctlrange0-1 numeric
@attribute logMelFreqBand_sma_de[0]_upleveltime75 numeric
@attribute logMelFreqBand_sma_de[0]_upleveltime90 numeric
@attribute logMelFreqBand_sma_de[1]_maxPos numeric
@attribute logMelFreqBand_sma_de[1]_minPos numeric
@attribute logMelFreqBand_sma_de[1]_amean numeric
@attribute logMelFreqBand_sma_de[1]_linregc1 numeric
@attribute logMelFreqBand_sma_de[1]_linregc2 numeric
@attribute logMelFreqBand_sma_de[1]_linregerrA numeric
@attribute logMelFreqBand_sma_de[1]_linregerrQ numeric
@attribute logMelFreqBand_sma_de[1]_stddev numeric
@attribute logMelFreqBand_sma_de[1]_skewness numeric
@attribute logMelFreqBand_sma_de[1]_kurtosis numeric
@attribute logMelFreqBand_sma_de[1]_quartile1 numeric
@attribute logMelFreqBand_sma_de[1]_quartile2 numeric
@attribute logMelFreqBand_sma_de[1]_quartile3 numeric
@attribute logMelFreqBand_sma_de[1]_iqr1-2 numeric
@attribute logMelFreqBand_sma_de[1]_iqr2-3 numeric
@attribute logMelFreqBand_sma_de[1]_iqr1-3 numeric
@attribute logMelFreqBand_sma_de[1]_percentile1.0 numeric
@attribute logMelFreqBand_sma_de[1]_percentile99.0 numeric
@attribute logMelFreqBand_sma_de[1]_pctlrange0-1 numeric
@attribute logMelFreqBand_sma_de[1]_upleveltime75 numeric
@attribute logMelFreqBand_sma_de[1]_upleveltime90 numeric
@attribute logMelFreqBand_sma_de[2]_maxPos numeric
@attribute logMelFreqBand_sma_de[2]_minPos numeric
@attribute logMelFreqBand_sma_de[2]_amean numeric
@attribute logMelFreqBand_sma_de[2]_linregc1 numeric
@attribute logMelFreqBand_sma_de[2]_linregc2 numeric
@attribute logMelFreqBand_sma_de[2]_linregerrA numeric
@attribute logMelFreqBand_sma_de[2]_linregerrQ numeric
@attribute logMelFreqBand_sma_de[2]_stddev numeric
@attribute logMelFreqBand_sma_de[2]_skewness numeric
@attribute logMelFreqBand_sma_de[2]_kurtosis numeric
@attribute logMelFreqBand_sma_de[2]_quartile1 numeric
@attribute logMelFreqBand_sma_de[2]_quartile2 numeric
@attribute logMelFreqBand_sma_de[2]_quartile3 numeric
@attribute logMelFreqBand_sma_de[2]_iqr1-2 numeric
@attribute logMelFreqBand_sma_de[2]_iqr2-3 numeric
@attribute logMelFreqBand_sma_de[2]_iqr1-3 numeric
@attribute logMelFreqBand_sma_de[2]_percentile1.0 numeric
@attribute logMelFreqBand_sma_de[2]_percentile99.0 numeric
@attribute logMelFreqBand_sma_de[2]_pctlrange0-1 numeric
@attribute logMelFreqBand_sma_de[2]_upleveltime75 numeric
@attribute logMelFreqBand_sma_de[2]_upleveltime90 numeric
@attribute logMelFreqBand_sma_de[3]_maxPos numeric
@attribute logMelFreqBand_sma_de[3]_minPos numeric
@attribute logMelFreqBand_sma_de[3]_amean numeric
@attribute logMelFreqBand_sma_de[3]_linregc1 numeric
@attribute logMelFreqBand_sma_de[3]_linregc2 numeric
@attribute logMelFreqBand_sma_de[3]_linregerrA numeric
@attribute logMelFreqBand_sma_de[3]_linregerrQ numeric
@attribute logMelFreqBand_sma_de[3]_stddev numeric
@attribute logMelFreqBand_sma_de[3]_skewness numeric
@attribute logMelFreqBand_sma_de[3]_kurtosis numeric
@attribute logMelFreqBand_sma_de[3]_quartile1 numeric
@attribute logMelFreqBand_sma_de[3]_quartile2 numeric
@attribute logMelFreqBand_sma_de[3]_quartile3 numeric
@attribute logMelFreqBand_sma_de[3]_iqr1-2 numeric
@attribute logMelFreqBand_sma_de[3]_iqr2-3 numeric
@attribute logMelFreqBand_sma_de[3]_iqr1-3 numeric
@attribute logMelFreqBand_sma_de[3]_percentile1.0 numeric
@attribute logMelFreqBand_sma_de[3]_percentile99.0 numeric
@attribute logMelFreqBand_sma_de[3]_pctlrange0-1 numeric
@attribute logMelFreqBand_sma_de[3]_upleveltime75 numeric
@attribute logMelFreqBand_sma_de[3]_upleveltime90 numeric
@attribute logMelFreqBand_sma_de[4]_maxPos numeric
@attribute logMelFreqBand_sma_de[4]_minPos numeric
@attribute logMelFreqBand_sma_de[4]_amean numeric
@attribute logMelFreqBand_sma_de[4]_linregc1 numeric
@attribute logMelFreqBand_sma_de[4]_linregc2 numeric
@attribute logMelFreqBand_sma_de[4]_linregerrA numeric
@attribute logMelFreqBand_sma_de[4]_linregerrQ numeric
@attribute logMelFreqBand_sma_de[4]_stddev numeric
@attribute logMelFreqBand_sma_de[4]_skewness numeric
@attribute logMelFreqBand_sma_de[4]_kurtosis numeric
@attribute logMelFreqBand_sma_de[4]_quartile1 numeric
@attribute logMelFreqBand_sma_de[4]_quartile2 numeric
@attribute logMelFreqBand_sma_de[4]_quartile3 numeric
@attribute logMelFreqBand_sma_de[4]_iqr1-2 numeric
@attribute logMelFreqBand_sma_de[4]_iqr2-3 numeric
@attribute logMelFreqBand_sma_de[4]_iqr1-3 numeric
@attribute logMelFreqBand_sma_de[4]_percentile1.0 numeric
@attribute logMelFreqBand_sma_de[4]_percentile99.0 numeric
@attribute logMelFreqBand_sma_de[4]_pctlrange0-1 numeric
@attribute logMelFreqBand_sma_de[4]_upleveltime75 numeric
@attribute logMelFreqBand_sma_de[4]_upleveltime90 numeric
@attribute logMelFreqBand_sma_de[5]_maxPos numeric
@attribute logMelFreqBand_sma_de[5]_minPos numeric
@attribute logMelFreqBand_sma_de[5]_amean numeric
@attribute logMelFreqBand_sma_de[5]_linregc1 numeric
@attribute logMelFreqBand_sma_de[5]_linregc2 numeric
@attribute logMelFreqBand_sma_de[5]_linregerrA numeric
@attribute logMelFreqBand_sma_de[5]_linregerrQ numeric
@attribute logMelFreqBand_sma_de[5]_stddev numeric
@attribute logMelFreqBand_sma_de[5]_skewness numeric
@attribute logMelFreqBand_sma_de[5]_kurtosis numeric
@attribute logMelFreqBand_sma_de[5]_quartile1 numeric
@attribute logMelFreqBand_sma_de[5]_quartile2 numeric
@attribute logMelFreqBand_sma_de[5]_quartile3 numeric
@attribute logMelFreqBand_sma_de[5]_iqr1-2 numeric
@attribute logMelFreqBand_sma_de[5]_iqr2-3 numeric
@attribute logMelFreqBand_sma_de[5]_iqr1-3 numeric
@attribute logMelFreqBand_sma_de[5]_percentile1.0 numeric
@attribute logMelFreqBand_sma_de[5]_percentile99.0 numeric
@attribute logMelFreqBand_sma_de[5]_pctlrange0-1 numeric
@attribute logMelFreqBand_sma_de[5]_upleveltime75 numeric
@attribute logMelFreqBand_sma_de[5]_upleveltime90 numeric
@attribute logMelFreqBand_sma_de[6]_maxPos numeric
@attribute logMelFreqBand_sma_de[6]_minPos numeric
@attribute logMelFreqBand_sma_de[6]_amean numeric
@attribute logMelFreqBand_sma_de[6]_linregc1 numeric
@attribute logMelFreqBand_sma_de[6]_linregc2 numeric
@attribute logMelFreqBand_sma_de[6]_linregerrA numeric
@attribute logMelFreqBand_sma_de[6]_linregerrQ numeric
@attribute logMelFreqBand_sma_de[6]_stddev numeric
@attribute logMelFreqBand_sma_de[6]_skewness numeric
@attribute logMelFreqBand_sma_de[6]_kurtosis numeric
@attribute logMelFreqBand_sma_de[6]_quartile1 numeric
@attribute logMelFreqBand_sma_de[6]_quartile2 numeric
@attribute logMelFreqBand_sma_de[6]_quartile3 numeric
@attribute logMelFreqBand_sma_de[6]_iqr1-2 numeric
@attribute logMelFreqBand_sma_de[6]_iqr2-3 numeric
@attribute logMelFreqBand_sma_de[6]_iqr1-3 numeric
@attribute logMelFreqBand_sma_de[6]_percentile1.0 numeric
@attribute logMelFreqBand_sma_de[6]_percentile99.0 numeric
@attribute logMelFreqBand_sma_de[6]_pctlrange0-1 numeric
@attribute logMelFreqBand_sma_de[6]_upleveltime75 numeric
@attribute logMelFreqBand_sma_de[6]_upleveltime90 numeric
@attribute logMelFreqBand_sma_de[7]_maxPos numeric
@attribute logMelFreqBand_sma_de[7]_minPos numeric
@attribute logMelFreqBand_sma_de[7]_amean numeric
@attribute logMelFreqBand_sma_de[7]_linregc1 numeric
@attribute logMelFreqBand_sma_de[7]_linregc2 numeric
@attribute logMelFreqBand_sma_de[7]_linregerrA numeric
@attribute logMelFreqBand_sma_de[7]_linregerrQ numeric
@attribute logMelFreqBand_sma_de[7]_stddev numeric
@attribute logMelFreqBand_sma_de[7]_skewness numeric
@attribute logMelFreqBand_sma_de[7]_kurtosis numeric
@attribute logMelFreqBand_sma_de[7]_quartile1 numeric
@attribute logMelFreqBand_sma_de[7]_quartile2 numeric
@attribute logMelFreqBand_sma_de[7]_quartile3 numeric
@attribute logMelFreqBand_sma_de[7]_iqr1-2 numeric
@attribute logMelFreqBand_sma_de[7]_iqr2-3 numeric
@attribute logMelFreqBand_sma_de[7]_iqr1-3 numeric
@attribute logMelFreqBand_sma_de[7]_percentile1.0 numeric
@attribute logMelFreqBand_sma_de[7]_percentile99.0 numeric
@attribute logMelFreqBand_sma_de[7]_pctlrange0-1 numeric
@attribute logMelFreqBand_sma_de[7]_upleveltime75 numeric
@attribute logMelFreqBand_sma_de[7]_upleveltime90 numeric
@attribute lspFreq_sma_de[0]_maxPos numeric
@attribute lspFreq_sma_de[0]_minPos numeric
@attribute lspFreq_sma_de[0]_amean numeric
@attribute lspFreq_sma_de[0]_linregc1 numeric
@attribute lspFreq_sma_de[0]_linregc2 numeric
@attribute lspFreq_sma_de[0]_linregerrA numeric
@attribute lspFreq_sma_de[0]_linregerrQ numeric
@attribute lspFreq_sma_de[0]_stddev numeric
@attribute lspFreq_sma_de[0]_skewness numeric
@attribute lspFreq_sma_de[0]_kurtosis numeric
@attribute lspFreq_sma_de[0]_quartile1 numeric
@attribute lspFreq_sma_de[0]_quartile2 numeric
@attribute lspFreq_sma_de[0]_quartile3 numeric
@attribute lspFreq_sma_de[0]_iqr1-2 numeric
@attribute lspFreq_sma_de[0]_iqr2-3 numeric
@attribute lspFreq_sma_de[0]_iqr1-3 numeric
@attribute lspFreq_sma_de[0]_percentile1.0 numeric
@attribute lspFreq_sma_de[0]_percentile99.0 numeric
@attribute lspFreq_sma_de[0]_pctlrange0-1 numeric
@attribute lspFreq_sma_de[0]_upleveltime75 numeric
@attribute lspFreq_sma_de[0]_upleveltime90 numeric
@attribute lspFreq_sma_de[1]_maxPos numeric
@attribute lspFreq_sma_de[1]_minPos numeric
@attribute lspFreq_sma_de[1]_amean numeric
@attribute lspFreq_sma_de[1]_linregc1 numeric
@attribute lspFreq_sma_de[1]_linregc2 numeric
@attribute lspFreq_sma_de[1]_linregerrA numeric
@attribute lspFreq_sma_de[1]_linregerrQ numeric
@attribute lspFreq_sma_de[1]_stddev numeric
@attribute lspFreq_sma_de[1]_skewness numeric
@attribute lspFreq_sma_de[1]_kurtosis numeric
@attribute lspFreq_sma_de[1]_quartile1 numeric
@attribute lspFreq_sma_de[1]_quartile2 numeric
@attribute lspFreq_sma_de[1]_quartile3 numeric
@attribute lspFreq_sma_de[1]_iqr1-2 numeric
@attribute lspFreq_sma_de[1]_iqr2-3 numeric
@attribute lspFreq_sma_de[1]_iqr1-3 numeric
@attribute lspFreq_sma_de[1]_percentile1.0 numeric
@attribute lspFreq_sma_de[1]_percentile99.0 numeric
@attribute lspFreq_sma_de[1]_pctlrange0-1 numeric
@attribute lspFreq_sma_de[1]_upleveltime75 numeric
@attribute lspFreq_sma_de[1]_upleveltime90 numeric
@attribute lspFreq_sma_de[2]_maxPos numeric
@attribute lspFreq_sma_de[2]_minPos numeric
@attribute lspFreq_sma_de[2]_amean numeric
@attribute lspFreq_sma_de[2]_linregc1 numeric
@attribute lspFreq_sma_de[2]_linregc2 numeric
@attribute lspFreq_sma_de[2]_linregerrA numeric
@attribute lspFreq_sma_de[2]_linregerrQ numeric
@attribute lspFreq_sma_de[2]_stddev numeric
@attribute lspFreq_sma_de[2]_skewness numeric
@attribute lspFreq_sma_de[2]_kurtosis numeric
@attribute lspFreq_sma_de[2]_quartile1 numeric
@attribute lspFreq_sma_de[2]_quartile2 numeric
@attribute lspFreq_sma_de[2]_quartile3 numeric
@attribute lspFreq_sma_de[2]_iqr1-2 numeric
@attribute lspFreq_sma_de[2]_iqr2-3 numeric
@attribute lspFreq_sma_de[2]_iqr1-3 numeric
@attribute lspFreq_sma_de[2]_percentile1.0 numeric
@attribute lspFreq_sma_de[2]_percentile99.0 numeric
@attribute lspFreq_sma_de[2]_pctlrange0-1 numeric
@attribute lspFreq_sma_de[2]_upleveltime75 numeric
@attribute lspFreq_sma_de[2]_upleveltime90 numeric
@attribute lspFreq_sma_de[3]_maxPos numeric
@attribute lspFreq_sma_de[3]_minPos numeric
@attribute lspFreq_sma_de[3]_amean numeric
@attribute lspFreq_sma_de[3]_linregc1 numeric
@attribute lspFreq_sma_de[3]_linregc2 numeric
@attribute lspFreq_sma_de[3]_linregerrA numeric
@attribute lspFreq_sma_de[3]_linregerrQ numeric
@attribute lspFreq_sma_de[3]_stddev numeric
@attribute lspFreq_sma_de[3]_skewness numeric
@attribute lspFreq_sma_de[3]_kurtosis numeric
@attribute lspFreq_sma_de[3]_quartile1 numeric
@attribute lspFreq_sma_de[3]_quartile2 numeric
@attribute lspFreq_sma_de[3]_quartile3 numeric
@attribute lspFreq_sma_de[3]_iqr1-2 numeric
@attribute lspFreq_sma_de[3]_iqr2-3 numeric
@attribute lspFreq_sma_de[3]_iqr1-3 numeric
@attribute lspFreq_sma_de[3]_percentile1.0 numeric
@attribute lspFreq_sma_de[3]_percentile99.0 numeric
@attribute lspFreq_sma_de[3]_pctlrange0-1 numeric
@attribute lspFreq_sma_de[3]_upleveltime75 numeric
@attribute lspFreq_sma_de[3]_upleveltime90 numeric
@attribute lspFreq_sma_de[4]_maxPos numeric
@attribute lspFreq_sma_de[4]_minPos numeric
@attribute lspFreq_sma_de[4]_amean numeric
@attribute lspFreq_sma_de[4]_linregc1 numeric
@attribute lspFreq_sma_de[4]_linregc2 numeric
@attribute lspFreq_sma_de[4]_linregerrA numeric
@attribute lspFreq_sma_de[4]_linregerrQ numeric
@attribute lspFreq_sma_de[4]_stddev numeric
@attribute lspFreq_sma_de[4]_skewness numeric
@attribute lspFreq_sma_de[4]_kurtosis numeric
@attribute lspFreq_sma_de[4]_quartile1 numeric
@attribute lspFreq_sma_de[4]_quartile2 numeric
@attribute lspFreq_sma_de[4]_quartile3 numeric
@attribute lspFreq_sma_de[4]_iqr1-2 numeric
@attribute lspFreq_sma_de[4]_iqr2-3 numeric
@attribute lspFreq_sma_de[4]_iqr1-3 numeric
@attribute lspFreq_sma_de[4]_percentile1.0 numeric
@attribute lspFreq_sma_de[4]_percentile99.0 numeric
@attribute lspFreq_sma_de[4]_pctlrange0-1 numeric
@attribute lspFreq_sma_de[4]_upleveltime75 numeric
@attribute lspFreq_sma_de[4]_upleveltime90 numeric
@attribute lspFreq_sma_de[5]_maxPos numeric
@attribute lspFreq_sma_de[5]_minPos numeric
@attribute lspFreq_sma_de[5]_amean numeric
@attribute lspFreq_sma_de[5]_linregc1 numeric
@attribute lspFreq_sma_de[5]_linregc2 numeric
@attribute lspFreq_sma_de[5]_linregerrA numeric
@attribute lspFreq_sma_de[5]_linregerrQ numeric
@attribute lspFreq_sma_de[5]_stddev numeric
@attribute lspFreq_sma_de[5]_skewness numeric
@attribute lspFreq_sma_de[5]_kurtosis numeric
@attribute lspFreq_sma_de[5]_quartile1 numeric
@attribute lspFreq_sma_de[5]_quartile2 numeric
@attribute lspFreq_sma_de[5]_quartile3 numeric
@attribute lspFreq_sma_de[5]_iqr1-2 numeric
@attribute lspFreq_sma_de[5]_iqr2-3 numeric
@attribute lspFreq_sma_de[5]_iqr1-3 numeric
@attribute lspFreq_sma_de[5]_percentile1.0 numeric
@attribute lspFreq_sma_de[5]_percentile99.0 numeric
@attribute lspFreq_sma_de[5]_pctlrange0-1 numeric
@attribute lspFreq_sma_de[5]_upleveltime75 numeric
@attribute lspFreq_sma_de[5]_upleveltime90 numeric
@attribute lspFreq_sma_de[6]_maxPos numeric
@attribute lspFreq_sma_de[6]_minPos numeric
@attribute lspFreq_sma_de[6]_amean numeric
@attribute lspFreq_sma_de[6]_linregc1 numeric
@attribute lspFreq_sma_de[6]_linregc2 numeric
@attribute lspFreq_sma_de[6]_linregerrA numeric
@attribute lspFreq_sma_de[6]_linregerrQ numeric
@attribute lspFreq_sma_de[6]_stddev numeric
@attribute lspFreq_sma_de[6]_skewness numeric
@attribute lspFreq_sma_de[6]_kurtosis numeric
@attribute lspFreq_sma_de[6]_quartile1 numeric
@attribute lspFreq_sma_de[6]_quartile2 numeric
@attribute lspFreq_sma_de[6]_quartile3 numeric
@attribute lspFreq_sma_de[6]_iqr1-2 numeric
@attribute lspFreq_sma_de[6]_iqr2-3 numeric
@attribute lspFreq_sma_de[6]_iqr1-3 numeric
@attribute lspFreq_sma_de[6]_percentile1.0 numeric
@attribute lspFreq_sma_de[6]_percentile99.0 numeric
@attribute lspFreq_sma_de[6]_pctlrange0-1 numeric
@attribute lspFreq_sma_de[6]_upleveltime75 numeric
@attribute lspFreq_sma_de[6]_upleveltime90 numeric
@attribute lspFreq_sma_de[7]_maxPos numeric
@attribute lspFreq_sma_de[7]_minPos numeric
@attribute lspFreq_sma_de[7]_amean numeric
@attribute lspFreq_sma_de[7]_linregc1 numeric
@attribute lspFreq_sma_de[7]_linregc2 numeric
@attribute lspFreq_sma_de[7]_linregerrA numeric
@attribute lspFreq_sma_de[7]_linregerrQ numeric
@attribute lspFreq_sma_de[7]_stddev numeric
@attribute lspFreq_sma_de[7]_skewness numeric
@attribute lspFreq_sma_de[7]_kurtosis numeric
@attribute lspFreq_sma_de[7]_quartile1 numeric
@attribute lspFreq_sma_de[7]_quartile2 numeric
@attribute lspFreq_sma_de[7]_quartile3 numeric
@attribute lspFreq_sma_de[7]_iqr1-2 numeric
@attribute lspFreq_sma_de[7]_iqr2-3 numeric
@attribute lspFreq_sma_de[7]_iqr1-3 numeric
@attribute lspFreq_sma_de[7]_percentile1.0 numeric
@attribute lspFreq_sma_de[7]_percentile99.0 numeric
@attribute lspFreq_sma_de[7]_pctlrange0-1 numeric
@attribute lspFreq_sma_de[7]_upleveltime75 numeric
@attribute lspFreq_sma_de[7]_upleveltime90 numeric
@attribute F0finEnv_sma_de_maxPos numeric
@attribute F0finEnv_sma_de_minPos numeric
@attribute F0finEnv_sma_de_amean numeric
@attribute F0finEnv_sma_de_linregc1 numeric
@attribute F0finEnv_sma_de_linregc2 numeric
@attribute F0finEnv_sma_de_linregerrA numeric
@attribute F0finEnv_sma_de_linregerrQ numeric
@attribute F0finEnv_sma_de_stddev numeric
@attribute F0finEnv_sma_de_skewness numeric
@attribute F0finEnv_sma_de_kurtosis numeric
@attribute F0finEnv_sma_de_quartile1 numeric
@attribute F0finEnv_sma_de_quartile2 numeric
@attribute F0finEnv_sma_de_quartile3 numeric
@attribute F0finEnv_sma_de_iqr1-2 numeric
@attribute F0finEnv_sma_de_iqr2-3 numeric
@attribute F0finEnv_sma_de_iqr1-3 numeric
@attribute F0finEnv_sma_de_percentile1.0 numeric
@attribute F0finEnv_sma_de_percentile99.0 numeric
@attribute F0finEnv_sma_de_pctlrange0-1 numeric
@attribute F0finEnv_sma_de_upleveltime75 numeric
@attribute F0finEnv_sma_de_upleveltime90 numeric
@attribute voicingFinalUnclipped_sma_de_maxPos numeric
@attribute voicingFinalUnclipped_sma_de_minPos numeric
@attribute voicingFinalUnclipped_sma_de_amean numeric
@attribute voicingFinalUnclipped_sma_de_linregc1 numeric
@attribute voicingFinalUnclipped_sma_de_linregc2 numeric
@attribute voicingFinalUnclipped_sma_de_linregerrA numeric
@attribute voicingFinalUnclipped_sma_de_linregerrQ numeric
@attribute voicingFinalUnclipped_sma_de_stddev numeric
@attribute voicingFinalUnclipped_sma_de_skewness numeric
@attribute voicingFinalUnclipped_sma_de_kurtosis numeric
@attribute voicingFinalUnclipped_sma_de_quartile1 numeric
@attribute voicingFinalUnclipped_sma_de_quartile2 numeric
@attribute voicingFinalUnclipped_sma_de_quartile3 numeric
@attribute voicingFinalUnclipped_sma_de_iqr1-2 numeric
@attribute voicingFinalUnclipped_sma_de_iqr2-3 numeric
@attribute voicingFinalUnclipped_sma_de_iqr1-3 numeric
@attribute voicingFinalUnclipped_sma_de_percentile1.0 numeric
@attribute voicingFinalUnclipped_sma_de_percentile99.0 numeric
@attribute voicingFinalUnclipped_sma_de_pctlrange0-1 numeric
@attribute voicingFinalUnclipped_sma_de_upleveltime75 numeric
@attribute voicingFinalUnclipped_sma_de_upleveltime90 numeric
@attribute F0final_sma_maxPos numeric
@attribute F0final_sma_minPos numeric
@attribute F0final_sma_amean numeric
@attribute F0final_sma_linregc1 numeric
@attribute F0final_sma_linregc2 numeric
@attribute F0final_sma_linregerrA numeric
@attribute F0final_sma_linregerrQ numeric
@attribute F0final_sma_stddev numeric
@attribute F0final_sma_skewness numeric
@attribute F0final_sma_kurtosis numeric
@attribute F0final_sma_quartile1 numeric
@attribute F0final_sma_quartile2 numeric
@attribute F0final_sma_quartile3 numeric
@attribute F0final_sma_iqr1-2 numeric
@attribute F0final_sma_iqr2-3 numeric
@attribute F0final_sma_iqr1-3 numeric
@attribute F0final_sma_percentile99.0 numeric
@attribute F0final_sma_upleveltime75 numeric
@attribute F0final_sma_upleveltime90 numeric
@attribute jitterLocal_sma_maxPos numeric
@attribute jitterLocal_sma_minPos numeric
@attribute jitterLocal_sma_amean numeric
@attribute jitterLocal_sma_linregc1 numeric
@attribute jitterLocal_sma_linregc2 numeric
@attribute jitterLocal_sma_linregerrA numeric
@attribute jitterLocal_sma_linregerrQ numeric
@attribute jitterLocal_sma_stddev numeric
@attribute jitterLocal_sma_skewness numeric
@attribute jitterLocal_sma_kurtosis numeric
@attribute jitterLocal_sma_quartile1 numeric
@attribute jitterLocal_sma_quartile2 numeric
@attribute jitterLocal_sma_quartile3 numeric
@attribute jitterLocal_sma_iqr1-2 numeric
@attribute jitterLocal_sma_iqr2-3 numeric
@attribute jitterLocal_sma_iqr1-3 numeric
@attribute jitterLocal_sma_percentile99.0 numeric
@attribute jitterLocal_sma_upleveltime75 numeric
@attribute jitterLocal_sma_upleveltime90 numeric
@attribute jitterDDP_sma_maxPos numeric
@attribute jitterDDP_sma_minPos numeric
@attribute jitterDDP_sma_amean numeric
@attribute jitterDDP_sma_linregc1 numeric
@attribute jitterDDP_sma_linregc2 numeric
@attribute jitterDDP_sma_linregerrA numeric
@attribute jitterDDP_sma_linregerrQ numeric
@attribute jitterDDP_sma_stddev numeric
@attribute jitterDDP_sma_skewness numeric
@attribute jitterDDP_sma_kurtosis numeric
@attribute jitterDDP_sma_quartile1 numeric
@attribute jitterDDP_sma_quartile2 numeric
@attribute jitterDDP_sma_quartile3 numeric
@attribute jitterDDP_sma_iqr1-2 numeric
@attribute jitterDDP_sma_iqr2-3 numeric
@attribute jitterDDP_sma_iqr1-3 numeric
@attribute jitterDDP_sma_percentile99.0 numeric
@attribute jitterDDP_sma_upleveltime75 numeric
@attribute jitterDDP_sma_upleveltime90 numeric
@attribute shimmerLocal_sma_maxPos numeric
@attribute shimmerLocal_sma_minPos numeric
@attribute shimmerLocal_sma_amean numeric
@attribute shimmerLocal_sma_linregc1 numeric
@attribute shimmerLocal_sma_linregc2 numeric
@attribute shimmerLocal_sma_linregerrA numeric
@attribute shimmerLocal_sma_linregerrQ numeric
@attribute shimmerLocal_sma_stddev numeric
@attribute shimmerLocal_sma_skewness numeric
@attribute shimmerLocal_sma_kurtosis numeric
@attribute shimmerLocal_sma_quartile1 numeric
@attribute shimmerLocal_sma_quartile2 numeric
@attribute shimmerLocal_sma_quartile3 numeric
@attribute shimmerLocal_sma_iqr1-2 numeric
@attribute shimmerLocal_sma_iqr2-3 numeric
@attribute shimmerLocal_sma_iqr1-3 numeric
@attribute shimmerLocal_sma_percentile99.0 numeric
@attribute shimmerLocal_sma_upleveltime75 numeric
@attribute shimmerLocal_sma_upleveltime90 numeric
@attribute F0final_sma_de_maxPos numeric
@attribute F0final_sma_de_minPos numeric
@attribute F0final_sma_de_amean numeric
@attribute F0final_sma_de_linregc1 numeric
@attribute F0final_sma_de_linregc2 numeric
@attribute F0final_sma_de_linregerrA numeric
@attribute F0final_sma_de_linregerrQ numeric
@attribute F0final_sma_de_stddev numeric
@attribute F0final_sma_de_skewness numeric
@attribute F0final_sma_de_kurtosis numeric
@attribute F0final_sma_de_quartile1 numeric
@attribute F0final_sma_de_quartile2 numeric
@attribute F0final_sma_de_quartile3 numeric
@attribute F0final_sma_de_iqr1-2 numeric
@attribute F0final_sma_de_iqr2-3 numeric
@attribute F0final_sma_de_iqr1-3 numeric
@attribute F0final_sma_de_percentile99.0 numeric
@attribute F0final_sma_de_upleveltime75 numeric
@attribute F0final_sma_de_upleveltime90 numeric
@attribute jitterLocal_sma_de_maxPos numeric
@attribute jitterLocal_sma_de_minPos numeric
@attribute jitterLocal_sma_de_amean numeric
@attribute jitterLocal_sma_de_linregc1 numeric
@attribute jitterLocal_sma_de_linregc2 numeric
@attribute jitterLocal_sma_de_linregerrA numeric
@attribute jitterLocal_sma_de_linregerrQ numeric
@attribute jitterLocal_sma_de_stddev numeric
@attribute jitterLocal_sma_de_skewness numeric
@attribute jitterLocal_sma_de_kurtosis numeric
@attribute jitterLocal_sma_de_quartile1 numeric
@attribute jitterLocal_sma_de_quartile2 numeric
@attribute jitterLocal_sma_de_quartile3 numeric
@attribute jitterLocal_sma_de_iqr1-2 numeric
@attribute jitterLocal_sma_de_iqr2-3 numeric
@attribute jitterLocal_sma_de_iqr1-3 numeric
@attribute jitterLocal_sma_de_percentile99.0 numeric
@attribute jitterLocal_sma_de_upleveltime75 numeric
@attribute jitterLocal_sma_de_upleveltime90 numeric
@attribute jitterDDP_sma_de_maxPos numeric
@attribute jitterDDP_sma_de_minPos numeric
@attribute jitterDDP_sma_de_amean numeric
@attribute jitterDDP_sma_de_linregc1 numeric
@attribute jitterDDP_sma_de_linregc2 numeric
@attribute jitterDDP_sma_de_linregerrA numeric
@attribute jitterDDP_sma_de_linregerrQ numeric
@attribute jitterDDP_sma_de_stddev numeric
@attribute jitterDDP_sma_de_skewness numeric
@attribute jitterDDP_sma_de_kurtosis numeric
@attribute jitterDDP_sma_de_quartile1 numeric
@attribute jitterDDP_sma_de_quartile2 numeric
@attribute jitterDDP_sma_de_quartile3 numeric
@attribute jitterDDP_sma_de_iqr1-2 numeric
@attribute jitterDDP_sma_de_iqr2-3 numeric
@attribute jitterDDP_sma_de_iqr1-3 numeric
@attribute jitterDDP_sma_de_percentile99.0 numeric
@attribute jitterDDP_sma_de_upleveltime75 numeric
@attribute jitterDDP_sma_de_upleveltime90 numeric
@attribute shimmerLocal_sma_de_maxPos numeric
@attribute shimmerLocal_sma_de_minPos numeric
@attribute shimmerLocal_sma_de_amean numeric
@attribute shimmerLocal_sma_de_linregc1 numeric
@attribute shimmerLocal_sma_de_linregc2 numeric
@attribute shimmerLocal_sma_de_linregerrA numeric
@attribute shimmerLocal_sma_de_linregerrQ numeric
@attribute shimmerLocal_sma_de_stddev numeric
@attribute shimmerLocal_sma_de_skewness numeric
@attribute shimmerLocal_sma_de_kurtosis numeric
@attribute shimmerLocal_sma_de_quartile1 numeric
@attribute shimmerLocal_sma_de_quartile2 numeric
@attribute shimmerLocal_sma_de_quartile3 numeric
@attribute shimmerLocal_sma_de_iqr1-2 numeric
@attribute shimmerLocal_sma_de_iqr2-3 numeric
@attribute shimmerLocal_sma_de_iqr1-3 numeric
@attribute shimmerLocal_sma_de_percentile99.0 numeric
@attribute shimmerLocal_sma_de_upleveltime75 numeric
@attribute shimmerLocal_sma_de_upleveltime90 numeric
@attribute F0final__Turn_numOnsets numeric
@attribute F0final__Turn_duration numeric
@attribute numeric_class numeric

@data

'noname',1.020000e+002,1.300000e+001,3.350185e-001,-2.858370e-004,3.780370e-001,1.248446e-001,2.315536e-002,1.541957e-001,5.008926e-001,2.769806e+000,2.095952e-001,3.180255e-001,4.372723e-001,1.084303e-001,1.192468e-001,2.276771e-001,8.964691e-002,6.860297e-001,5.963827e-001,1.655629e-002,6.622517e-003,4.100000e+001,7.100000e+001,-4.258522e+001,-1.811587e-002,-3.985878e+001,9.262704e+000,1.346080e+002,1.170907e+001,-1.023649e+000,3.832401e+000,-4.909995e+001,-3.981475e+001,-3.381204e+001,9.285191e+000,6.002712e+000,1.528790e+001,-7.905811e+001,-2.567328e+001,5.338483e+001,4.668874e-001,8.609272e-002,1.490000e+002,1.770000e+002,-1.259124e+000,2.097428e-002,-4.415754e+000,8.086358e+000,1.430113e+002,1.209772e+001,-2.128887e+000,7.542991e+000,-4.360439e+000,2.289154e+000,5.825877e+000,6.649593e+000,3.536723e+000,1.018632e+001,-4.674098e+001,1.145983e+001,5.820081e+001,7.185431e-001,2.483444e-001,1.910000e+002,2.780000e+002,-1.534047e+001,-1.604122e-002,-1.292626e+001,8.591533e+000,1.128937e+002,1.071678e+001,6.093289e-001,2.782664e+000,-2.323325e+001,-1.760980e+001,-8.464487e+000,5.623449e+000,9.145315e+000,1.476876e+001,-3.468006e+001,1.120980e+001,4.588986e+001,9.271523e-002,2.980132e-002,8.800000e+001,7.100000e+001,3.214171e+001,2.200247e-002,2.883034e+001,1.313445e+001,2.409834e+002,1.564170e+001,2.355371e-001,2.203480e+000,2.018772e+001,2.997847e+001,4.387798e+001,9.790749e+000,1.389951e+001,2.369025e+001,2.921355e+000,6.498534e+001,6.206398e+001,1.721854e-001,4.966887e-002,2.180000e+002,1.010000e+002,-8.635303e+000,5.341721e-002,-1.667459e+001,1.015708e+001,1.611849e+002,1.352299e+001,-9.096460e-001,3.144248e+000,-1.695315e+001,-4.934561e+000,2.011043e+000,1.201859e+001,6.945604e+000,1.896420e+001,-4.398947e+001,1.154409e+001,5.553356e+001,3.245033e-001,4.304636e-002,0.000000e+000,2.590000e+002,-8.386621e+000,-1.669622e-002,-5.873840e+000,1.131719e+001,2.018629e+002,1.428221e+001,5.573981e-001,3.114900e+000,-1.856406e+001,-9.406685e+000,5.479921e-001,9.157377e+000,9.954677e+000,1.911205e+001,-3.343812e+001,2.759856e+001,6.103668e+001,3.311258e-002,3.311258e-003,1.430000e+002,1.300000e+001,-4.895371e+000,4.197238e-002,-1.121221e+001,1.167150e+001,2.002494e+002,1.461638e+001,-2.460917e-001,2.214575e+000,-1.790332e+001,-3.082415e+000,5.960135e+000,1.482090e+001,9.042550e+000,2.386345e+001,-3.534265e+001,2.106038e+001,5.640304e+001,2.052980e-001,4.966887e-002,1.950000e+002,2.110000e+002,-3.462713e+001,-6.936150e-003,-3.358324e+001,1.417256e+001,3.107041e+002,1.763717e+001,7.715449e-001,2.968612e+000,-4.904793e+001,-3.761897e+001,-2.455167e+001,1.142896e+001,1.306730e+001,2.449625e+001,-6.130598e+001,1.105346e+001,7.235944e+001,9.602649e-002,1.986755e-002,2.800000e+001,1.060000e+002,1.920924e+000,1.320622e-002,-6.661268e-002,1.157065e+001,2.294455e+002,1.519115e+001,-2.401736e-001,3.618251e+000,-7.366805e+000,1.162617e+000,1.162348e+001,8.529422e+000,1.046086e+001,1.899028e+001,-4.229691e+001,3.471962e+001,7.701653e+001,1.523179e-001,4.304636e-002,1.560000e+002,1.250000e+002,-9.715531e+000,2.649685e-002,-1.370331e+001,1.031566e+001,1.654273e+002,1.306764e+001,-1.025750e-001,2.635056e+000,-1.729548e+001,-9.243030e+000,-8.454311e-001,8.052449e+000,8.397598e+000,1.645005e+001,-3.792653e+001,1.976475e+001,5.769127e+001,1.258278e-001,2.980132e-002,2.990000e+002,1.340000e+002,-8.705062e-001,-4.384324e-002,5.727901e+000,1.310510e+001,2.897495e+002,1.744589e+001,-3.522566e-001,3.049972e+000,-1.072845e+001,4.353147e-001,1.021691e+001,1.116377e+001,9.781599e+000,2.094537e+001,-4.486546e+001,3.499962e+001,7.986507e+001,1.192053e-001,3.642384e-002,1.190000e+002,2.080000e+002,1.373416e+001,-3.619786e-002,1.918194e+001,1.168358e+001,2.231822e+002,1.526895e+001,8.902420e-001,3.483853e+000,3.360724e+000,9.807283e+000,2.217508e+001,6.446559e+000,1.236780e+001,1.881436e+001,-1.156396e+001,5.320153e+001,6.476549e+001,8.278146e-002,2.317881e-002,9.200000e+001,4.400000e+001,-3.190749e-001,1.320232e-002,-2.306023e+000,9.104439e+000,1.295692e+002,1.144089e+001,-5.537286e-001,2.917599e+000,-6.962647e+000,1.190277e+000,8.387727e+000,8.152924e+000,7.197450e+000,1.535037e+001,-3.046686e+001,2.101385e+001,5.148071e+001,1.821192e-001,1.986755e-002,2.840000e+002,2.760000e+002,-6.313499e+000,-3.002615e-003,-5.861606e+000,7.527974e+000,7.780362e+001,8.824519e+000,-3.634347e-001,2.157818e+000,-1.321530e+001,-4.996632e+000,1.225957e+000,8.218672e+000,6.222589e+000,1.444126e+001,-2.558237e+001,8.188363e+000,3.377073e+001,2.715232e-001,4.966887e-002,8.100000e+001,2.510000e+002,2.397178e+000,-3.828863e-002,8.159617e+000,5.223886e+000,4.535619e+001,7.516536e+000,-6.137149e-001,2.802331e+000,-2.505058e+000,3.846473e+000,8.042527e+000,6.351531e+000,4.196054e+000,1.054758e+001,-1.610725e+001,1.597797e+001,3.208522e+001,2.218543e-001,2.980132e-002,9.200000e+001,1.770000e+002,-4.351859e+000,-4.125058e-004,-4.289777e+000,1.646507e+000,5.299214e+000,2.302283e+000,-1.840911e+000,5.427015e+000,-4.358148e+000,-3.506645e+000,-2.888479e+000,8.515029e-001,6.181662e-001,1.469669e+000,-1.151694e+001,-2.140619e+000,9.376316e+000,7.549669e-001,2.682119e-001,1.000000e+002,1.740000e+002,-4.184471e+000,-3.674189e-003,-3.631506e+000,2.002711e+000,6.451033e+000,2.560007e+000,-1.001534e+000,3.209723e+000,-5.335064e+000,-3.399485e+000,-2.323453e+000,1.935579e+000,1.076032e+000,3.011611e+000,-1.099099e+001,-3.914761e-001,1.059952e+001,4.172185e-001,6.291391e-002,4.200000e+001,6.800000e+001,-6.194153e+000,-3.091872e-003,-5.728827e+000,1.921626e+000,5.570745e+000,2.375584e+000,-1.912509e-001,2.411159e+000,-7.738175e+000,-6.211085e+000,-4.226569e+000,1.527090e+000,1.984517e+000,3.511606e+000,-1.153344e+001,-1.999148e+000,9.534290e+000,1.854305e-001,1.655629e-002,9.800000e+001,1.930000e+002,-4.362720e+000,-3.051423e-003,-3.903481e+000,2.060547e+000,5.828246e+000,2.428788e+000,-6.840064e-001,2.326003e+000,-6.204021e+000,-3.558310e+000,-2.355546e+000,2.645711e+000,1.202763e+000,3.848475e+000,-9.996133e+000,-1.193293e+000,8.802840e+000,4.834437e-001,1.523179e-001,2.020000e+002,7.100000e+001,-3.418631e+000,-6.913295e-004,-3.314586e+000,1.762782e+000,4.945889e+000,2.224752e+000,-1.000922e+000,3.550352e+000,-4.753738e+000,-2.921323e+000,-1.651602e+000,1.832415e+000,1.269721e+000,3.102136e+000,-9.958778e+000,-6.191093e-001,9.339669e+000,5.165563e-001,2.251656e-001,8.800000e+001,7.000000e+001,-2.556249e+000,-9.658107e-004,-2.410894e+000,1.759028e+000,4.948977e+000,2.226222e+000,-1.131521e+000,4.093590e+000,-3.703989e+000,-1.980294e+000,-9.440646e-001,1.723695e+000,1.036230e+000,2.759924e+000,-9.678349e+000,8.237509e-001,1.050210e+001,4.801325e-001,6.291391e-002,8.800000e+001,7.100000e+001,-1.886887e+000,-3.515635e-003,-1.357784e+000,1.466357e+000,3.954796e+000,2.012146e+000,-1.349122e+000,5.588039e+000,-2.960981e+000,-1.576770e+000,-4.767552e-001,1.384211e+000,1.100015e+000,2.484226e+000,-8.905126e+000,1.227178e+000,1.013230e+001,4.635762e-001,9.933775e-002,1.500000e+001,7.000000e+001,-4.544747e+000,-7.325987e-003,-3.442186e+000,1.279586e+000,2.825591e+000,1.798193e+000,-1.338865e-001,2.721491e+000,-5.852368e+000,-4.679824e+000,-3.247986e+000,1.172544e+000,1.431838e+000,2.604382e+000,-9.375299e+000,-1.351201e+000,8.024097e+000,2.152318e-001,4.304636e-002,1.670000e+002,2.940000e+002,2.830361e-001,-1.419864e-004,3.044050e-001,6.815644e-002,7.822699e-003,8.930801e-002,8.597519e-001,4.264370e+000,2.156980e-001,2.863362e-001,3.253067e-001,7.063824e-002,3.897047e-002,1.096087e-001,1.450516e-001,5.582683e-001,4.132167e-001,3.973510e-002,1.324503e-002,1.770000e+002,1.410000e+002,6.438723e-001,1.941578e-005,6.409502e-001,1.151665e-001,2.050972e-002,1.432222e-001,5.154035e-001,2.813020e+000,5.446880e-001,6.258032e-001,7.163937e-001,8.111519e-002,9.059048e-002,1.717057e-001,3.821492e-001,9.965589e-001,6.144097e-001,1.092715e-001,3.311258e-002,1.730000e+002,5.500000e+001,1.084538e+000,4.878655e-005,1.077196e+000,8.772777e-002,1.171736e-002,1.083303e-001,2.192608e-001,2.553604e+000,1.001743e+000,1.084837e+000,1.153427e+000,8.309400e-002,6.859064e-002,1.516846e-001,8.793070e-001,1.325883e+000,4.465760e-001,9.933775e-002,2.317881e-002,1.760000e+002,1.530000e+002,1.278215e+000,-1.659789e-004,1.303195e+000,8.285958e-002,1.174997e-002,1.093588e-001,1.123666e+000,4.208788e+000,1.201082e+000,1.254386e+000,1.334408e+000,5.330443e-002,8.002138e-002,1.333258e-001,1.121881e+000,1.624226e+000,5.023451e-001,4.635762e-002,1.986755e-002,1.720000e+002,3.000000e+002,1.732441e+000,-1.543403e-004,1.755669e+000,6.235229e-002,6.299446e-003,8.050150e-002,3.572958e-001,3.154577e+000,1.678380e+000,1.732448e+000,1.780405e+000,5.406797e-002,4.795671e-002,1.020247e-001,1.564618e+000,1.938334e+000,3.737160e-001,7.947020e-002,3.311258e-002,1.730000e+002,3.000000e+002,1.870739e+000,-3.022627e-004,1.916230e+000,5.595237e-002,5.805480e-003,8.062170e-002,8.750373e-001,3.489088e+000,1.800768e+000,1.870410e+000,1.904469e+000,6.964266e-002,3.405881e-002,1.037015e-001,1.759561e+000,2.090482e+000,3.309212e-001,5.960265e-002,1.655629e-002,1.700000e+001,2.810000e+002,2.095128e+000,-2.881873e-004,2.138500e+000,9.250548e-002,1.248997e-002,1.145477e-001,2.455216e-001,2.329585e+000,2.004129e+000,2.098777e+000,2.170210e+000,9.464741e-002,7.143331e-002,1.660807e-001,1.893768e+000,2.331265e+000,4.374970e-001,1.258278e-001,6.953643e-002,2.970000e+002,9.000000e+001,2.200383e+000,-1.758700e-004,2.226852e+000,6.956877e-002,7.497731e-003,8.793638e-002,-8.777831e-002,2.454708e+000,2.137341e+000,2.206019e+000,2.258290e+000,6.867814e-002,5.227041e-002,1.209486e-001,2.010941e+000,2.370639e+000,3.596976e-001,1.589404e-001,8.609272e-002,5.400000e+001,0.000000e+000,1.202015e+002,2.012599e-001,8.991193e+001,3.252726e+001,1.947957e+003,4.749536e+001,-1.825855e+000,5.207843e+000,1.215016e+002,1.329713e+002,1.381409e+002,1.146967e+001,5.169647e+000,1.663932e+001,0.000000e+000,1.771240e+002,1.771240e+002,4.139073e-001,1.490066e-001,5.500000e+001,1.600000e+001,6.277366e-001,1.647369e-004,6.029437e-001,1.664679e-001,4.618522e-002,2.153868e-001,-1.665002e+000,4.361524e+000,6.761085e-001,7.292477e-001,7.478933e-001,5.313921e-002,1.864564e-002,7.178485e-002,0.000000e+000,7.815306e-001,7.815306e-001,7.715232e-001,7.052980e-001,9.100000e+001,4.600000e+001,2.547052e-004,-2.382687e-005,3.840648e-003,3.332309e-002,1.834961e-003,4.288678e-002,-2.672080e-001,3.740085e+000,-2.545516e-002,-1.136956e-003,2.837563e-002,2.431820e-002,2.951258e-002,5.383079e-002,-1.120846e-001,9.262194e-002,2.047066e-001,1.920530e-001,3.973510e-002,7.300000e+001,6.300000e+001,1.703546e-002,-7.850974e-005,2.885117e-002,2.029370e+000,8.117265e+000,2.849090e+000,5.416108e-001,5.225996e+000,-1.591289e+000,-3.503895e-002,1.137972e+000,1.556250e+000,1.173011e+000,2.729261e+000,-6.693071e+000,8.172316e+000,1.486539e+001,3.973510e-002,6.622517e-003,1.790000e+002,1.000000e+001,7.136290e-002,-1.532900e-004,9.443304e-002,1.691904e+000,7.075560e+000,2.660026e+000,3.911273e-001,8.526019e+000,-1.001154e+000,-2.434010e-002,9.379982e-001,9.768135e-001,9.623383e-001,1.939152e+000,-8.239861e+000,9.456837e+000,1.769670e+001,1.655629e-002,6.622517e-003,9.000000e+000,2.980000e+002,-4.602536e-002,-5.837685e-004,4.183181e-002,2.084594e+000,7.543913e+000,2.747090e+000,-4.407327e-001,3.967264e+000,-1.495282e+000,6.944285e-002,1.781184e+000,1.564725e+000,1.711741e+000,3.276465e+000,-8.083302e+000,6.755399e+000,1.483870e+001,9.933775e-002,1.324503e-002,1.800000e+001,9.200000e+001,6.319708e-003,-2.668389e-003,4.079123e-001,2.903437e+000,1.354779e+001,3.688077e+000,2.612006e-001,3.228051e+000,-2.163377e+000,-1.718030e-001,2.509585e+000,1.991574e+000,2.681388e+000,4.672962e+000,-7.253444e+000,9.816940e+000,1.707038e+001,1.324503e-002,6.622517e-003,1.240000e+002,9.600000e+001,5.509230e-002,-2.519359e-003,4.342558e-001,2.006473e+000,6.792578e+000,2.615496e+000,-4.729726e-001,3.644323e+000,-1.422112e+000,1.053234e-001,1.726966e+000,1.527436e+000,1.621642e+000,3.149078e+000,-7.105337e+000,5.858455e+000,1.296379e+001,1.324503e-001,1.986755e-002,2.840000e+002,2.000000e+000,-1.556975e-001,3.200691e-003,-6.374016e-001,2.531966e+000,1.097305e+001,3.324291e+000,-5.707803e-001,3.831524e+000,-2.009800e+000,6.273110e-002,2.051649e+000,2.072531e+000,1.988918e+000,4.061449e+000,-9.227708e+000,6.964457e+000,1.619217e+001,1.821192e-001,1.655629e-002,1.860000e+002,1.100000e+001,1.282199e-002,-7.380746e-006,1.393279e-002,2.508855e+000,1.033185e+001,3.214319e+000,-2.247920e-001,3.479242e+000,-2.102645e+000,-3.182705e-002,2.161390e+000,2.070818e+000,2.193217e+000,4.264035e+000,-9.029325e+000,6.826884e+000,1.585621e+001,1.721854e-001,4.304636e-002,1.620000e+002,1.970000e+002,4.086647e-002,9.047585e-004,-9.529968e-002,2.958525e+000,1.742445e+001,4.175006e+000,-8.590218e-001,5.775476e+000,-2.080589e+000,3.782703e-001,2.301011e+000,2.458859e+000,1.922741e+000,4.381600e+000,-1.428133e+001,8.807600e+000,2.308893e+001,7.284768e-002,9.933775e-003,1.980000e+002,4.500000e+001,3.366158e-002,1.415754e-003,-1.794094e-001,2.653748e+000,1.110012e+001,3.333970e+000,-1.377246e-001,3.044406e+000,-2.037040e+000,3.464307e-002,2.442888e+000,2.071683e+000,2.408244e+000,4.479928e+000,-8.308125e+000,6.738189e+000,1.504631e+001,4.635762e-002,6.622517e-003,1.000000e+001,1.800000e+001,7.024134e-002,4.774276e-004,-1.611518e-003,2.910285e+000,1.443329e+001,3.799345e+000,4.063904e-002,3.484143e+000,-2.175849e+000,-6.860996e-003,2.311183e+000,2.168988e+000,2.318044e+000,4.487031e+000,-9.853150e+000,9.696242e+000,1.954939e+001,3.642384e-002,3.311258e-003,2.970000e+002,2.030000e+002,3.159946e-002,3.574625e-003,-5.063816e-001,2.326189e+000,8.838315e+000,2.989219e+000,1.977306e-001,3.275578e+000,-2.042097e+000,8.432507e-002,1.747694e+000,2.126422e+000,1.663369e+000,3.789791e+000,-6.822685e+000,7.869242e+000,1.469193e+001,8.609272e-002,1.986755e-002,9.600000e+001,1.220000e+002,-6.226808e-002,-4.691429e-004,8.337932e-003,2.264448e+000,8.259178e+000,2.874170e+000,1.878736e-001,2.872888e+000,-2.084104e+000,-1.338247e-001,1.700318e+000,1.950279e+000,1.834142e+000,3.784421e+000,-6.478407e+000,6.829131e+000,1.330754e+001,9.602649e-002,2.317881e-002,2.940000e+002,2.830000e+002,-9.116361e-002,-5.036439e-004,-1.536521e-002,2.131235e+000,7.108662e+000,2.666569e+000,6.015008e-003,2.784406e+000,-2.165122e+000,-1.652889e-002,1.633659e+000,2.148593e+000,1.650187e+000,3.798780e+000,-5.937813e+000,5.524703e+000,1.146252e+001,5.298013e-002,6.622517e-003,8.000000e+000,2.860000e+002,-4.089321e-003,-1.359886e-003,2.005735e-001,1.808761e+000,5.552658e+000,2.359388e+000,1.951049e-001,3.252001e+000,-1.378824e+000,-1.151108e-001,1.347224e+000,1.263714e+000,1.462335e+000,2.726048e+000,-5.132797e+000,5.834291e+000,1.096709e+001,3.973510e-002,9.933775e-003,2.770000e+002,2.490000e+002,5.746969e-003,1.299119e-003,-1.897705e-001,1.250320e+000,2.580800e+000,1.610474e+000,-5.131463e-001,3.193690e+000,-8.993446e-001,1.896587e-001,1.039638e+000,1.089003e+000,8.499789e-001,1.938982e+000,-4.201044e+000,3.055632e+000,7.256676e+000,1.589404e-001,2.980132e-002,1.790000e+002,1.630000e+002,6.017328e-003,-2.371200e-004,4.170389e-002,2.868909e-001,2.688980e-001,5.189656e-001,1.097471e+000,8.240335e+000,-1.275214e-001,-1.022611e-002,8.062023e-002,1.172953e-001,9.084634e-002,2.081416e-001,-1.321216e+000,2.004905e+000,3.326121e+000,4.304636e-002,1.655629e-002,1.800000e+002,1.630000e+002,1.061304e-002,-4.507451e-005,1.739675e-002,4.241572e-001,3.618095e-001,6.015189e-001,7.052142e-001,4.648407e+000,-3.314689e-001,7.986968e-003,2.828737e-001,3.394559e-001,2.748868e-001,6.143427e-001,-1.301998e+000,1.841454e+000,3.143452e+000,4.304636e-002,1.324503e-002,2.980000e+002,6.300000e+001,5.009204e-003,2.219324e-004,-2.839162e-002,4.137689e-001,2.961691e-001,5.445580e-001,2.349454e-001,3.514349e+000,-3.317210e-001,-2.556801e-002,2.912475e-001,3.061530e-001,3.168155e-001,6.229686e-001,-1.280523e+000,1.362269e+000,2.642791e+000,5.960265e-002,9.933775e-003,7.300000e+001,1.620000e+002,3.839457e-003,1.428882e-004,-1.766521e-002,4.404581e-001,3.665424e-001,6.055556e-001,6.700731e-001,4.174455e+000,-3.237822e-001,-6.512108e-002,2.558622e-001,2.586611e-001,3.209833e-001,5.796443e-001,-1.353976e+000,1.821317e+000,3.175292e+000,6.291391e-002,2.317881e-002,7.300000e+001,6.300000e+001,8.485282e-003,-1.155049e-004,2.586877e-002,4.015994e-001,3.104874e-001,5.573049e-001,5.790842e-001,4.761219e+000,-2.966219e-001,-4.032710e-002,2.490017e-001,2.562948e-001,2.893288e-001,5.456236e-001,-1.262437e+000,1.602434e+000,2.864872e+000,4.304636e-002,6.622517e-003,7.300000e+001,6.300000e+001,2.747597e-003,-1.024146e-004,1.816100e-002,3.567078e-001,2.543948e-001,5.044547e-001,5.047657e-001,5.356584e+000,-2.807542e-001,-1.091234e-002,2.119031e-001,2.698419e-001,2.228154e-001,4.926573e-001,-1.217816e+000,1.442344e+000,2.660161e+000,3.973510e-002,6.622517e-003,7.300000e+001,6.300000e+001,-6.551136e-003,-3.972055e-005,-5.731929e-004,3.262821e-001,2.188630e-001,4.678407e-001,5.334582e-001,6.438483e+000,-2.564862e-001,-1.920968e-002,1.616651e-001,2.372765e-001,1.808748e-001,4.181513e-001,-1.193716e+000,1.484661e+000,2.678377e+000,2.649007e-002,6.622517e-003,7.300000e+001,6.300000e+001,-1.117016e-002,1.288364e-004,-3.056004e-002,2.787452e-001,1.470271e-001,3.836057e-001,-5.923391e-002,4.510934e+000,-2.147475e-001,2.959490e-004,1.935800e-001,2.150434e-001,1.932841e-001,4.083275e-001,-9.317214e-001,1.002482e+000,1.934204e+000,6.291391e-002,1.655629e-002,1.650000e+002,1.800000e+001,-3.541208e-004,1.898808e-005,-3.211827e-003,1.615556e-002,5.259773e-004,2.299386e-002,-1.061235e-002,5.717665e+000,-1.094465e-002,-9.588503e-004,1.082969e-002,9.985797e-003,1.178854e-002,2.177433e-002,-6.331399e-002,6.564223e-002,1.289562e-001,2.649007e-002,6.622517e-003,1.200000e+001,1.790000e+002,-3.122541e-004,8.329324e-007,-4.376104e-004,2.566379e-002,1.072317e-003,3.274633e-002,-1.565941e-001,3.281433e+000,-2.206177e-002,5.277395e-004,2.058108e-002,2.258950e-002,2.005334e-002,4.264285e-002,-8.314625e-002,7.079025e-002,1.539365e-001,8.609272e-002,1.655629e-002,4.600000e+001,5.200000e+001,1.749969e-004,-2.128592e-005,3.378527e-003,2.213615e-002,8.407664e-004,2.905529e-002,-5.852773e-001,4.188436e+000,-1.572832e-002,4.847109e-004,1.949644e-002,1.621303e-002,1.901172e-002,3.522475e-002,-8.290506e-002,6.470799e-002,1.476130e-001,1.523179e-001,2.317881e-002,1.630000e+002,1.790000e+002,-1.001559e-003,8.167530e-006,-2.230773e-003,2.052625e-002,8.460000e-004,2.909479e-002,-1.105824e+000,5.632836e+000,-1.216383e-002,1.517409e-003,1.446740e-002,1.368123e-002,1.294999e-002,2.663122e-002,-1.020849e-001,5.631376e-002,1.583987e-001,2.218543e-001,3.642384e-002,1.000000e+001,2.980000e+002,-1.278515e-003,2.216594e-007,-1.311875e-003,1.704372e-002,5.164536e-004,2.272562e-002,-7.306329e-002,4.453624e+000,-1.543499e-002,-2.053249e-003,1.183684e-002,1.338174e-002,1.389009e-002,2.727183e-002,-6.182210e-002,5.691770e-002,1.187398e-001,5.629139e-002,9.933775e-003,2.920000e+002,2.980000e+002,-7.245556e-004,1.887427e-006,-1.008613e-003,1.103736e-002,2.308737e-004,1.519542e-002,-7.767956e-001,7.057314e+000,-8.273833e-003,-1.617134e-004,7.897476e-003,8.112120e-003,8.059189e-003,1.617131e-002,-3.858187e-002,3.204792e-002,7.062980e-002,9.271523e-002,9.933775e-003,2.830000e+002,1.800000e+001,-6.546072e-004,1.114135e-005,-2.331381e-003,1.877482e-002,5.953849e-004,2.441983e-002,1.300811e-001,3.219510e+000,-1.534033e-002,-2.231598e-004,1.396174e-002,1.511717e-002,1.418490e-002,2.930207e-002,-5.948983e-002,5.625987e-002,1.157497e-001,6.291391e-002,9.933775e-003,9.200000e+001,7.500000e+001,-3.497196e-004,6.318874e-006,-1.300710e-003,1.589323e-002,4.223108e-004,2.055758e-002,3.951080e-002,3.149138e+000,-1.384953e-002,-9.224057e-004,1.157432e-002,1.292713e-002,1.249672e-002,2.542385e-002,-4.683295e-002,4.552669e-002,9.235963e-002,6.622516e-002,6.622517e-003,3.800000e+001,9.500000e+001,4.023232e-001,-7.822208e-003,1.579566e+000,1.287127e+000,1.447885e+001,3.865733e+000,7.593163e+000,6.793026e+001,0.000000e+000,0.000000e+000,0.000000e+000,0.000000e+000,0.000000e+000,0.000000e+000,-4.435597e+000,2.334499e+001,2.778059e+001,6.622517e-003,6.622517e-003,1.800000e+002,1.600000e+002,1.446532e-003,-1.949843e-005,4.381046e-003,2.862764e-002,2.956678e-003,5.440191e-002,5.097322e-001,6.651209e+000,-4.509094e-003,1.126885e-004,5.457858e-003,4.621783e-003,5.345169e-003,9.966952e-003,-1.463240e-001,1.814453e-001,3.277693e-001,6.622516e-002,1.986755e-002,1.200000e+001,8.900000e+001,1.138572e+002,-5.408060e-001,1.379231e+002,3.077555e+001,1.419909e+003,4.021569e+001,-4.132613e-001,2.443054e+000,8.580806e+001,1.260664e+002,1.381957e+002,4.025835e+001,1.212926e+001,5.238760e+001,1.871503e+002,1.222222e-001,7.777778e-002,7.100000e+001,7.500000e+001,6.431973e-003,-1.081601e-004,1.124510e-002,3.932312e-003,2.542054e-005,5.772011e-003,1.062949e+000,2.768481e+000,2.434364e-003,3.351340e-003,9.936620e-003,9.169760e-004,6.585281e-003,7.502257e-003,2.019387e-002,8.888889e-002,3.333334e-002,1.200000e+001,6.300000e+001,2.297760e-003,-2.255914e-005,3.211405e-003,1.240975e-003,3.668138e-006,1.988280e-003,2.998162e+000,1.357352e+001,1.211639e-003,1.812702e-003,2.649948e-003,6.010621e-004,8.372462e-004,1.438308e-003,1.110631e-002,3.658536e-002,2.439024e-002,1.400000e+001,7.500000e+001,6.937449e-002,-5.905922e-004,9.565584e-002,3.733398e-002,2.323112e-003,5.058184e-002,1.552324e+000,6.464736e+000,2.967227e-002,5.547558e-002,9.576440e-002,2.580331e-002,4.028882e-002,6.609213e-002,2.589895e-001,3.333334e-002,2.222222e-002,1.300000e+001,2.400000e+001,1.237679e-007,-8.300480e-002,4.689771e+000,1.592243e+001,4.392165e+002,2.113475e+001,6.299360e-002,2.613671e+000,-1.175143e+001,9.501533e-002,1.238940e+001,1.184645e+001,1.229438e+001,2.414083e+001,4.775183e+001,1.228070e-001,1.754386e-002,8.600000e+001,9.000000e+001,7.594081e-013,-4.689071e-006,2.649325e-004,1.403727e-003,4.236712e-006,2.064103e-003,-4.721172e-002,4.335982e+000,-8.092670e-004,4.301135e-005,8.120367e-004,8.522783e-004,7.690254e-004,1.621304e-003,5.412255e-003,8.771930e-002,3.508772e-002,1.500000e+001,1.900000e+001,-9.516009e-013,-1.775212e-006,9.497382e-005,5.298074e-004,5.539956e-007,7.463635e-004,-3.196907e-001,6.449798e+000,-3.490484e-004,1.951971e-005,4.225449e-004,3.685681e-004,4.030252e-004,7.715933e-004,2.160132e-003,3.703704e-002,1.851852e-002,1.700000e+001,2.000000e+001,-1.378603e-010,-5.057576e-005,2.857530e-003,1.477863e-002,3.758069e-004,1.945705e-002,1.966658e-001,3.582633e+000,-1.129481e-002,8.226056e-004,1.072792e-002,1.211742e-002,9.905315e-003,2.202273e-002,5.515768e-002,5.263158e-002,1.754386e-002,8.000000e+000,3.040000e+000,0.0
